\relax 
\citation{freenet}
\citation{damap}
\citation{kademlia}
\citation{kademlia}
\citation{dalenius1977}
\citation{crowds}
\@writefile{toc}{\contentsline {section}{\numberline {1}Introduction}{1}}
\newlabel{sec:panacea_intro}{{1}{1}}
\@writefile{lof}{\contentsline {figure}{\numberline {1}{\ignorespaces Position of various systems on privacy and search efficiency axes.\relax }}{2}}
\providecommand*\caption@xref[2]{\@setref\relax\@undefined{#1}}
\newlabel{fig:pg}{{1}{2}}
\@writefile{toc}{\contentsline {subsection}{\numberline {1.1}Motivation}{2}}
\newlabel{sec:motivation}{{1.1}{2}}
\@writefile{toc}{\contentsline {section}{\numberline {2}The PANACEA System}{2}}
\newlabel{sec:panacea-system}{{2}{2}}
\citation{kanonymity}
\citation{crowds}
\citation{crowds}
\@writefile{toc}{\contentsline {subsection}{\numberline {2.1}Privacy preserving publishing}{3}}
\newlabel{sec:approach}{{2.1}{3}}
\@writefile{toc}{\contentsline {subsubsection}{\numberline {2.1.1}Probabilistic publishing}{3}}
\@writefile{toc}{\contentsline {subsubsection}{\numberline {2.1.2}RPP index generation}{3}}
\@writefile{toc}{\contentsline {subsubsection}{\numberline {2.1.3}Randomized forwarding}{3}}
\citation{privacyPreservingJournal}
\@writefile{lof}{\contentsline {figure}{\numberline {2}{\ignorespaces Privacy preserving publishing in PANACEA.\relax }}{4}}
\newlabel{fig:approach}{{2}{4}}
\@writefile{toc}{\contentsline {subsubsection}{\numberline {2.1.4}Insertion into the DHT}{4}}
\newlabel{sec:insertion}{{2.1.4}{4}}
\@writefile{toc}{\contentsline {subsection}{\numberline {2.2}Searching}{4}}
\newlabel{sec:search}{{2.2}{4}}
\@writefile{toc}{\contentsline {subsection}{\numberline {2.3}System description through an example}{5}}
\@writefile{toc}{\contentsline {section}{\numberline {3}Resource Anonymization}{5}}
\newlabel{sec:resource}{{3}{5}}
\@writefile{toc}{\contentsline {subsection}{\numberline {3.1}Anonymization by random selection (RS) approach}{5}}
\newlabel{sec:panacea_rs}{{3.1}{5}}
\@writefile{toc}{\contentsline {subsection}{\numberline {3.2}Anonymization by fixed selection (FS) approach}{5}}
\newlabel{sec:circular}{{3.2}{5}}
\@writefile{lof}{\contentsline {figure}{\numberline {3}{\ignorespaces Circular approach for key anonymization\relax }}{6}}
\newlabel{fig:circular}{{3}{6}}
\@writefile{toc}{\contentsline {subsubsection}{\numberline {3.2.1}Dictionary construction and distribution}{6}}
\newlabel{algorithm}{{\caption@xref {algorithm}{ on input line 52}}{6}}
\@writefile{loa}{\contentsline {algorithm}{\numberline {1}{\ignorespaces The circular approach\relax }}{6}}
\citation{crowds}
\newlabel{eq:newindex}{{1}{7}}
\@writefile{toc}{\contentsline {subsection}{\numberline {3.3}Discussion}{8}}
\newlabel{sec:panacea_discussion}{{3.3}{8}}
\@writefile{toc}{\contentsline {section}{\numberline {4}Privacy and Performance Analysis}{8}}
\newlabel{sec:analysis}{{4}{8}}
\@writefile{toc}{\contentsline {subsection}{\numberline {4.1}Analytical modeling of privacy}{8}}
\newlabel{sec:analyticalmodelingofprivacy}{{4.1}{8}}
\citation{serjantov02towards}
\citation{Diaz02towardsmeasuring}
\citation{serjantov02towards}
\citation{Diaz02towardsmeasuring}
\citation{minimality}
\@writefile{toc}{\contentsline {subsubsection}{\numberline {4.1.1}Probabilistic approach}{9}}
\newlabel{sec:probabilisticdef}{{4.1.1}{9}}
\newlabel{def}{{4.1.1}{9}}
\@writefile{toc}{\contentsline {subsubsection}{\numberline {4.1.2}Information-theoretic approach}{9}}
\newlabel{sec:entropydef}{{4.1.2}{9}}
\@writefile{toc}{\contentsline {subsection}{\numberline {4.2}Adversary models}{9}}
\newlabel{sec:adversarymodels}{{4.2}{9}}
\@writefile{toc}{\contentsline {subsubsection}{\numberline {4.2.1}Notation}{10}}
\newlabel{sec:panacea_notation}{{4.2.1}{10}}
\@writefile{toc}{\contentsline {subsection}{\numberline {4.3}Single Entry Case ({\it  SEC})}{10}}
\newlabel{sec:single}{{4.3}{10}}
\@writefile{toc}{\contentsline {subsubsection}{\numberline {4.3.1}Probabilistic approach}{10}}
\newlabel{sec:probabilistic}{{4.3.1}{10}}
\newlabel{pva_panacea}{{4.3.1}{11}}
\newlabel{pka_panacea}{{4}{11}}
\newlabel{csa_panacea}{{5}{11}}
\newlabel{pminus_panacea}{{6}{11}}
\newlabel{csminus_panacea}{{7}{11}}
\@writefile{toc}{\contentsline {subsubsection}{\numberline {4.3.2}Information-theoretic approach}{11}}
\newlabel{sec:entropy}{{4.3.2}{11}}
\newlabel{p_entropy}{{8}{12}}
\newlabel{r_entropy}{{9}{12}}
\@writefile{toc}{\contentsline {subsubsection}{\numberline {4.3.3}Resource anonymization with Random Selection}{12}}
\newlabel{pka_panacea_rs}{{10}{12}}
\newlabel{pva_panacea_rs}{{11}{13}}
\@writefile{toc}{\contentsline {subsection}{\numberline {4.4}Multiple Entry Case ({\it  MEC})}{13}}
\newlabel{theorem:privacyforset}{{4.1}{13}}
\@writefile{toc}{\contentsline {subsubsection}{\numberline {4.4.1}Collusive group of adversaries}{14}}
\citation{sybilguard}
\citation{privacyPreservingIndex}
\citation{privacyPreservingIndex}
\citation{privacyPreservingIndex}
\@writefile{toc}{\contentsline {subsection}{\numberline {4.5}More attack scenarios}{15}}
\newlabel{sec:moreattacks}{{4.5}{15}}
\@writefile{toc}{\contentsline {subsection}{\numberline {4.6}The state-of-the-art privacy preserving indexing mechanism}{15}}
\newlabel{sec:ppianalysis}{{4.6}{15}}
\@writefile{toc}{\contentsline {subsubsection}{\numberline {4.6.1}Probabilistic approach}{15}}
\newlabel{pva_vldb}{{13}{15}}
\@writefile{toc}{\contentsline {subsubsection}{\numberline {4.6.2}Information theoretic approach}{15}}
\newlabel{hva_vldb}{{14}{15}}
\@writefile{toc}{\contentsline {section}{\numberline {5}Evaluation}{15}}
\newlabel{sec:panacea_evaluation}{{5}{15}}
\@writefile{toc}{\contentsline {subsection}{\numberline {5.1}Simulation based evaluation}{15}}
\newlabel{sec:panacea_sims}{{5.1}{15}}
\@writefile{toc}{\contentsline {subsubsection}{\numberline {5.1.1}Privacy and search cost}{16}}
\newlabel{fig:pak_nanc}{{4a}{17}}
\newlabel{sub@fig:pak_nanc}{{(a)}{a}}
\newlabel{fig:puk_nanc}{{4b}{17}}
\newlabel{sub@fig:puk_nanc}{{(b)}{b}}
\newlabel{fig:pav_nanc}{{4c}{17}}
\newlabel{sub@fig:pav_nanc}{{(c)}{c}}
\newlabel{fig:puv_nanc}{{4d}{17}}
\newlabel{sub@fig:puv_nanc}{{(d)}{d}}
\@writefile{lof}{\contentsline {figure}{\numberline {4}{\ignorespaces Privacy performance (Experiment-1)\relax }}{17}}
\newlabel{fig:kv_nanc}{{4}{17}}
\@writefile{toc}{\contentsline {subsubsection}{\numberline {5.1.2}System entropy}{17}}
\newlabel{entropy}{{5.1.2}{17}}
\@writefile{toc}{\contentsline {subsubsection}{\numberline {5.1.3}Anonymization by the RS-approach}{17}}
\citation{jkad}
\citation{kademlia}
\citation{emule}
\citation{planetlab}
\citation{freenet}
\newlabel{fig:csa_nanc}{{5a}{18}}
\newlabel{sub@fig:csa_nanc}{{(a)}{a}}
\newlabel{fig:csu_nanc}{{5b}{18}}
\newlabel{sub@fig:csu_nanc}{{(b)}{b}}
\@writefile{lof}{\contentsline {figure}{\numberline {5}{\ignorespaces Search performance (Experiment-1)\relax }}{18}}
\newlabel{fig:cost_nanc}{{5}{18}}
\@writefile{toc}{\contentsline {subsubsection}{\numberline {5.1.4}Discussion}{18}}
\@writefile{toc}{\contentsline {subsection}{\numberline {5.2}PANACEA prototype deployed over PlanetLab}{18}}
\@writefile{toc}{\contentsline {section}{\numberline {6}Related Work}{18}}
\newlabel{sec:relatedwork}{{6}{18}}
\citation{phera}
\citation{privacyPreservingJournal}
\citation{privacyPreservingJournal}
\citation{privacyPreservingJournal}
\citation{privacyPreservingJournal}
\citation{privacysurvey}
\citation{p4p}
\citation{privdocindexing2}
\newlabel{fig:pak_nabync}{{6a}{19}}
\newlabel{sub@fig:pak_nabync}{{(a)}{a}}
\newlabel{fig:puk_nabync}{{6b}{19}}
\newlabel{sub@fig:puk_nabync}{{(b)}{b}}
\newlabel{fig:pav_nabync}{{6c}{19}}
\newlabel{sub@fig:pav_nabync}{{(c)}{c}}
\newlabel{fig:puv_nabync}{{6d}{19}}
\newlabel{sub@fig:puv_nabync}{{(d)}{d}}
\@writefile{lof}{\contentsline {figure}{\numberline {6}{\ignorespaces Privacy performance (Experiment-2\&3)\relax }}{19}}
\newlabel{fig:kv_nabync}{{6}{19}}
\citation{crowds}
\citation{tor}
\citation{freenet}
\citation{agyaat}
\citation{freehaven}
\citation{noyb}
\newlabel{fig:csa_nabync}{{7a}{20}}
\newlabel{sub@fig:csa_nabync}{{(a)}{a}}
\newlabel{fig:csu_nabync}{{7b}{20}}
\newlabel{sub@fig:csu_nabync}{{(b)}{b}}
\@writefile{lof}{\contentsline {figure}{\numberline {7}{\ignorespaces Search performance (Experiment-2\&3)\relax }}{20}}
\newlabel{fig:cost_nabync}{{7}{20}}
\newlabel{fig:r_entropy}{{8a}{20}}
\newlabel{sub@fig:r_entropy}{{(a)}{a}}
\newlabel{fig:p_entropy}{{8b}{20}}
\newlabel{sub@fig:p_entropy}{{(b)}{b}}
\@writefile{lof}{\contentsline {figure}{\numberline {8}{\ignorespaces Entropy performance\relax }}{20}}
\newlabel{fig:entropy}{{8}{20}}
\@writefile{toc}{\contentsline {section}{\numberline {7}Conclusion}{20}}
\newlabel{sec:conclusion}{{7}{20}}
\bibstyle{IEEEtran}
\bibdata{mythesis}
\bibcite{freenet}{1}
\bibcite{damap}{2}
\bibcite{kademlia}{3}
\bibcite{dalenius1977}{4}
\bibcite{crowds}{5}
\bibcite{kanonymity}{6}
\bibcite{privacyPreservingJournal}{7}
\bibcite{serjantov02towards}{8}
\bibcite{Diaz02towardsmeasuring}{9}
\bibcite{minimality}{10}
\bibcite{sybilguard}{11}
\bibcite{privacyPreservingIndex}{12}
\bibcite{jkad}{13}
\bibcite{emule}{14}
\bibcite{planetlab}{15}
\bibcite{phera}{16}
\bibcite{privacysurvey}{17}
\bibcite{p4p}{18}
\bibcite{privdocindexing2}{19}
\bibcite{tor}{20}
\bibcite{agyaat}{21}
\bibcite{freehaven}{22}
\bibcite{noyb}{23}
\newlabel{fig:planetlab_v}{{9a}{21}}
\newlabel{sub@fig:planetlab_v}{{(a)}{a}}
\newlabel{fig:planetlab_cost}{{9b}{21}}
\newlabel{sub@fig:planetlab_cost}{{(b)}{b}}
\@writefile{lof}{\contentsline {figure}{\numberline {9}{\ignorespaces Evaluation on PlanetLab\relax }}{21}}
\newlabel{fig:planetlab}{{9}{21}}
\@writefile{toc}{\contentsline {section}{References}{21}}
