%!PS-Adobe-3.0 EPSF-1.2
%%BoundingBox: 0 0 180 119
%%HiResBoundingBox: 0 0 180 119
%%Creator: (Wolfram Mathematica 7.0 for Linux x86 (32-bit) (February 25, 2009))
%%CreationDate: (Monday, November 30, 2009) (14:28:19)
%%Title: Clipboard
%%DocumentNeededResources: font Times-Roman
%%+ font Times-Italic
%%DocumentSuppliedResources: font Times-Roman-MISO
%%+ font Times-Italic-MISO
%%DocumentNeededFonts: Times-Roman
%%+ Times-Italic
%%DocumentSuppliedFonts: Times-Roman-MISO
%%+ Times-Italic-MISO
%%DocumentFonts: Times-Roman
%%+ Times-Italic
%%+ Times-Roman-MISO
%%+ Times-Italic-MISO
%%EndComments
/g { setgray} bind def
/k { setcmykcolor} bind def
/p { gsave} bind def
/r { setrgbcolor} bind def
/w { setlinewidth} bind def
/C { curveto} bind def
/F { fill} bind def
/L { lineto} bind def
/rL { rlineto} bind def
/P { grestore} bind def
/s { stroke} bind def
/S { show} bind def
/N {currentpoint 3 -1 roll show moveto} bind def
/Msf { findfont exch scalefont [1 0 0 -1 0 0 ] makefont setfont} bind def
/m { moveto} bind def
/Mr { rmoveto} bind def
/Mx {currentpoint exch pop moveto} bind def
/My {currentpoint pop exch moveto} bind def
/X {0 rmoveto} bind def
/Y {0 exch rmoveto} bind def
1 -1 scale 0 -118.053 translate
-47 -12 translate
[1 0 0 1 0 0 ]  concat
1 w
0 g
[ ] 0 setdash
2 setlinecap
0 setlinejoin
10 setmiterlimit
p
newpath 45 10 m
45 132.053 L
229 132.053 L
229 10 L
closepath
clip newpath
p
newpath 47 11.053 m
47 130.053 L
227 130.053 L
227 11.053 L
closepath
clip newpath
3.239 setmiterlimit
p
newpath 65 27.053 m
65 120.053 L
215 120.053 L
215 27.053 L
closepath
clip newpath
P
p
newpath 65 27.053 m
65 120.053 L
215 120.053 L
215 27.053 L
closepath
clip newpath
P
p
newpath 65 27.053 m
65 120.053 L
215 120.053 L
215 27.053 L
closepath
clip newpath
0.247 0.24 0.6 r
1.495 w
[ ] 0 setdash
3.25 setmiterlimit
82.351 110.837 m
82.391 110.832 L
82.43 110.828 L
82.509 110.818 L
82.668 110.798 L
82.985 110.759 L
83.619 110.68 L
84.886 110.522 L
87.635 110.18 L
90.201 109.86 L
92.717 109.547 L
95.446 109.207 L
97.993 108.89 L
100.754 108.547 L
103.464 108.209 L
105.992 107.895 L
108.733 107.553 L
111.292 107.235 L
113.8 106.923 L
116.522 106.584 L
119.062 106.268 L
121.815 105.925 L
124.518 105.589 L
127.038 105.275 L
129.772 104.935 L
132.324 104.617 L
135.089 104.273 L
137.803 103.935 L
140.336 103.62 L
143.081 103.278 L
145.645 102.959 L
148.158 102.646 L
150.884 102.306 L
153.429 101.99 L
156.186 101.647 L
158.893 101.31 L
161.418 100.995 L
164.157 100.654 L
166.713 100.336 L
169.219 100.024 L
171.938 99.686 L
174.475 99.37 L
177.225 99.028 L
179.793 98.708 L
182.311 98.395 L
185.042 98.055 L
187.591 97.737 L
190.353 97.394 L
193.064 97.056 L
195.594 96.741 L
198.337 96.4 L
200.898 96.081 L
203.408 95.768 L
206.132 95.429 L
208.673 95.113 L
208.717 95.108 L
208.762 95.102 L
208.85 95.091 L
209.028 95.069 L
209.382 95.025 L
210.092 94.936 L
210.136 94.931 L
210.18 94.925 L
210.269 94.914 L
210.446 94.892 L
210.801 94.848 L
210.845 94.843 L
210.89 94.837 L
210.978 94.826 L
211.156 94.804 L
211.2 94.798 L
211.244 94.793 L
211.333 94.782 L
211.377 94.776 L
211.422 94.771 L
211.466 94.765 L
211.51 94.76 L
s
0.6 0.24 0.443 r
[ 0.747 2.99 ] 0 setdash
82.351 30.46 m
83.619 30.46 L
84.886 30.46 L
87.635 30.46 L
90.201 30.46 L
92.717 30.46 L
95.446 30.46 L
97.993 30.46 L
100.754 30.46 L
103.464 30.46 L
105.992 30.46 L
108.733 30.46 L
111.292 30.46 L
113.8 30.46 L
116.522 30.46 L
119.062 30.46 L
121.815 30.46 L
124.518 30.46 L
127.038 30.46 L
129.772 30.46 L
132.324 30.46 L
135.089 30.46 L
137.803 30.46 L
140.336 30.46 L
143.081 30.46 L
145.645 30.46 L
148.158 30.46 L
150.884 30.46 L
153.429 30.46 L
156.186 30.46 L
158.893 30.46 L
161.418 30.46 L
164.157 30.46 L
166.713 30.46 L
169.219 30.46 L
171.938 30.46 L
174.475 30.46 L
177.225 30.46 L
179.793 30.46 L
182.311 30.46 L
185.042 30.46 L
187.591 30.46 L
190.353 30.46 L
193.064 30.46 L
195.594 30.46 L
198.337 30.46 L
200.898 30.46 L
203.408 30.46 L
206.132 30.46 L
208.673 30.46 L
210.092 30.46 L
211.51 30.46 L
s
0.6 0.547 0.24 r
[ 1.495 7.474 8.969 1.495 ] 0 setdash
82.351 113.574 m
83.619 113.574 L
84.886 113.574 L
87.635 113.574 L
90.201 113.574 L
92.717 113.574 L
95.446 113.574 L
97.993 113.574 L
100.754 113.574 L
103.464 113.574 L
105.992 113.574 L
108.733 113.574 L
111.292 113.574 L
113.8 113.574 L
116.522 113.574 L
119.062 113.574 L
121.815 113.574 L
124.518 113.574 L
127.038 113.574 L
129.772 113.574 L
132.324 113.574 L
135.089 113.574 L
137.803 113.574 L
140.336 113.574 L
143.081 113.574 L
145.645 113.574 L
148.158 113.574 L
150.884 113.574 L
153.429 113.574 L
156.186 113.574 L
158.893 113.574 L
161.418 113.574 L
164.157 113.574 L
166.713 113.574 L
169.219 113.574 L
171.938 113.574 L
174.475 113.574 L
177.225 113.574 L
179.793 113.574 L
182.311 113.574 L
185.042 113.574 L
187.591 113.574 L
190.353 113.574 L
193.064 113.574 L
195.594 113.574 L
198.337 113.574 L
200.898 113.574 L
203.408 113.574 L
206.132 113.574 L
208.673 113.574 L
210.092 113.574 L
211.51 113.574 L
s
P
0 g
0.2 w
[ ] 0 setdash
3.25 setmiterlimit
p
0 setlinecap
68 117.1 m
68 114.961 L
s
P
[1 0 0 1 65.75 120.1 ]  concat
0.2 w
[ ] 0 setdash
p
newpath -2 -2 m
-2 11.953 L
6.5 11.953 L
6.5 -2 L
closepath
clip newpath
P
[1 0 0 1 -65.75 -120.1 ]  concat
0.2 w
[ ] 0 setdash
[1 0 0 1 6.91e-15 8.74e-16 ]  concat
0.2 w
[ ] 0 setdash
0.2 w
[ ] 0 setdash
p
0 setlinecap
75.176 117.1 m
75.176 115.817 L
s
P
p
0 setlinecap
82.351 117.1 m
82.351 115.817 L
s
P
p
0 setlinecap
89.527 117.1 m
89.527 115.817 L
s
P
p
0 setlinecap
96.702 117.1 m
96.702 114.961 L
s
P
[1 0 0 1 -2.16e-32 -1.54e-33 ]  concat
0.2 w
[ ] 0 setdash
p
newpath 93.452 119.1 m
93.452 131.053 L
99.952 131.053 L
99.952 119.1 L
closepath
clip newpath
p
1 w
0 g
[ ] 0 setdash
2 setlinecap
0 setlinejoin
10 setmiterlimit
[1 0 0 1 94.452 120.1 ]  concat
1 w
[ ] 0 setdash
p
newpath -2 -2 m
-2 11.953 L
6.5 11.953 L
6.5 -2 L
closepath
clip newpath
/MISOfy
{
    /newfontname exch def
    /oldfontname exch def

    oldfontname findfont
    dup length dict begin
        {1 index /FID ne {def} {pop pop} ifelse} forall
        /Encoding ISOLatin1Encoding def
        currentdict
    end

    newfontname exch definefont pop
} def
%%IncludeResource: font Times-Roman
%%IncludeFont: Times-Roman
%%BeginResource: font Times-Roman-MISO
%%BeginFont: Times-Roman-MISO
/Times-Roman /Times-Roman-MISO MISOfy
%%EndFont
%%EndResource
%%IncludeResource: font Times-Roman-MISO
%%IncludeFont: Times-Roman-MISO
9 /Times-Roman-MISO Msf
0 8 m
(2) N
P
[1 0 0 1 -94.452 -120.1 ]  concat
1 w
[ ] 0 setdash
P
P
[1 0 0 1 3.42e-49 -1.71e-49 ]  concat
0.2 w
[ ] 0 setdash
[ ] 0 setdash
p
0 setlinecap
103.878 117.1 m
103.878 115.817 L
s
P
p
0 setlinecap
111.053 117.1 m
111.053 115.817 L
s
P
p
0 setlinecap
118.229 117.1 m
118.229 115.817 L
s
P
p
0 setlinecap
125.404 117.1 m
125.404 114.961 L
s
P
[1 0 0 1 3.8e-65 -1.9e-65 ]  concat
0.2 w
[ ] 0 setdash
p
newpath 122.154 119.1 m
122.154 131.053 L
128.654 131.053 L
128.654 119.1 L
closepath
clip newpath
p
1 w
0 g
[ ] 0 setdash
2 setlinecap
0 setlinejoin
10 setmiterlimit
[1 0 0 1 123.154 120.1 ]  concat
1 w
[ ] 0 setdash
p
newpath -2 -2 m
-2 11.953 L
6.5 11.953 L
6.5 -2 L
closepath
clip newpath
%%IncludeResource: font Times-Roman-MISO
%%IncludeFont: Times-Roman-MISO
9 /Times-Roman-MISO Msf
0 8 m
(4) N
P
[1 0 0 1 -123.154 -120.1 ]  concat
1 w
[ ] 0 setdash
P
P
[1 0 0 1 4.22e-81 -2.11e-81 ]  concat
0.2 w
[ ] 0 setdash
[ ] 0 setdash
p
0 setlinecap
132.58 117.1 m
132.58 115.817 L
s
P
p
0 setlinecap
139.755 117.1 m
139.755 115.817 L
s
P
p
0 setlinecap
146.931 117.1 m
146.931 115.817 L
s
P
p
0 setlinecap
154.106 117.1 m
154.106 114.961 L
s
P
[1 0 0 1 4.68e-97 -2.34e-97 ]  concat
0.2 w
[ ] 0 setdash
p
newpath 150.856 119.1 m
150.856 131.053 L
157.356 131.053 L
157.356 119.1 L
closepath
clip newpath
p
1 w
0 g
[ ] 0 setdash
2 setlinecap
0 setlinejoin
10 setmiterlimit
[1 0 0 1 151.856 120.1 ]  concat
1 w
[ ] 0 setdash
p
newpath -2 -2 m
-2 11.953 L
6.5 11.953 L
6.5 -2 L
closepath
clip newpath
%%IncludeResource: font Times-Roman-MISO
%%IncludeFont: Times-Roman-MISO
9 /Times-Roman-MISO Msf
0 8 m
(6) N
P
[1 0 0 1 -151.856 -120.1 ]  concat
1 w
[ ] 0 setdash
P
P
[1 0 0 1 5.2e-113 -2.6e-113 ]  concat
0.2 w
[ ] 0 setdash
[ ] 0 setdash
p
0 setlinecap
161.282 117.1 m
161.282 115.817 L
s
P
p
0 setlinecap
168.457 117.1 m
168.457 115.817 L
s
P
p
0 setlinecap
175.633 117.1 m
175.633 115.817 L
s
P
p
0 setlinecap
182.808 117.1 m
182.808 114.961 L
s
P
[1 0 0 1 5.77e-129 -2.89e-129 ]  concat
0.2 w
[ ] 0 setdash
p
newpath 179.558 119.1 m
179.558 131.053 L
186.058 131.053 L
186.058 119.1 L
closepath
clip newpath
p
1 w
0 g
[ ] 0 setdash
2 setlinecap
0 setlinejoin
10 setmiterlimit
[1 0 0 1 180.558 120.1 ]  concat
1 w
[ ] 0 setdash
p
newpath -2 -2 m
-2 11.953 L
6.5 11.953 L
6.5 -2 L
closepath
clip newpath
%%IncludeResource: font Times-Roman-MISO
%%IncludeFont: Times-Roman-MISO
9 /Times-Roman-MISO Msf
0 8 m
(8) N
P
[1 0 0 1 -180.558 -120.1 ]  concat
1 w
[ ] 0 setdash
P
P
[1 0 0 1 6.41e-145 -3.2e-145 ]  concat
0.2 w
[ ] 0 setdash
[ ] 0 setdash
p
0 setlinecap
189.984 117.1 m
189.984 115.817 L
s
P
p
0 setlinecap
197.159 117.1 m
197.159 115.817 L
s
P
p
0 setlinecap
204.335 117.1 m
204.335 115.817 L
s
P
p
0 setlinecap
211.51 117.1 m
211.51 114.961 L
s
P
[1 0 0 1 7.11e-161 -3.56e-161 ]  concat
0.2 w
[ ] 0 setdash
p
newpath 206.01 119.1 m
206.01 131.053 L
217.01 131.053 L
217.01 119.1 L
closepath
clip newpath
p
1 w
0 g
[ ] 0 setdash
2 setlinecap
0 setlinejoin
10 setmiterlimit
[1 0 0 1 207.01 120.1 ]  concat
1 w
[ ] 0 setdash
p
newpath -2 -2 m
-2 11.953 L
11 11.953 L
11 -2 L
closepath
clip newpath
%%IncludeResource: font Times-Roman-MISO
%%IncludeFont: Times-Roman-MISO
9 /Times-Roman-MISO Msf
0 8 m
(10) N
P
[1 0 0 1 -207.01 -120.1 ]  concat
1 w
[ ] 0 setdash
P
P
[1 0 0 1 7.9e-177 -3.95e-177 ]  concat
0.2 w
[ ] 0 setdash
[ ] 0 setdash
p
0 setlinecap
65.01 117.1 m
214.5 117.1 L
s
P
[1 0 0 1 8.77e-193 -4.38e-193 ]  concat
0.2 w
[ ] 0 setdash
p
newpath 221.5 112.05 m
221.5 122.15 L
228 122.15 L
228 112.05 L
closepath
clip newpath
p
1 w
0 g
[ ] 0 setdash
2 setlinecap
0 setlinejoin
10 setmiterlimit
[1 0 0 1 222.5 113.05 ]  concat
1 w
[ ] 0 setdash
p
newpath -2 -2 m
-2 10.1 L
6.5 10.1 L
6.5 -2 L
closepath
clip newpath
%%IncludeResource: font Times-Roman-MISO
%%IncludeFont: Times-Roman-MISO
9 /Times-Roman-MISO Msf
0 6.147 m
(n) N
P
[1 0 0 1 -222.5 -113.05 ]  concat
1 w
[ ] 0 setdash
P
P
[1 0 0 1 9.73e-209 -4.87e-209 ]  concat
0.2 w
[ ] 0 setdash
[ ] 0 setdash
p
0 setlinecap
68 117.1 m
70.139 117.1 L
s
P
[1 0 0 1 1.08e-224 -5.4e-225 ]  concat
0.2 w
[ ] 0 setdash
[1 0 0 1 60.5 112.123 ]  concat
0.2 w
[ ] 0 setdash
p
newpath -2 -2 m
-2 11.953 L
6.5 11.953 L
6.5 -2 L
closepath
clip newpath
P
[1 0 0 1 -60.5 -112.123 ]  concat
0.2 w
[ ] 0 setdash
[1 0 0 1 7.77e-16 3.52e-15 ]  concat
0.2 w
[ ] 0 setdash
0.2 w
[ ] 0 setdash
p
0 setlinecap
68 114.122 m
69.283 114.122 L
s
P
p
0 setlinecap
68 111.145 m
69.283 111.145 L
s
P
p
0 setlinecap
68 108.168 m
69.283 108.168 L
s
P
p
0 setlinecap
68 105.19 m
70.139 105.19 L
s
P
[1 0 0 1 0 0 ]  concat
0.2 w
[ ] 0 setdash
p
newpath 50.5 99.214 m
50.5 111.167 L
66 111.167 L
66 99.214 L
closepath
clip newpath
p
1 w
0 g
[ ] 0 setdash
2 setlinecap
0 setlinejoin
10 setmiterlimit
[1 0 0 1 51.5 100.214 ]  concat
1 w
[ ] 0 setdash
p
newpath -2 -2 m
-2 11.953 L
15.5 11.953 L
15.5 -2 L
closepath
clip newpath
%%IncludeResource: font Times-Roman-MISO
%%IncludeFont: Times-Roman-MISO
9 /Times-Roman-MISO Msf
0 8 m
(200) N
P
[1 0 0 1 -51.5 -100.214 ]  concat
1 w
[ ] 0 setdash
P
P
[1 0 0 1 0 0 ]  concat
0.2 w
[ ] 0 setdash
[ ] 0 setdash
p
0 setlinecap
68 102.213 m
69.283 102.213 L
s
P
p
0 setlinecap
68 99.236 m
69.283 99.236 L
s
P
p
0 setlinecap
68 96.258 m
69.283 96.258 L
s
P
p
0 setlinecap
68 93.281 m
70.139 93.281 L
s
P
[1 0 0 1 0 0 ]  concat
0.2 w
[ ] 0 setdash
p
newpath 50.5 87.305 m
50.5 99.258 L
66 99.258 L
66 87.305 L
closepath
clip newpath
p
1 w
0 g
[ ] 0 setdash
2 setlinecap
0 setlinejoin
10 setmiterlimit
[1 0 0 1 51.5 88.305 ]  concat
1 w
[ ] 0 setdash
p
newpath -2 -2 m
-2 11.953 L
15.5 11.953 L
15.5 -2 L
closepath
clip newpath
%%IncludeResource: font Times-Roman-MISO
%%IncludeFont: Times-Roman-MISO
9 /Times-Roman-MISO Msf
0 8 m
(400) N
P
[1 0 0 1 -51.5 -88.305 ]  concat
1 w
[ ] 0 setdash
P
P
[1 0 0 1 0 0 ]  concat
0.2 w
[ ] 0 setdash
[ ] 0 setdash
p
0 setlinecap
68 90.304 m
69.283 90.304 L
s
P
p
0 setlinecap
68 87.326 m
69.283 87.326 L
s
P
p
0 setlinecap
68 84.349 m
69.283 84.349 L
s
P
p
0 setlinecap
68 81.372 m
70.139 81.372 L
s
P
[1 0 0 1 0 0 ]  concat
0.2 w
[ ] 0 setdash
p
newpath 50.5 75.395 m
50.5 87.348 L
66 87.348 L
66 75.395 L
closepath
clip newpath
p
1 w
0 g
[ ] 0 setdash
2 setlinecap
0 setlinejoin
10 setmiterlimit
[1 0 0 1 51.5 76.395 ]  concat
1 w
[ ] 0 setdash
p
newpath -2 -2 m
-2 11.953 L
15.5 11.953 L
15.5 -2 L
closepath
clip newpath
%%IncludeResource: font Times-Roman-MISO
%%IncludeFont: Times-Roman-MISO
9 /Times-Roman-MISO Msf
0 8 m
(600) N
P
[1 0 0 1 -51.5 -76.395 ]  concat
1 w
[ ] 0 setdash
P
P
[1 0 0 1 0 0 ]  concat
0.2 w
[ ] 0 setdash
[ ] 0 setdash
p
0 setlinecap
68 78.394 m
69.283 78.394 L
s
P
p
0 setlinecap
68 75.417 m
69.283 75.417 L
s
P
p
0 setlinecap
68 72.44 m
69.283 72.44 L
s
P
p
0 setlinecap
68 69.463 m
70.139 69.463 L
s
P
[1 0 0 1 0 0 ]  concat
0.2 w
[ ] 0 setdash
p
newpath 50.5 63.486 m
50.5 75.439 L
66 75.439 L
66 63.486 L
closepath
clip newpath
p
1 w
0 g
[ ] 0 setdash
2 setlinecap
0 setlinejoin
10 setmiterlimit
[1 0 0 1 51.5 64.486 ]  concat
1 w
[ ] 0 setdash
p
newpath -2 -2 m
-2 11.953 L
15.5 11.953 L
15.5 -2 L
closepath
clip newpath
%%IncludeResource: font Times-Roman-MISO
%%IncludeFont: Times-Roman-MISO
9 /Times-Roman-MISO Msf
0 8 m
(800) N
P
[1 0 0 1 -51.5 -64.486 ]  concat
1 w
[ ] 0 setdash
P
P
[1 0 0 1 0 0 ]  concat
0.2 w
[ ] 0 setdash
[ ] 0 setdash
p
0 setlinecap
68 66.485 m
69.283 66.485 L
s
P
p
0 setlinecap
68 63.508 m
69.283 63.508 L
s
P
p
0 setlinecap
68 60.531 m
69.283 60.531 L
s
P
p
0 setlinecap
68 57.553 m
70.139 57.553 L
s
P
[1 0 0 1 0 0 ]  concat
0.2 w
[ ] 0 setdash
p
newpath 46 51.577 m
46 63.53 L
66 63.53 L
66 51.577 L
closepath
clip newpath
p
1 w
0 g
[ ] 0 setdash
2 setlinecap
0 setlinejoin
10 setmiterlimit
[1 0 0 1 47 52.577 ]  concat
1 w
[ ] 0 setdash
p
newpath -2 -2 m
-2 11.953 L
20 11.953 L
20 -2 L
closepath
clip newpath
%%IncludeResource: font Times-Roman-MISO
%%IncludeFont: Times-Roman-MISO
9 /Times-Roman-MISO Msf
0 8 m
(1000) N
P
[1 0 0 1 -47 -52.577 ]  concat
1 w
[ ] 0 setdash
P
P
[1 0 0 1 0 0 ]  concat
0.2 w
[ ] 0 setdash
[ ] 0 setdash
p
0 setlinecap
68 54.576 m
69.283 54.576 L
s
P
p
0 setlinecap
68 51.599 m
69.283 51.599 L
s
P
p
0 setlinecap
68 48.621 m
69.283 48.621 L
s
P
p
0 setlinecap
68 45.644 m
70.139 45.644 L
s
P
[1 0 0 1 0 0 ]  concat
0.2 w
[ ] 0 setdash
p
newpath 46 39.667 m
46 51.62 L
66 51.62 L
66 39.667 L
closepath
clip newpath
p
1 w
0 g
[ ] 0 setdash
2 setlinecap
0 setlinejoin
10 setmiterlimit
[1 0 0 1 47 40.667 ]  concat
1 w
[ ] 0 setdash
p
newpath -2 -2 m
-2 11.953 L
20 11.953 L
20 -2 L
closepath
clip newpath
%%IncludeResource: font Times-Roman-MISO
%%IncludeFont: Times-Roman-MISO
9 /Times-Roman-MISO Msf
0 8 m
(1200) N
P
[1 0 0 1 -47 -40.667 ]  concat
1 w
[ ] 0 setdash
P
P
[1 0 0 1 0 0 ]  concat
0.2 w
[ ] 0 setdash
[ ] 0 setdash
p
0 setlinecap
68 42.667 m
69.283 42.667 L
s
P
p
0 setlinecap
68 39.689 m
69.283 39.689 L
s
P
p
0 setlinecap
68 36.712 m
69.283 36.712 L
s
P
p
0 setlinecap
68 33.735 m
70.139 33.735 L
s
P
[1 0 0 1 0 0 ]  concat
0.2 w
[ ] 0 setdash
p
newpath 46 27.758 m
46 39.711 L
66 39.711 L
66 27.758 L
closepath
clip newpath
p
1 w
0 g
[ ] 0 setdash
2 setlinecap
0 setlinejoin
10 setmiterlimit
[1 0 0 1 47 28.758 ]  concat
1 w
[ ] 0 setdash
p
newpath -2 -2 m
-2 11.953 L
20 11.953 L
20 -2 L
closepath
clip newpath
%%IncludeResource: font Times-Roman-MISO
%%IncludeFont: Times-Roman-MISO
9 /Times-Roman-MISO Msf
0 8 m
(1400) N
P
[1 0 0 1 -47 -28.758 ]  concat
1 w
[ ] 0 setdash
P
P
[1 0 0 1 0 0 ]  concat
0.2 w
[ ] 0 setdash
[ ] 0 setdash
p
0 setlinecap
68 30.757 m
69.283 30.757 L
s
P
p
0 setlinecap
68 27.78 m
69.283 27.78 L
s
P
[ ] 0 setdash
p
0 setlinecap
68 119.975 m
68 27.585 L
s
P
[1 0 0 1 0 0 ]  concat
0.2 w
[ ] 0 setdash
p
newpath 60.109 11 m
60.109 22.585 L
75.891 22.585 L
75.891 11 L
closepath
clip newpath
p
1 w
0 g
[ ] 0 setdash
2 setlinecap
0 setlinejoin
10 setmiterlimit
[1 0 0 1 61.109 12 ]  concat
1 w
[ ] 0 setdash
p
newpath -2 -2 m
-2 11.585 L
15.781 11.585 L
15.781 -2 L
closepath
clip newpath
%%IncludeResource: font Times-Roman-MISO
%%IncludeFont: Times-Roman-MISO
9 /Times-Roman-MISO Msf
%%IncludeResource: font Times-Italic
%%IncludeFont: Times-Italic
%%BeginResource: font Times-Italic-MISO
%%BeginFont: Times-Italic-MISO
/Times-Italic /Times-Italic-MISO MISOfy
%%EndFont
%%EndResource
%%IncludeResource: font Times-Italic-MISO
%%IncludeFont: Times-Italic-MISO
9 /Times-Italic-MISO Msf
0 6.147 m
(C) N
%%IncludeResource: font Times-Italic-MISO
%%IncludeFont: Times-Italic-MISO
6.39 /Times-Italic-MISO Msf
6.003 7.585 m
(s) N
%%IncludeResource: font Times-Roman-MISO
%%IncludeFont: Times-Roman-MISO
6.39 /Times-Roman-MISO Msf
8.489 7.585 m
(,) N
%%IncludeResource: font Times-Italic-MISO
%%IncludeFont: Times-Italic-MISO
6.39 /Times-Italic-MISO Msf
10.086 7.585 m
(a) N
%%IncludeResource: font Times-Roman-MISO
%%IncludeFont: Times-Roman-MISO
9 /Times-Roman-MISO Msf
P
[1 0 0 1 -61.109 -12 ]  concat
1 w
[ ] 0 setdash
P
P
[1 0 0 1 0 0 ]  concat
0.2 w
[ ] 0 setdash
p
newpath 65 27.053 m
65 120.053 L
215 120.053 L
215 27.053 L
closepath
clip newpath
P
P
P
1 w
0 g
[ ] 0 setdash
2 setlinecap
0 setlinejoin
10 setmiterlimit
%Trailer
%EOF
