%!PS-Adobe-3.0 EPSF-1.2
%%BoundingBox: 0 0 180 124
%%HiResBoundingBox: 0 0 180 124
%%Creator: (Wolfram Mathematica 7.0 for Linux x86 (32-bit) (February 25, 2009))
%%CreationDate: (Monday, November 30, 2009) (14:27:13)
%%Title: Clipboard
%%DocumentNeededResources: font Times-Roman
%%+ font Times-Italic
%%DocumentSuppliedResources: font Times-Roman-MISO
%%+ font Times-Italic-MISO
%%DocumentNeededFonts: Times-Roman
%%+ Times-Italic
%%DocumentSuppliedFonts: Times-Roman-MISO
%%+ Times-Italic-MISO
%%DocumentFonts: Times-Roman
%%+ Times-Italic
%%+ Times-Roman-MISO
%%+ Times-Italic-MISO
%%EndComments
/g { setgray} bind def
/k { setcmykcolor} bind def
/p { gsave} bind def
/r { setrgbcolor} bind def
/w { setlinewidth} bind def
/C { curveto} bind def
/F { fill} bind def
/L { lineto} bind def
/rL { rlineto} bind def
/P { grestore} bind def
/s { stroke} bind def
/S { show} bind def
/N {currentpoint 3 -1 roll show moveto} bind def
/Msf { findfont exch scalefont [1 0 0 -1 0 0 ] makefont setfont} bind def
/m { moveto} bind def
/Mr { rmoveto} bind def
/Mx {currentpoint exch pop moveto} bind def
/My {currentpoint pop exch moveto} bind def
/X {0 rmoveto} bind def
/Y {0 exch rmoveto} bind def
1 -1 scale 0 -123.929 translate
-47 -12 translate
[1 0 0 1 0 0 ]  concat
1 w
0 g
[ ] 0 setdash
2 setlinecap
0 setlinejoin
10 setmiterlimit
p
newpath 45 10 m
45 137.929 L
229 137.929 L
229 10 L
closepath
clip newpath
p
newpath 47 11.929 m
47 135.929 L
227 135.929 L
227 11.929 L
closepath
clip newpath
3.239 setmiterlimit
p
newpath 58 26.929 m
58 123.929 L
212 123.929 L
212 26.929 L
closepath
clip newpath
P
p
newpath 58 26.929 m
58 123.929 L
212 123.929 L
212 26.929 L
closepath
clip newpath
P
p
newpath 58 26.929 m
58 123.929 L
212 123.929 L
212 26.929 L
closepath
clip newpath
0.247 0.24 0.6 r
1.538 w
[ ] 0 setdash
3.25 setmiterlimit
76.036 27.907 m
76.058 27.943 L
76.099 28.002 L
76.139 28.053 L
76.18 28.099 L
76.221 28.139 L
76.262 28.176 L
76.302 28.209 L
76.343 28.238 L
76.384 28.265 L
76.425 28.29 L
76.466 28.313 L
76.506 28.334 L
76.547 28.353 L
76.588 28.371 L
76.669 28.403 L
76.71 28.418 L
76.751 28.432 L
76.832 28.456 L
76.873 28.468 L
76.914 28.478 L
76.995 28.498 L
77.036 28.507 L
77.077 28.516 L
77.158 28.532 L
77.199 28.539 L
77.24 28.546 L
77.322 28.56 L
77.362 28.566 L
77.403 28.572 L
77.485 28.583 L
77.525 28.588 L
77.566 28.593 L
77.648 28.603 L
77.688 28.607 L
77.729 28.612 L
77.811 28.62 L
77.974 28.635 L
78.014 28.638 L
78.055 28.641 L
78.137 28.648 L
78.3 28.659 L
78.341 28.662 L
78.381 28.665 L
78.463 28.67 L
78.626 28.679 L
78.67 28.681 L
78.714 28.684 L
78.803 28.688 L
78.979 28.696 L
79.024 28.698 L
79.068 28.7 L
79.156 28.703 L
79.333 28.71 L
79.377 28.712 L
79.421 28.713 L
79.51 28.716 L
79.686 28.722 L
80.04 28.732 L
80.084 28.733 L
80.128 28.734 L
80.217 28.736 L
80.393 28.74 L
80.438 28.741 L
80.482 28.742 L
80.57 28.744 L
80.747 28.747 L
80.791 28.748 L
80.835 28.749 L
80.924 28.751 L
81.101 28.754 L
81.454 28.759 L
81.495 28.76 L
81.537 28.761 L
81.619 28.762 L
81.784 28.764 L
82.114 28.768 L
82.155 28.769 L
82.197 28.769 L
82.279 28.77 L
82.444 28.772 L
82.774 28.776 L
82.816 28.776 L
82.857 28.776 L
82.939 28.777 L
83.105 28.779 L
83.435 28.782 L
84.095 28.787 L
84.135 28.787 L
84.176 28.787 L
84.257 28.788 L
84.418 28.789 L
84.742 28.791 L
84.782 28.791 L
84.823 28.792 L
84.904 28.792 L
85.066 28.793 L
85.389 28.795 L
85.43 28.795 L
85.47 28.795 L
85.551 28.796 L
85.713 28.797 L
86.037 28.798 L
86.684 28.801 L
86.728 28.801 L
86.772 28.802 L
86.859 28.802 L
87.035 28.803 L
87.386 28.804 L
88.088 28.807 L
88.132 28.807 L
88.176 28.807 L
88.263 28.807 L
88.439 28.808 L
88.79 28.809 L
89.492 28.811 L
89.533 28.811 L
89.574 28.811 L
89.656 28.811 L
89.82 28.812 L
90.147 28.813 L
90.803 28.814 L
90.844 28.814 L
90.885 28.814 L
90.966 28.815 L
91.13 28.815 L
91.458 28.816 L
92.113 28.817 L
92.157 28.817 L
92.202 28.817 L
92.291 28.817 L
92.468 28.818 L
92.823 28.818 L
93.533 28.82 L
93.578 28.82 L
93.622 28.82 L
93.711 28.82 L
93.888 28.82 L
94.243 28.821 L
94.953 28.822 L
94.997 28.822 L
95.041 28.822 L
95.128 28.822 L
95.302 28.822 L
95.651 28.823 L
96.348 28.824 L
97.742 28.825 L
97.783 28.825 L
97.823 28.825 L
97.905 28.825 L
98.067 28.826 L
98.392 28.826 L
99.043 28.826 L
100.343 28.828 L
100.387 28.828 L
100.431 28.828 L
100.52 28.828 L
100.696 28.828 L
101.048 28.828 L
101.754 28.829 L
103.164 28.83 L
103.205 28.83 L
103.246 28.83 L
103.328 28.83 L
103.493 28.83 L
103.822 28.83 L
104.48 28.831 L
105.797 28.832 L
108.378 28.833 L
111.179 28.834 L
113.793 28.835 L
116.625 28.836 L
119.407 28.837 L
122 28.838 L
124.813 28.838 L
127.439 28.839 L
130.284 28.84 L
133.077 28.84 L
135.683 28.84 L
138.508 28.841 L
141.146 28.841 L
143.732 28.841 L
146.538 28.842 L
149.156 28.842 L
151.993 28.842 L
154.779 28.843 L
157.377 28.843 L
160.195 28.843 L
162.825 28.843 L
165.404 28.843 L
168.202 28.844 L
170.812 28.844 L
173.642 28.844 L
176.285 28.844 L
178.875 28.844 L
181.686 28.844 L
184.308 28.844 L
187.151 28.845 L
189.941 28.845 L
192.544 28.845 L
195.366 28.845 L
198.001 28.845 L
200.584 28.845 L
203.387 28.845 L
206.002 28.845 L
206.048 28.845 L
206.093 28.845 L
206.185 28.845 L
206.367 28.845 L
206.732 28.845 L
207.462 28.845 L
207.507 28.845 L
207.553 28.845 L
207.644 28.845 L
207.827 28.845 L
208.192 28.845 L
208.237 28.845 L
208.283 28.845 L
208.374 28.845 L
208.557 28.845 L
208.602 28.845 L
208.648 28.845 L
208.739 28.845 L
208.785 28.845 L
208.83 28.845 L
208.876 28.845 L
208.922 28.845 L
s
0.6 0.24 0.443 r
[ 0.769 3.076 ] 0 setdash
76.017 73.828 m
77.322 73.828 L
78.626 73.828 L
81.454 73.828 L
84.095 73.828 L
86.684 73.828 L
89.492 73.828 L
92.113 73.828 L
94.953 73.828 L
97.742 73.828 L
100.343 73.828 L
103.164 73.828 L
105.797 73.828 L
108.378 73.828 L
111.179 73.828 L
113.793 73.828 L
116.625 73.828 L
119.407 73.828 L
122 73.828 L
124.813 73.828 L
127.439 73.828 L
130.284 73.828 L
133.077 73.828 L
135.683 73.828 L
138.508 73.828 L
141.146 73.828 L
143.732 73.828 L
146.538 73.828 L
149.156 73.828 L
151.993 73.828 L
154.779 73.828 L
157.377 73.828 L
160.195 73.828 L
162.825 73.828 L
165.404 73.828 L
168.202 73.828 L
170.812 73.828 L
173.642 73.828 L
176.285 73.828 L
178.875 73.828 L
181.686 73.828 L
184.308 73.828 L
187.151 73.828 L
189.941 73.828 L
192.544 73.828 L
195.366 73.828 L
198.001 73.828 L
200.584 73.828 L
203.387 73.828 L
206.002 73.828 L
207.462 73.828 L
208.922 73.828 L
s
0.6 0.547 0.24 r
[ 1.538 7.691 9.229 1.538 ] 0 setdash
76.017 27.907 m
77.322 27.907 L
78.626 27.907 L
81.454 27.907 L
84.095 27.907 L
86.684 27.907 L
89.492 27.907 L
92.113 27.907 L
94.953 27.907 L
97.742 27.907 L
100.343 27.907 L
103.164 27.907 L
105.797 27.907 L
108.378 27.907 L
111.179 27.907 L
113.793 27.907 L
116.625 27.907 L
119.407 27.907 L
122 27.907 L
124.813 27.907 L
127.439 27.907 L
130.284 27.907 L
133.077 27.907 L
135.683 27.907 L
138.508 27.907 L
141.146 27.907 L
143.732 27.907 L
146.538 27.907 L
149.156 27.907 L
151.993 27.907 L
154.779 27.907 L
157.377 27.907 L
160.195 27.907 L
162.825 27.907 L
165.404 27.907 L
168.202 27.907 L
170.812 27.907 L
173.642 27.907 L
176.285 27.907 L
178.875 27.907 L
181.686 27.907 L
184.308 27.907 L
187.151 27.907 L
189.941 27.907 L
192.544 27.907 L
195.366 27.907 L
198.001 27.907 L
200.584 27.907 L
203.387 27.907 L
206.002 27.907 L
207.462 27.907 L
208.922 27.907 L
s
P
0 g
0.2 w
[ ] 0 setdash
3.25 setmiterlimit
p
0 setlinecap
61.25 122.976 m
61.25 120.867 L
s
P
p
newpath 58 124.976 m
58 136.929 L
64.5 136.929 L
64.5 124.976 L
closepath
clip newpath
p
1 w
0 g
[ ] 0 setdash
2 setlinecap
0 setlinejoin
10 setmiterlimit
[1 0 0 1 59 125.976 ]  concat
1 w
[ ] 0 setdash
p
newpath -2 -2 m
-2 11.953 L
6.5 11.953 L
6.5 -2 L
closepath
clip newpath
/MISOfy
{
    /newfontname exch def
    /oldfontname exch def

    oldfontname findfont
    dup length dict begin
        {1 index /FID ne {def} {pop pop} ifelse} forall
        /Encoding ISOLatin1Encoding def
        currentdict
    end

    newfontname exch definefont pop
} def
%%IncludeResource: font Times-Roman
%%IncludeFont: Times-Roman
%%BeginResource: font Times-Roman-MISO
%%BeginFont: Times-Roman-MISO
/Times-Roman /Times-Roman-MISO MISOfy
%%EndFont
%%EndResource
%%IncludeResource: font Times-Roman-MISO
%%IncludeFont: Times-Roman-MISO
9 /Times-Roman-MISO Msf
0 8 m
(0) N
P
[1 0 0 1 -59 -125.976 ]  concat
1 w
[ ] 0 setdash
P
P
[ ] 0 setdash
p
0 setlinecap
68.634 122.976 m
68.634 121.711 L
s
P
p
0 setlinecap
76.017 122.976 m
76.017 121.711 L
s
P
p
0 setlinecap
83.401 122.976 m
83.401 121.711 L
s
P
p
0 setlinecap
90.784 122.976 m
90.784 120.867 L
s
P
p
newpath 87.534 124.976 m
87.534 136.929 L
94.034 136.929 L
94.034 124.976 L
closepath
clip newpath
p
1 w
0 g
[ ] 0 setdash
2 setlinecap
0 setlinejoin
10 setmiterlimit
[1 0 0 1 88.534 125.976 ]  concat
1 w
[ ] 0 setdash
p
newpath -2 -2 m
-2 11.953 L
6.5 11.953 L
6.5 -2 L
closepath
clip newpath
%%IncludeResource: font Times-Roman-MISO
%%IncludeFont: Times-Roman-MISO
9 /Times-Roman-MISO Msf
0 8 m
(2) N
P
[1 0 0 1 -88.534 -125.976 ]  concat
1 w
[ ] 0 setdash
P
P
[ ] 0 setdash
p
0 setlinecap
98.168 122.976 m
98.168 121.711 L
s
P
p
0 setlinecap
105.551 122.976 m
105.551 121.711 L
s
P
p
0 setlinecap
112.935 122.976 m
112.935 121.711 L
s
P
p
0 setlinecap
120.319 122.976 m
120.319 120.867 L
s
P
p
newpath 117.069 124.976 m
117.069 136.929 L
123.569 136.929 L
123.569 124.976 L
closepath
clip newpath
p
1 w
0 g
[ ] 0 setdash
2 setlinecap
0 setlinejoin
10 setmiterlimit
[1 0 0 1 118.069 125.976 ]  concat
1 w
[ ] 0 setdash
p
newpath -2 -2 m
-2 11.953 L
6.5 11.953 L
6.5 -2 L
closepath
clip newpath
%%IncludeResource: font Times-Roman-MISO
%%IncludeFont: Times-Roman-MISO
9 /Times-Roman-MISO Msf
0 8 m
(4) N
P
[1 0 0 1 -118.069 -125.976 ]  concat
1 w
[ ] 0 setdash
P
P
[ ] 0 setdash
p
0 setlinecap
127.702 122.976 m
127.702 121.711 L
s
P
p
0 setlinecap
135.086 122.976 m
135.086 121.711 L
s
P
p
0 setlinecap
142.469 122.976 m
142.469 121.711 L
s
P
p
0 setlinecap
149.853 122.976 m
149.853 120.867 L
s
P
p
newpath 146.603 124.976 m
146.603 136.929 L
153.103 136.929 L
153.103 124.976 L
closepath
clip newpath
p
1 w
0 g
[ ] 0 setdash
2 setlinecap
0 setlinejoin
10 setmiterlimit
[1 0 0 1 147.603 125.976 ]  concat
1 w
[ ] 0 setdash
p
newpath -2 -2 m
-2 11.953 L
6.5 11.953 L
6.5 -2 L
closepath
clip newpath
%%IncludeResource: font Times-Roman-MISO
%%IncludeFont: Times-Roman-MISO
9 /Times-Roman-MISO Msf
0 8 m
(6) N
P
[1 0 0 1 -147.603 -125.976 ]  concat
1 w
[ ] 0 setdash
P
P
[ ] 0 setdash
p
0 setlinecap
157.236 122.976 m
157.236 121.711 L
s
P
p
0 setlinecap
164.62 122.976 m
164.62 121.711 L
s
P
p
0 setlinecap
172.004 122.976 m
172.004 121.711 L
s
P
p
0 setlinecap
179.387 122.976 m
179.387 120.867 L
s
P
p
newpath 176.137 124.976 m
176.137 136.929 L
182.637 136.929 L
182.637 124.976 L
closepath
clip newpath
p
1 w
0 g
[ ] 0 setdash
2 setlinecap
0 setlinejoin
10 setmiterlimit
[1 0 0 1 177.137 125.976 ]  concat
1 w
[ ] 0 setdash
p
newpath -2 -2 m
-2 11.953 L
6.5 11.953 L
6.5 -2 L
closepath
clip newpath
%%IncludeResource: font Times-Roman-MISO
%%IncludeFont: Times-Roman-MISO
9 /Times-Roman-MISO Msf
0 8 m
(8) N
P
[1 0 0 1 -177.137 -125.976 ]  concat
1 w
[ ] 0 setdash
P
P
[ ] 0 setdash
p
0 setlinecap
186.771 122.976 m
186.771 121.711 L
s
P
p
0 setlinecap
194.154 122.976 m
194.154 121.711 L
s
P
p
0 setlinecap
201.538 122.976 m
201.538 121.711 L
s
P
p
0 setlinecap
208.922 122.976 m
208.922 120.867 L
s
P
p
newpath 203.422 124.976 m
203.422 136.929 L
214.422 136.929 L
214.422 124.976 L
closepath
clip newpath
p
1 w
0 g
[ ] 0 setdash
2 setlinecap
0 setlinejoin
10 setmiterlimit
[1 0 0 1 204.422 125.976 ]  concat
1 w
[ ] 0 setdash
p
newpath -2 -2 m
-2 11.953 L
11 11.953 L
11 -2 L
closepath
clip newpath
%%IncludeResource: font Times-Roman-MISO
%%IncludeFont: Times-Roman-MISO
9 /Times-Roman-MISO Msf
0 8 m
(10) N
P
[1 0 0 1 -204.422 -125.976 ]  concat
1 w
[ ] 0 setdash
P
P
[ ] 0 setdash
p
0 setlinecap
58.174 122.976 m
211.998 122.976 L
s
P
p
newpath 218.998 117.926 m
218.998 128.026 L
228 128.026 L
228 117.926 L
closepath
clip newpath
p
1 w
0 g
[ ] 0 setdash
2 setlinecap
0 setlinejoin
10 setmiterlimit
[1 0 0 1 219.998 118.926 ]  concat
1 w
[ ] 0 setdash
p
newpath -2 -2 m
-2 10.1 L
9.002 10.1 L
9.002 -2 L
closepath
clip newpath
%%IncludeResource: font Times-Roman-MISO
%%IncludeFont: Times-Roman-MISO
9 /Times-Roman-MISO Msf
0 6.147 m
(m) N
P
[1 0 0 1 -219.998 -118.926 ]  concat
1 w
[ ] 0 setdash
P
P
[ ] 0 setdash
p
0 setlinecap
61.25 122.976 m
63.358 122.976 L
s
P
[1 0 0 1 47 117.999 ]  concat
0.2 w
[ ] 0 setdash
p
newpath -2 -2 m
-2 11.953 L
13.25 11.953 L
13.25 -2 L
closepath
clip newpath
P
[1 0 0 1 -47 -117.999 ]  concat
0.2 w
[ ] 0 setdash
[1 0 0 1 0 0 ]  concat
0.2 w
[ ] 0 setdash
[ ] 0 setdash
p
0 setlinecap
61.25 118.222 m
62.515 118.222 L
s
P
p
0 setlinecap
61.25 113.469 m
62.515 113.469 L
s
P
p
0 setlinecap
61.25 108.715 m
62.515 108.715 L
s
P
p
0 setlinecap
61.25 103.962 m
63.358 103.962 L
s
P
[1 0 0 1 0 0 ]  concat
0.2 w
[ ] 0 setdash
p
newpath 46 97.986 m
46 109.939 L
59.25 109.939 L
59.25 97.986 L
closepath
clip newpath
p
1 w
0 g
[ ] 0 setdash
2 setlinecap
0 setlinejoin
10 setmiterlimit
[1 0 0 1 47 98.986 ]  concat
1 w
[ ] 0 setdash
p
newpath -2 -2 m
-2 11.953 L
13.25 11.953 L
13.25 -2 L
closepath
clip newpath
%%IncludeResource: font Times-Roman-MISO
%%IncludeFont: Times-Roman-MISO
9 /Times-Roman-MISO Msf
0 8 m
(0.2) N
P
[1 0 0 1 -47 -98.986 ]  concat
1 w
[ ] 0 setdash
P
P
[1 0 0 1 0 0 ]  concat
0.2 w
[ ] 0 setdash
[ ] 0 setdash
p
0 setlinecap
61.25 99.209 m
62.515 99.209 L
s
P
p
0 setlinecap
61.25 94.455 m
62.515 94.455 L
s
P
p
0 setlinecap
61.25 89.702 m
62.515 89.702 L
s
P
p
0 setlinecap
61.25 84.948 m
63.358 84.948 L
s
P
[1 0 0 1 0 0 ]  concat
0.2 w
[ ] 0 setdash
p
newpath 46 78.972 m
46 90.925 L
59.25 90.925 L
59.25 78.972 L
closepath
clip newpath
p
1 w
0 g
[ ] 0 setdash
2 setlinecap
0 setlinejoin
10 setmiterlimit
[1 0 0 1 47 79.972 ]  concat
1 w
[ ] 0 setdash
p
newpath -2 -2 m
-2 11.953 L
13.25 11.953 L
13.25 -2 L
closepath
clip newpath
%%IncludeResource: font Times-Roman-MISO
%%IncludeFont: Times-Roman-MISO
9 /Times-Roman-MISO Msf
0 8 m
(0.4) N
P
[1 0 0 1 -47 -79.972 ]  concat
1 w
[ ] 0 setdash
P
P
[1 0 0 1 0 0 ]  concat
0.2 w
[ ] 0 setdash
[ ] 0 setdash
p
0 setlinecap
61.25 80.195 m
62.515 80.195 L
s
P
p
0 setlinecap
61.25 75.441 m
62.515 75.441 L
s
P
p
0 setlinecap
61.25 70.688 m
62.515 70.688 L
s
P
p
0 setlinecap
61.25 65.935 m
63.358 65.935 L
s
P
[1 0 0 1 0 0 ]  concat
0.2 w
[ ] 0 setdash
p
newpath 46 59.958 m
46 71.911 L
59.25 71.911 L
59.25 59.958 L
closepath
clip newpath
p
1 w
0 g
[ ] 0 setdash
2 setlinecap
0 setlinejoin
10 setmiterlimit
[1 0 0 1 47 60.958 ]  concat
1 w
[ ] 0 setdash
p
newpath -2 -2 m
-2 11.953 L
13.25 11.953 L
13.25 -2 L
closepath
clip newpath
%%IncludeResource: font Times-Roman-MISO
%%IncludeFont: Times-Roman-MISO
9 /Times-Roman-MISO Msf
0 8 m
(0.6) N
P
[1 0 0 1 -47 -60.958 ]  concat
1 w
[ ] 0 setdash
P
P
[1 0 0 1 0 0 ]  concat
0.2 w
[ ] 0 setdash
[ ] 0 setdash
p
0 setlinecap
61.25 61.181 m
62.515 61.181 L
s
P
p
0 setlinecap
61.25 56.428 m
62.515 56.428 L
s
P
p
0 setlinecap
61.25 51.674 m
62.515 51.674 L
s
P
p
0 setlinecap
61.25 46.921 m
63.358 46.921 L
s
P
[1 0 0 1 0 0 ]  concat
0.2 w
[ ] 0 setdash
p
newpath 46 40.944 m
46 52.897 L
59.25 52.897 L
59.25 40.944 L
closepath
clip newpath
p
1 w
0 g
[ ] 0 setdash
2 setlinecap
0 setlinejoin
10 setmiterlimit
[1 0 0 1 47 41.944 ]  concat
1 w
[ ] 0 setdash
p
newpath -2 -2 m
-2 11.953 L
13.25 11.953 L
13.25 -2 L
closepath
clip newpath
%%IncludeResource: font Times-Roman-MISO
%%IncludeFont: Times-Roman-MISO
9 /Times-Roman-MISO Msf
0 8 m
(0.8) N
P
[1 0 0 1 -47 -41.944 ]  concat
1 w
[ ] 0 setdash
P
P
[1 0 0 1 0 0 ]  concat
0.2 w
[ ] 0 setdash
[ ] 0 setdash
p
0 setlinecap
61.25 42.167 m
62.515 42.167 L
s
P
p
0 setlinecap
61.25 37.414 m
62.515 37.414 L
s
P
p
0 setlinecap
61.25 32.66 m
62.515 32.66 L
s
P
p
0 setlinecap
61.25 27.907 m
63.358 27.907 L
s
P
[1 0 0 1 0 0 ]  concat
0.2 w
[ ] 0 setdash
p
newpath 46 21.93 m
46 33.883 L
59.25 33.883 L
59.25 21.93 L
closepath
clip newpath
p
1 w
0 g
[ ] 0 setdash
2 setlinecap
0 setlinejoin
10 setmiterlimit
[1 0 0 1 47 22.93 ]  concat
1 w
[ ] 0 setdash
p
newpath -2 -2 m
-2 11.953 L
13.25 11.953 L
13.25 -2 L
closepath
clip newpath
%%IncludeResource: font Times-Roman-MISO
%%IncludeFont: Times-Roman-MISO
9 /Times-Roman-MISO Msf
0 8 m
(1.0) N
P
[1 0 0 1 -47 -22.93 ]  concat
1 w
[ ] 0 setdash
P
P
[1 0 0 1 0 0 ]  concat
0.2 w
[ ] 0 setdash
[ ] 0 setdash
p
0 setlinecap
61.25 122.976 m
61.25 27.907 L
s
P
[1 0 0 1 0 0 ]  concat
0.2 w
[ ] 0 setdash
p
newpath 52.547 11 m
52.547 22.907 L
69.953 22.907 L
69.953 11 L
closepath
clip newpath
p
1 w
0 g
[ ] 0 setdash
2 setlinecap
0 setlinejoin
10 setmiterlimit
[1 0 0 1 53.547 12 ]  concat
1 w
[ ] 0 setdash
p
newpath -2 -2 m
-2 11.907 L
17.405 11.907 L
17.405 -2 L
closepath
clip newpath
%%IncludeResource: font Times-Roman-MISO
%%IncludeFont: Times-Roman-MISO
9 /Times-Roman-MISO Msf
%%IncludeResource: font Times-Italic
%%IncludeFont: Times-Italic
%%BeginResource: font Times-Italic-MISO
%%BeginFont: Times-Italic-MISO
/Times-Italic /Times-Italic-MISO MISOfy
%%EndFont
%%EndResource
%%IncludeResource: font Times-Italic-MISO
%%IncludeFont: Times-Italic-MISO
9 /Times-Italic-MISO Msf
0 6.147 m
(P) N
%%IncludeResource: font Times-Italic-MISO
%%IncludeFont: Times-Italic-MISO
6.39 /Times-Italic-MISO Msf
5.499 7.907 m
(K) N
%%IncludeResource: font Times-Roman-MISO
%%IncludeFont: Times-Roman-MISO
6.39 /Times-Roman-MISO Msf
10.113 7.907 m
(,) N
%%IncludeResource: font Times-Italic-MISO
%%IncludeFont: Times-Italic-MISO
6.39 /Times-Italic-MISO Msf
11.71 7.907 m
(a) N
%%IncludeResource: font Times-Roman-MISO
%%IncludeFont: Times-Roman-MISO
9 /Times-Roman-MISO Msf
P
[1 0 0 1 -53.547 -12 ]  concat
1 w
[ ] 0 setdash
P
P
[1 0 0 1 0 0 ]  concat
0.2 w
[ ] 0 setdash
p
newpath 58 26.929 m
58 123.929 L
212 123.929 L
212 26.929 L
closepath
clip newpath
P
P
P
1 w
0 g
[ ] 0 setdash
2 setlinecap
0 setlinejoin
10 setmiterlimit
%Trailer
%EOF
