%!PS-Adobe-3.0 EPSF-1.2
%%BoundingBox: 0 0 180 124
%%HiResBoundingBox: 0 0 180 124
%%Creator: (Wolfram Mathematica 7.0 for Linux x86 (32-bit) (February 25, 2009))
%%CreationDate: (Monday, November 30, 2009) (14:27:14)
%%Title: Clipboard
%%DocumentNeededResources: font Times-Roman
%%+ font Times-Italic
%%DocumentSuppliedResources: font Times-Roman-MISO
%%+ font Times-Italic-MISO
%%DocumentNeededFonts: Times-Roman
%%+ Times-Italic
%%DocumentSuppliedFonts: Times-Roman-MISO
%%+ Times-Italic-MISO
%%DocumentFonts: Times-Roman
%%+ Times-Italic
%%+ Times-Roman-MISO
%%+ Times-Italic-MISO
%%EndComments
/g { setgray} bind def
/k { setcmykcolor} bind def
/p { gsave} bind def
/r { setrgbcolor} bind def
/w { setlinewidth} bind def
/C { curveto} bind def
/F { fill} bind def
/L { lineto} bind def
/rL { rlineto} bind def
/P { grestore} bind def
/s { stroke} bind def
/S { show} bind def
/N {currentpoint 3 -1 roll show moveto} bind def
/Msf { findfont exch scalefont [1 0 0 -1 0 0 ] makefont setfont} bind def
/m { moveto} bind def
/Mr { rmoveto} bind def
/Mx {currentpoint exch pop moveto} bind def
/My {currentpoint pop exch moveto} bind def
/X {0 rmoveto} bind def
/Y {0 exch rmoveto} bind def
1 -1 scale 0 -123.929 translate
-47 -12 translate
[1 0 0 1 0 0 ]  concat
1 w
0 g
[ ] 0 setdash
2 setlinecap
0 setlinejoin
10 setmiterlimit
p
newpath 45 10 m
45 137.929 L
229 137.929 L
229 10 L
closepath
clip newpath
p
newpath 47 11.929 m
47 135.929 L
227 135.929 L
227 11.929 L
closepath
clip newpath
3.239 setmiterlimit
p
newpath 58 26.929 m
58 123.929 L
212 123.929 L
212 26.929 L
closepath
clip newpath
P
p
newpath 58 26.929 m
58 123.929 L
212 123.929 L
212 26.929 L
closepath
clip newpath
P
p
newpath 58 26.929 m
58 123.929 L
212 123.929 L
212 26.929 L
closepath
clip newpath
0.247 0.24 0.6 r
1.538 w
[ ] 0 setdash
3.25 setmiterlimit
76.017 27.908 m
76.058 35.171 L
76.099 41.393 L
76.139 46.785 L
76.18 51.503 L
76.221 55.667 L
76.262 59.37 L
76.302 62.684 L
76.343 65.668 L
76.384 68.37 L
76.425 70.827 L
76.466 73.072 L
76.506 75.131 L
76.547 77.026 L
76.588 78.777 L
76.669 81.905 L
76.71 83.308 L
76.751 84.618 L
76.792 85.845 L
76.832 86.995 L
76.873 88.076 L
76.914 89.094 L
76.995 90.961 L
77.036 91.819 L
77.077 92.632 L
77.158 94.138 L
77.199 94.836 L
77.24 95.501 L
77.322 96.741 L
77.362 97.32 L
77.403 97.873 L
77.485 98.912 L
77.525 99.4 L
77.566 99.868 L
77.648 100.751 L
77.688 101.168 L
77.729 101.569 L
77.811 102.329 L
77.974 103.698 L
78.014 104.012 L
78.055 104.316 L
78.137 104.896 L
78.3 105.954 L
78.341 106.2 L
78.381 106.438 L
78.463 106.895 L
78.626 107.737 L
78.67 107.951 L
78.714 108.158 L
78.803 108.556 L
78.979 109.291 L
79.024 109.464 L
79.068 109.632 L
79.156 109.955 L
79.333 110.558 L
79.377 110.7 L
79.421 110.839 L
79.51 111.107 L
79.686 111.61 L
80.04 112.497 L
80.084 112.598 L
80.128 112.698 L
80.217 112.891 L
80.393 113.256 L
80.438 113.343 L
80.482 113.429 L
80.57 113.596 L
80.747 113.912 L
80.791 113.988 L
80.835 114.063 L
80.924 114.209 L
81.101 114.486 L
81.454 114.991 L
81.495 115.046 L
81.537 115.1 L
81.619 115.207 L
81.784 115.411 L
82.114 115.789 L
82.155 115.834 L
82.197 115.878 L
82.279 115.965 L
82.444 116.132 L
82.774 116.443 L
82.816 116.48 L
82.857 116.516 L
82.939 116.588 L
83.105 116.727 L
83.435 116.987 L
84.095 117.448 L
84.135 117.474 L
84.176 117.499 L
84.257 117.55 L
84.418 117.648 L
84.742 117.835 L
84.782 117.858 L
84.823 117.88 L
84.904 117.924 L
85.066 118.009 L
85.389 118.172 L
85.43 118.192 L
85.47 118.211 L
85.551 118.25 L
85.713 118.324 L
86.037 118.467 L
86.684 118.729 L
86.728 118.745 L
86.772 118.762 L
86.859 118.794 L
87.035 118.858 L
87.386 118.98 L
88.088 119.203 L
88.132 119.216 L
88.176 119.229 L
88.263 119.255 L
88.439 119.305 L
88.79 119.402 L
89.492 119.582 L
89.533 119.592 L
89.574 119.602 L
89.656 119.621 L
89.82 119.66 L
90.147 119.734 L
90.803 119.873 L
90.844 119.881 L
90.885 119.889 L
90.966 119.906 L
91.13 119.938 L
91.458 120 L
92.113 120.118 L
92.157 120.125 L
92.202 120.133 L
92.291 120.148 L
92.468 120.177 L
92.823 120.235 L
93.533 120.343 L
93.578 120.349 L
93.622 120.356 L
93.711 120.369 L
93.888 120.394 L
94.243 120.443 L
94.953 120.535 L
94.997 120.541 L
95.041 120.546 L
95.128 120.557 L
95.302 120.578 L
95.651 120.62 L
96.348 120.698 L
97.742 120.841 L
97.783 120.845 L
97.823 120.849 L
97.905 120.857 L
98.067 120.872 L
98.392 120.902 L
99.043 120.959 L
100.343 121.065 L
100.387 121.068 L
100.431 121.072 L
100.52 121.078 L
100.696 121.092 L
101.048 121.118 L
101.754 121.168 L
103.164 121.26 L
103.205 121.262 L
103.246 121.265 L
103.328 121.27 L
103.493 121.28 L
103.822 121.3 L
104.48 121.338 L
105.797 121.409 L
108.378 121.532 L
111.179 121.645 L
113.793 121.736 L
116.625 121.822 L
119.407 121.895 L
122 121.955 L
124.813 122.013 L
127.439 122.062 L
130.284 122.109 L
133.077 122.151 L
135.683 122.187 L
138.508 122.223 L
141.146 122.253 L
143.732 122.28 L
146.538 122.308 L
149.156 122.331 L
151.993 122.355 L
154.779 122.377 L
157.377 122.396 L
160.195 122.415 L
162.825 122.432 L
165.404 122.448 L
168.202 122.464 L
170.812 122.478 L
173.642 122.492 L
176.285 122.505 L
178.875 122.517 L
181.686 122.529 L
184.308 122.54 L
187.151 122.551 L
189.941 122.561 L
192.544 122.57 L
195.366 122.58 L
198.001 122.588 L
200.584 122.596 L
203.387 122.605 L
206.002 122.612 L
206.048 122.612 L
206.093 122.612 L
206.185 122.613 L
206.367 122.613 L
206.732 122.614 L
207.462 122.616 L
207.507 122.616 L
207.553 122.616 L
207.644 122.617 L
207.827 122.617 L
208.192 122.618 L
208.237 122.618 L
208.283 122.618 L
208.374 122.619 L
208.557 122.619 L
208.602 122.619 L
208.648 122.619 L
208.739 122.62 L
208.785 122.62 L
208.83 122.62 L
208.876 122.62 L
208.922 122.62 L
s
0.6 0.24 0.443 r
[ 0.769 3.076 ] 0 setdash
76.017 122.976 m
76.058 122.976 L
76.099 122.976 L
76.18 122.976 L
76.343 122.976 L
76.669 122.976 L
77.322 122.976 L
78.626 122.976 L
81.454 122.976 L
84.095 122.976 L
86.684 122.976 L
89.492 122.976 L
92.113 122.976 L
94.953 122.976 L
97.742 122.976 L
100.343 122.976 L
103.164 122.976 L
105.797 122.976 L
108.378 122.976 L
111.179 122.976 L
113.793 122.976 L
116.625 122.976 L
119.407 122.976 L
122 122.976 L
124.813 122.976 L
127.439 122.976 L
130.284 122.976 L
133.077 122.976 L
135.683 122.976 L
138.508 122.976 L
141.146 122.976 L
143.732 122.976 L
146.538 122.976 L
149.156 122.976 L
151.993 122.976 L
154.779 122.976 L
157.377 122.976 L
160.195 122.976 L
162.825 122.976 L
165.404 122.976 L
168.202 122.976 L
170.812 122.976 L
173.642 122.976 L
176.285 122.976 L
178.875 122.976 L
181.686 122.976 L
184.308 122.976 L
187.151 122.976 L
189.941 122.976 L
192.544 122.976 L
195.366 122.976 L
198.001 122.976 L
200.584 122.976 L
203.387 122.976 L
206.002 122.976 L
206.048 122.976 L
206.093 122.976 L
206.185 122.976 L
206.367 122.976 L
206.732 122.976 L
207.462 122.976 L
207.507 122.976 L
207.553 122.976 L
207.644 122.976 L
207.827 122.976 L
208.192 122.976 L
208.237 122.976 L
208.283 122.976 L
208.374 122.976 L
208.557 122.976 L
208.602 122.976 L
208.648 122.976 L
208.739 122.976 L
208.785 122.976 L
208.83 122.976 L
208.876 122.976 L
208.922 122.976 L
s
0.6 0.547 0.24 r
[ 1.538 7.691 9.229 1.538 ] 0 setdash
76.017 27.907 m
77.322 27.907 L
78.626 27.907 L
81.454 27.907 L
84.095 27.907 L
86.684 27.907 L
89.492 27.907 L
92.113 27.907 L
94.953 27.907 L
97.742 27.907 L
100.343 27.907 L
103.164 27.907 L
105.797 27.907 L
108.378 27.907 L
111.179 27.907 L
113.793 27.907 L
116.625 27.907 L
119.407 27.907 L
122 27.907 L
124.813 27.907 L
127.439 27.907 L
130.284 27.907 L
133.077 27.907 L
135.683 27.907 L
138.508 27.907 L
141.146 27.907 L
143.732 27.907 L
146.538 27.907 L
149.156 27.907 L
151.993 27.907 L
154.779 27.907 L
157.377 27.907 L
160.195 27.907 L
162.825 27.907 L
165.404 27.907 L
168.202 27.907 L
170.812 27.907 L
173.642 27.907 L
176.285 27.907 L
178.875 27.907 L
181.686 27.907 L
184.308 27.907 L
187.151 27.907 L
189.941 27.907 L
192.544 27.907 L
195.366 27.907 L
198.001 27.907 L
200.584 27.907 L
203.387 27.907 L
206.002 27.907 L
207.462 27.907 L
208.922 27.907 L
s
P
0 g
0.2 w
[ ] 0 setdash
3.25 setmiterlimit
p
0 setlinecap
61.25 122.976 m
61.25 120.867 L
s
P
p
newpath 58 124.976 m
58 136.929 L
64.5 136.929 L
64.5 124.976 L
closepath
clip newpath
p
1 w
0 g
[ ] 0 setdash
2 setlinecap
0 setlinejoin
10 setmiterlimit
[1 0 0 1 59 125.976 ]  concat
1 w
[ ] 0 setdash
p
newpath -2 -2 m
-2 11.953 L
6.5 11.953 L
6.5 -2 L
closepath
clip newpath
/MISOfy
{
    /newfontname exch def
    /oldfontname exch def

    oldfontname findfont
    dup length dict begin
        {1 index /FID ne {def} {pop pop} ifelse} forall
        /Encoding ISOLatin1Encoding def
        currentdict
    end

    newfontname exch definefont pop
} def
%%IncludeResource: font Times-Roman
%%IncludeFont: Times-Roman
%%BeginResource: font Times-Roman-MISO
%%BeginFont: Times-Roman-MISO
/Times-Roman /Times-Roman-MISO MISOfy
%%EndFont
%%EndResource
%%IncludeResource: font Times-Roman-MISO
%%IncludeFont: Times-Roman-MISO
9 /Times-Roman-MISO Msf
0 8 m
(0) N
P
[1 0 0 1 -59 -125.976 ]  concat
1 w
[ ] 0 setdash
P
P
[ ] 0 setdash
p
0 setlinecap
68.634 122.976 m
68.634 121.711 L
s
P
p
0 setlinecap
76.017 122.976 m
76.017 121.711 L
s
P
p
0 setlinecap
83.401 122.976 m
83.401 121.711 L
s
P
p
0 setlinecap
90.784 122.976 m
90.784 120.867 L
s
P
p
newpath 87.534 124.976 m
87.534 136.929 L
94.034 136.929 L
94.034 124.976 L
closepath
clip newpath
p
1 w
0 g
[ ] 0 setdash
2 setlinecap
0 setlinejoin
10 setmiterlimit
[1 0 0 1 88.534 125.976 ]  concat
1 w
[ ] 0 setdash
p
newpath -2 -2 m
-2 11.953 L
6.5 11.953 L
6.5 -2 L
closepath
clip newpath
%%IncludeResource: font Times-Roman-MISO
%%IncludeFont: Times-Roman-MISO
9 /Times-Roman-MISO Msf
0 8 m
(2) N
P
[1 0 0 1 -88.534 -125.976 ]  concat
1 w
[ ] 0 setdash
P
P
[ ] 0 setdash
p
0 setlinecap
98.168 122.976 m
98.168 121.711 L
s
P
p
0 setlinecap
105.551 122.976 m
105.551 121.711 L
s
P
p
0 setlinecap
112.935 122.976 m
112.935 121.711 L
s
P
p
0 setlinecap
120.319 122.976 m
120.319 120.867 L
s
P
p
newpath 117.069 124.976 m
117.069 136.929 L
123.569 136.929 L
123.569 124.976 L
closepath
clip newpath
p
1 w
0 g
[ ] 0 setdash
2 setlinecap
0 setlinejoin
10 setmiterlimit
[1 0 0 1 118.069 125.976 ]  concat
1 w
[ ] 0 setdash
p
newpath -2 -2 m
-2 11.953 L
6.5 11.953 L
6.5 -2 L
closepath
clip newpath
%%IncludeResource: font Times-Roman-MISO
%%IncludeFont: Times-Roman-MISO
9 /Times-Roman-MISO Msf
0 8 m
(4) N
P
[1 0 0 1 -118.069 -125.976 ]  concat
1 w
[ ] 0 setdash
P
P
[ ] 0 setdash
p
0 setlinecap
127.702 122.976 m
127.702 121.711 L
s
P
p
0 setlinecap
135.086 122.976 m
135.086 121.711 L
s
P
p
0 setlinecap
142.469 122.976 m
142.469 121.711 L
s
P
p
0 setlinecap
149.853 122.976 m
149.853 120.867 L
s
P
p
newpath 146.603 124.976 m
146.603 136.929 L
153.103 136.929 L
153.103 124.976 L
closepath
clip newpath
p
1 w
0 g
[ ] 0 setdash
2 setlinecap
0 setlinejoin
10 setmiterlimit
[1 0 0 1 147.603 125.976 ]  concat
1 w
[ ] 0 setdash
p
newpath -2 -2 m
-2 11.953 L
6.5 11.953 L
6.5 -2 L
closepath
clip newpath
%%IncludeResource: font Times-Roman-MISO
%%IncludeFont: Times-Roman-MISO
9 /Times-Roman-MISO Msf
0 8 m
(6) N
P
[1 0 0 1 -147.603 -125.976 ]  concat
1 w
[ ] 0 setdash
P
P
[ ] 0 setdash
p
0 setlinecap
157.236 122.976 m
157.236 121.711 L
s
P
p
0 setlinecap
164.62 122.976 m
164.62 121.711 L
s
P
p
0 setlinecap
172.004 122.976 m
172.004 121.711 L
s
P
p
0 setlinecap
179.387 122.976 m
179.387 120.867 L
s
P
p
newpath 176.137 124.976 m
176.137 136.929 L
182.637 136.929 L
182.637 124.976 L
closepath
clip newpath
p
1 w
0 g
[ ] 0 setdash
2 setlinecap
0 setlinejoin
10 setmiterlimit
[1 0 0 1 177.137 125.976 ]  concat
1 w
[ ] 0 setdash
p
newpath -2 -2 m
-2 11.953 L
6.5 11.953 L
6.5 -2 L
closepath
clip newpath
%%IncludeResource: font Times-Roman-MISO
%%IncludeFont: Times-Roman-MISO
9 /Times-Roman-MISO Msf
0 8 m
(8) N
P
[1 0 0 1 -177.137 -125.976 ]  concat
1 w
[ ] 0 setdash
P
P
[ ] 0 setdash
p
0 setlinecap
186.771 122.976 m
186.771 121.711 L
s
P
p
0 setlinecap
194.154 122.976 m
194.154 121.711 L
s
P
p
0 setlinecap
201.538 122.976 m
201.538 121.711 L
s
P
p
0 setlinecap
208.922 122.976 m
208.922 120.867 L
s
P
p
newpath 203.422 124.976 m
203.422 136.929 L
214.422 136.929 L
214.422 124.976 L
closepath
clip newpath
p
1 w
0 g
[ ] 0 setdash
2 setlinecap
0 setlinejoin
10 setmiterlimit
[1 0 0 1 204.422 125.976 ]  concat
1 w
[ ] 0 setdash
p
newpath -2 -2 m
-2 11.953 L
11 11.953 L
11 -2 L
closepath
clip newpath
%%IncludeResource: font Times-Roman-MISO
%%IncludeFont: Times-Roman-MISO
9 /Times-Roman-MISO Msf
0 8 m
(10) N
P
[1 0 0 1 -204.422 -125.976 ]  concat
1 w
[ ] 0 setdash
P
P
[ ] 0 setdash
p
0 setlinecap
58.174 122.976 m
211.998 122.976 L
s
P
p
newpath 218.998 117.926 m
218.998 128.026 L
228 128.026 L
228 117.926 L
closepath
clip newpath
p
1 w
0 g
[ ] 0 setdash
2 setlinecap
0 setlinejoin
10 setmiterlimit
[1 0 0 1 219.998 118.926 ]  concat
1 w
[ ] 0 setdash
p
newpath -2 -2 m
-2 10.1 L
9.002 10.1 L
9.002 -2 L
closepath
clip newpath
%%IncludeResource: font Times-Roman-MISO
%%IncludeFont: Times-Roman-MISO
9 /Times-Roman-MISO Msf
0 6.147 m
(m) N
P
[1 0 0 1 -219.998 -118.926 ]  concat
1 w
[ ] 0 setdash
P
P
[ ] 0 setdash
p
0 setlinecap
61.25 122.976 m
63.358 122.976 L
s
P
[1 0 0 1 47 117.999 ]  concat
0.2 w
[ ] 0 setdash
p
newpath -2 -2 m
-2 11.953 L
13.25 11.953 L
13.25 -2 L
closepath
clip newpath
P
[1 0 0 1 -47 -117.999 ]  concat
0.2 w
[ ] 0 setdash
[1 0 0 1 0 0 ]  concat
0.2 w
[ ] 0 setdash
[ ] 0 setdash
p
0 setlinecap
61.25 118.222 m
62.515 118.222 L
s
P
p
0 setlinecap
61.25 113.469 m
62.515 113.469 L
s
P
p
0 setlinecap
61.25 108.715 m
62.515 108.715 L
s
P
p
0 setlinecap
61.25 103.962 m
63.358 103.962 L
s
P
[1 0 0 1 0 0 ]  concat
0.2 w
[ ] 0 setdash
p
newpath 46 97.986 m
46 109.939 L
59.25 109.939 L
59.25 97.986 L
closepath
clip newpath
p
1 w
0 g
[ ] 0 setdash
2 setlinecap
0 setlinejoin
10 setmiterlimit
[1 0 0 1 47 98.986 ]  concat
1 w
[ ] 0 setdash
p
newpath -2 -2 m
-2 11.953 L
13.25 11.953 L
13.25 -2 L
closepath
clip newpath
%%IncludeResource: font Times-Roman-MISO
%%IncludeFont: Times-Roman-MISO
9 /Times-Roman-MISO Msf
0 8 m
(0.2) N
P
[1 0 0 1 -47 -98.986 ]  concat
1 w
[ ] 0 setdash
P
P
[1 0 0 1 0 0 ]  concat
0.2 w
[ ] 0 setdash
[ ] 0 setdash
p
0 setlinecap
61.25 99.209 m
62.515 99.209 L
s
P
p
0 setlinecap
61.25 94.455 m
62.515 94.455 L
s
P
p
0 setlinecap
61.25 89.702 m
62.515 89.702 L
s
P
p
0 setlinecap
61.25 84.948 m
63.358 84.948 L
s
P
[1 0 0 1 0 0 ]  concat
0.2 w
[ ] 0 setdash
p
newpath 46 78.972 m
46 90.925 L
59.25 90.925 L
59.25 78.972 L
closepath
clip newpath
p
1 w
0 g
[ ] 0 setdash
2 setlinecap
0 setlinejoin
10 setmiterlimit
[1 0 0 1 47 79.972 ]  concat
1 w
[ ] 0 setdash
p
newpath -2 -2 m
-2 11.953 L
13.25 11.953 L
13.25 -2 L
closepath
clip newpath
%%IncludeResource: font Times-Roman-MISO
%%IncludeFont: Times-Roman-MISO
9 /Times-Roman-MISO Msf
0 8 m
(0.4) N
P
[1 0 0 1 -47 -79.972 ]  concat
1 w
[ ] 0 setdash
P
P
[1 0 0 1 0 0 ]  concat
0.2 w
[ ] 0 setdash
[ ] 0 setdash
p
0 setlinecap
61.25 80.195 m
62.515 80.195 L
s
P
p
0 setlinecap
61.25 75.441 m
62.515 75.441 L
s
P
p
0 setlinecap
61.25 70.688 m
62.515 70.688 L
s
P
p
0 setlinecap
61.25 65.935 m
63.358 65.935 L
s
P
[1 0 0 1 0 0 ]  concat
0.2 w
[ ] 0 setdash
p
newpath 46 59.958 m
46 71.911 L
59.25 71.911 L
59.25 59.958 L
closepath
clip newpath
p
1 w
0 g
[ ] 0 setdash
2 setlinecap
0 setlinejoin
10 setmiterlimit
[1 0 0 1 47 60.958 ]  concat
1 w
[ ] 0 setdash
p
newpath -2 -2 m
-2 11.953 L
13.25 11.953 L
13.25 -2 L
closepath
clip newpath
%%IncludeResource: font Times-Roman-MISO
%%IncludeFont: Times-Roman-MISO
9 /Times-Roman-MISO Msf
0 8 m
(0.6) N
P
[1 0 0 1 -47 -60.958 ]  concat
1 w
[ ] 0 setdash
P
P
[1 0 0 1 0 0 ]  concat
0.2 w
[ ] 0 setdash
[ ] 0 setdash
p
0 setlinecap
61.25 61.181 m
62.515 61.181 L
s
P
p
0 setlinecap
61.25 56.428 m
62.515 56.428 L
s
P
p
0 setlinecap
61.25 51.674 m
62.515 51.674 L
s
P
p
0 setlinecap
61.25 46.921 m
63.358 46.921 L
s
P
[1 0 0 1 0 0 ]  concat
0.2 w
[ ] 0 setdash
p
newpath 46 40.944 m
46 52.897 L
59.25 52.897 L
59.25 40.944 L
closepath
clip newpath
p
1 w
0 g
[ ] 0 setdash
2 setlinecap
0 setlinejoin
10 setmiterlimit
[1 0 0 1 47 41.944 ]  concat
1 w
[ ] 0 setdash
p
newpath -2 -2 m
-2 11.953 L
13.25 11.953 L
13.25 -2 L
closepath
clip newpath
%%IncludeResource: font Times-Roman-MISO
%%IncludeFont: Times-Roman-MISO
9 /Times-Roman-MISO Msf
0 8 m
(0.8) N
P
[1 0 0 1 -47 -41.944 ]  concat
1 w
[ ] 0 setdash
P
P
[1 0 0 1 0 0 ]  concat
0.2 w
[ ] 0 setdash
[ ] 0 setdash
p
0 setlinecap
61.25 42.167 m
62.515 42.167 L
s
P
p
0 setlinecap
61.25 37.414 m
62.515 37.414 L
s
P
p
0 setlinecap
61.25 32.66 m
62.515 32.66 L
s
P
p
0 setlinecap
61.25 27.907 m
63.358 27.907 L
s
P
[1 0 0 1 0 0 ]  concat
0.2 w
[ ] 0 setdash
p
newpath 46 21.93 m
46 33.883 L
59.25 33.883 L
59.25 21.93 L
closepath
clip newpath
p
1 w
0 g
[ ] 0 setdash
2 setlinecap
0 setlinejoin
10 setmiterlimit
[1 0 0 1 47 22.93 ]  concat
1 w
[ ] 0 setdash
p
newpath -2 -2 m
-2 11.953 L
13.25 11.953 L
13.25 -2 L
closepath
clip newpath
%%IncludeResource: font Times-Roman-MISO
%%IncludeFont: Times-Roman-MISO
9 /Times-Roman-MISO Msf
0 8 m
(1.0) N
P
[1 0 0 1 -47 -22.93 ]  concat
1 w
[ ] 0 setdash
P
P
[1 0 0 1 0 0 ]  concat
0.2 w
[ ] 0 setdash
[ ] 0 setdash
p
0 setlinecap
61.25 122.976 m
61.25 27.907 L
s
P
[1 0 0 1 0 0 ]  concat
0.2 w
[ ] 0 setdash
p
newpath 52.547 11 m
52.547 22.907 L
69.953 22.907 L
69.953 11 L
closepath
clip newpath
p
1 w
0 g
[ ] 0 setdash
2 setlinecap
0 setlinejoin
10 setmiterlimit
[1 0 0 1 53.547 12 ]  concat
1 w
[ ] 0 setdash
p
newpath -2 -2 m
-2 11.907 L
17.405 11.907 L
17.405 -2 L
closepath
clip newpath
%%IncludeResource: font Times-Roman-MISO
%%IncludeFont: Times-Roman-MISO
9 /Times-Roman-MISO Msf
%%IncludeResource: font Times-Italic
%%IncludeFont: Times-Italic
%%BeginResource: font Times-Italic-MISO
%%BeginFont: Times-Italic-MISO
/Times-Italic /Times-Italic-MISO MISOfy
%%EndFont
%%EndResource
%%IncludeResource: font Times-Italic-MISO
%%IncludeFont: Times-Italic-MISO
9 /Times-Italic-MISO Msf
0 6.147 m
(P) N
%%IncludeResource: font Times-Italic-MISO
%%IncludeFont: Times-Italic-MISO
6.39 /Times-Italic-MISO Msf
5.499 7.907 m
(K) N
%%IncludeResource: font Times-Roman-MISO
%%IncludeFont: Times-Roman-MISO
6.39 /Times-Roman-MISO Msf
10.113 7.907 m
(,) N
%%IncludeResource: font Times-Italic-MISO
%%IncludeFont: Times-Italic-MISO
6.39 /Times-Italic-MISO Msf
11.71 7.907 m
(u) N
%%IncludeResource: font Times-Roman-MISO
%%IncludeFont: Times-Roman-MISO
9 /Times-Roman-MISO Msf
P
[1 0 0 1 -53.547 -12 ]  concat
1 w
[ ] 0 setdash
P
P
[1 0 0 1 0 0 ]  concat
0.2 w
[ ] 0 setdash
p
newpath 58 26.929 m
58 123.929 L
212 123.929 L
212 26.929 L
closepath
clip newpath
P
P
P
1 w
0 g
[ ] 0 setdash
2 setlinecap
0 setlinejoin
10 setmiterlimit
%Trailer
%EOF
