\relax 
\@writefile{toc}{\contentsline {section}{\numberline {I}Technical Updates}{1}}
\@writefile{toc}{\contentsline {subsection}{\numberline {\unhbox \voidb@x \hbox {I-A}}RR- Randomized Routing}{1}}
\@writefile{toc}{\contentsline {subsection}{\numberline {\unhbox \voidb@x \hbox {I-B}}RA- Resource Anonymization}{1}}
\@writefile{toc}{\contentsline {section}{\numberline {II}Privacy analysis- No collusions}{1}}
\citation{agyaat}
\citation{privacyPreserving}
\citation{unique}
\@writefile{toc}{\contentsline {section}{\numberline {III}Privacy analysis- Collusions}{2}}
\@writefile{toc}{\contentsline {section}{\numberline {IV}Attacking Model}{2}}
\@writefile{toc}{\contentsline {section}{\numberline {V}Comparison over Agyaat \cite  {agyaat}}{2}}
\@writefile{toc}{\contentsline {section}{\numberline {VI}RPP vs Selectivity}{2}}
\@writefile{toc}{\contentsline {section}{\numberline {VII}Trusted Proxies (TPS)}{2}}
\@writefile{toc}{\contentsline {section}{\numberline {VIII}bootstrapping}{2}}
\@writefile{toc}{\contentsline {section}{\numberline {IX}Why resource privacy? and applications of PANACEA}{2}}
\@writefile{toc}{\contentsline {section}{\numberline {X}Qualitative Analysis}{2}}
\bibstyle{IEEEtran}
\bibdata{main}
\bibcite{unique}{1}
\bibcite{agyaat}{2}
\@writefile{lof}{\contentsline {figure}{\numberline {1}{\ignorespaces All figures with 40\% collisions}}{3}}
\@writefile{lof}{\contentsline {figure}{\numberline {2}{\ignorespaces }}{3}}
\newlabel{fig:PuK_mu}{{2}{3}}
\@writefile{lof}{\contentsline {figure}{\numberline {3}{\ignorespaces Privacy breach during index construction- plot has to be improved- for V- it is not constant.}}{3}}
\newlabel{fig:PuK_mu}{{3}{3}}
\@writefile{toc}{\contentsline {section}{\numberline {XI}Plan or Open issues}{3}}
\@writefile{toc}{\contentsline {section}{\numberline {XII}Additional notes}{3}}
\@writefile{toc}{\contentsline {section}{References}{3}}
