#FIG 3.2  Produced by xfig version 3.2.5a
Landscape
Center
Metric
A4      
100.00
Single
-2
1200 2
2 2 0 1 0 7 50 -1 -1 0.000 0 0 -1 0 0 5
	 1800 720 2385 720 2385 1890 1800 1890 1800 720
2 2 0 1 0 7 50 -1 -1 0.000 0 0 -1 0 0 5
	 4050 720 4635 720 4635 1890 4050 1890 4050 720
2 4 0 1 0 7 50 -1 -1 0.000 0 0 7 0 0 5
	 4590 2835 4590 2250 4050 2250 4050 2835 4590 2835
2 1 0 1 0 7 50 -1 -1 0.000 0 0 -1 1 0 2
	0 0 1.00 60.00 120.00
	 1440 1350 1800 1350
2 1 0 1 0 7 50 -1 -1 0.000 0 0 -1 1 0 2
	0 0 1.00 60.00 120.00
	 2430 1350 2745 1350
2 1 0 1 0 7 50 -1 -1 0.000 0 0 -1 1 0 2
	0 0 1.00 60.00 120.00
	 3735 1350 4050 1350
2 2 0 1 0 7 50 -1 -1 0.000 0 0 -1 0 0 5
	 6165 720 6750 720 6750 1890 6165 1890 6165 720
2 1 0 1 0 7 50 -1 -1 0.000 0 0 -1 1 0 2
	0 0 1.00 60.00 120.00
	 4635 1350 4950 1350
2 1 0 1 0 7 50 -1 -1 0.000 0 0 -1 1 0 2
	0 0 1.00 60.00 120.00
	 5850 1350 6165 1350
2 1 1 1 0 7 50 -1 -1 4.000 0 0 -1 1 1 2
	0 0 1.00 60.00 120.00
	0 0 1.00 60.00 120.00
	 4320 1890 4320 2250
4 0 0 50 -1 0 12 0.0000 4 135 270 1935 1395 RA\001
4 0 0 50 -1 0 12 0.0000 4 135 240 4185 1440 PA\001
4 0 0 50 -1 0 10 0.0000 4 105 420 4095 2610 PStore\001
4 0 0 50 -1 0 10 0.0000 4 135 705 675 1395 (key,value)\001
4 0 0 50 -1 0 10 0.0000 4 135 795 2835 1395 (key[],value)\001
4 0 0 50 -1 0 10 0.0000 4 135 885 4950 1305 (key[],value[])\001
4 0 0 50 -1 0 10 0.0000 4 135 750 6210 1170 Anonymous\001
4 0 0 50 -1 0 10 0.0000 4 150 330 6255 1350 put()\001
