#FIG 3.2  Produced by xfig version 3.2.5
Landscape
Center
Metric
A4      
100.00
Single
-2
1200 2
6 8505 5310 9135 5670
4 0 0 50 -1 0 10 0.0000 4 150 615 8505 5445 Complete\001
4 0 0 50 -1 0 10 0.0000 4 150 450 8640 5625 privacy\001
-6
6 4050 1575 4680 1935
4 0 0 50 -1 0 10 0.0000 4 150 615 4050 1710 Complete\001
4 0 0 50 -1 0 10 0.0000 4 150 450 4185 1890 privacy\001
-6
1 3 0 1 0 0 50 -1 20 0.000 1 0.0000 9405 1601 64 64 9405 1601 9469 1601
1 3 0 1 0 0 50 -1 20 0.000 1 0.0000 4725 5220 64 64 4725 5220 4789 5220
1 3 0 1 0 0 50 -1 20 0.000 1 0.0000 4706 1575 64 64 4706 1575 4770 1575
1 3 0 1 0 0 50 -1 20 0.000 1 0.0000 4706 2205 64 64 4706 2205 4770 2205
1 3 0 1 0 0 50 -1 20 0.000 1 0.0000 8813 1943 64 64 8813 1943 8877 1943
2 1 0 1 0 7 50 -1 -1 0.000 0 0 -1 0 1 2
	2 1 1.00 60.00 120.00
	 4725 1260 4725 5535
2 1 0 1 0 7 50 -1 -1 0.000 0 0 -1 1 0 2
	2 1 1.00 60.00 120.00
	 4500 5220 9630 5220
2 1 2 1 0 7 50 -1 -1 3.000 0 0 -1 0 0 2
	 9405 5220 9405 1575
2 1 2 1 0 7 50 -1 -1 3.000 0 0 -1 0 0 2
	 4725 1575 9450 1575
4 0 0 50 -1 0 16 0.0000 4 195 135 9315 5445 1\001
4 0 0 50 -1 0 16 0.0000 4 195 330 4365 3330 0.5\001
4 0 0 50 -1 0 16 0.0000 4 195 135 4455 1575 1\001
4 0 0 50 -1 0 12 1.5708 4 180 1875 3735 4320 Privacy of "value" item\001
4 0 0 50 -1 0 16 0.0000 4 195 135 4770 5445 0\001
4 0 0 50 -1 0 16 0.0000 4 195 330 6975 5445 0.5\001
4 0 0 50 -1 0 12 0.0000 4 180 1725 6480 5940 Privacy of "key" item\001
4 0 0 50 -1 0 10 0.0000 4 105 285 4860 1575 L2V\001
4 0 0 50 -1 0 10 0.0000 4 105 390 9675 1620 L2KV\001
4 0 0 50 -1 0 10 0.0000 4 105 285 4365 5445 Zero\001
4 0 0 50 -1 0 10 0.0000 4 150 450 4185 5625 privacy\001
4 0 0 50 -1 0 12 0.0000 4 180 3240 6795 6390 PRA- Provider and Resource anonymity\001
4 0 0 50 -1 0 12 0.0000 4 180 1965 6795 6615 PA- Provider anonymity\001
4 0 0 50 -1 0 10 0.0000 4 120 405 4815 5130 L0, L1\001
4 0 0 50 -1 0 10 0.0000 4 105 375 4815 2250 L2PA\001
4 0 0 50 -1 0 10 0.0000 4 105 480 8775 2205 L2PRA\001
