%!PS-Adobe-2.0 EPSF-2.0
%%Title: pra.fig
%%Creator: fig2dev Version 3.2 Patchlevel 5a
%%CreationDate: Sun Nov  1 23:43:27 2009
%%BoundingBox: 0 0 399 135
%Magnification: 1.0000
%%EndComments
%%BeginProlog
/$F2psDict 200 dict def
$F2psDict begin
$F2psDict /mtrx matrix put
/col-1 {0 setgray} bind def
/col0 {0.000 0.000 0.000 srgb} bind def
/col1 {0.000 0.000 1.000 srgb} bind def
/col2 {0.000 1.000 0.000 srgb} bind def
/col3 {0.000 1.000 1.000 srgb} bind def
/col4 {1.000 0.000 0.000 srgb} bind def
/col5 {1.000 0.000 1.000 srgb} bind def
/col6 {1.000 1.000 0.000 srgb} bind def
/col7 {1.000 1.000 1.000 srgb} bind def
/col8 {0.000 0.000 0.560 srgb} bind def
/col9 {0.000 0.000 0.690 srgb} bind def
/col10 {0.000 0.000 0.820 srgb} bind def
/col11 {0.530 0.810 1.000 srgb} bind def
/col12 {0.000 0.560 0.000 srgb} bind def
/col13 {0.000 0.690 0.000 srgb} bind def
/col14 {0.000 0.820 0.000 srgb} bind def
/col15 {0.000 0.560 0.560 srgb} bind def
/col16 {0.000 0.690 0.690 srgb} bind def
/col17 {0.000 0.820 0.820 srgb} bind def
/col18 {0.560 0.000 0.000 srgb} bind def
/col19 {0.690 0.000 0.000 srgb} bind def
/col20 {0.820 0.000 0.000 srgb} bind def
/col21 {0.560 0.000 0.560 srgb} bind def
/col22 {0.690 0.000 0.690 srgb} bind def
/col23 {0.820 0.000 0.820 srgb} bind def
/col24 {0.500 0.190 0.000 srgb} bind def
/col25 {0.630 0.250 0.000 srgb} bind def
/col26 {0.750 0.380 0.000 srgb} bind def
/col27 {1.000 0.500 0.500 srgb} bind def
/col28 {1.000 0.630 0.630 srgb} bind def
/col29 {1.000 0.750 0.750 srgb} bind def
/col30 {1.000 0.880 0.880 srgb} bind def
/col31 {1.000 0.840 0.000 srgb} bind def

end

/cp {closepath} bind def
/ef {eofill} bind def
/gr {grestore} bind def
/gs {gsave} bind def
/sa {save} bind def
/rs {restore} bind def
/l {lineto} bind def
/m {moveto} bind def
/rm {rmoveto} bind def
/n {newpath} bind def
/s {stroke} bind def
/sh {show} bind def
/slc {setlinecap} bind def
/slj {setlinejoin} bind def
/slw {setlinewidth} bind def
/srgb {setrgbcolor} bind def
/rot {rotate} bind def
/sc {scale} bind def
/sd {setdash} bind def
/ff {findfont} bind def
/sf {setfont} bind def
/scf {scalefont} bind def
/sw {stringwidth} bind def
/tr {translate} bind def
/tnt {dup dup currentrgbcolor
  4 -2 roll dup 1 exch sub 3 -1 roll mul add
  4 -2 roll dup 1 exch sub 3 -1 roll mul add
  4 -2 roll dup 1 exch sub 3 -1 roll mul add srgb}
  bind def
/shd {dup dup currentrgbcolor 4 -2 roll mul 4 -2 roll mul
  4 -2 roll mul srgb} bind def
/$F2psBegin {$F2psDict begin /$F2psEnteredState save def} def
/$F2psEnd {$F2psEnteredState restore end} def

/pageheader {
save
newpath 0 135 moveto 0 0 lineto 399 0 lineto 399 135 lineto closepath clip newpath
-41.6 179.3 translate
1 -1 scale
$F2psBegin
10 setmiterlimit
0 slj 0 slc
 0.06299 0.06299 sc
} bind def
/pagefooter {
$F2psEnd
restore
} bind def
%%EndProlog
pageheader
%
% Fig objects follow
%
% 
% here starts figure with depth 50
% Polyline
0 slj
0 slc
7.500 slw
n 1800 720 m 2385 720 l 2385 1890 l 1800 1890 l
 cp gs col0 s gr 
% Polyline
n 4050 720 m 4635 720 l 4635 1890 l 4050 1890 l
 cp gs col0 s gr 
% Polyline
n 4155 2250 m 4050 2250 4050 2730 105 arcto 4 {pop} repeat
  4050 2835 4485 2835 105 arcto 4 {pop} repeat
  4590 2835 4590 2355 105 arcto 4 {pop} repeat
  4590 2250 4155 2250 105 arcto 4 {pop} repeat
 cp gs col0 s gr 
% Polyline
gs  clippath
1663 1380 m 1815 1380 l 1815 1320 l 1663 1320 l 1663 1320 l 1783 1350 l 1663 1380 l cp
eoclip
n 1440 1350 m
 1800 1350 l gs col0 s gr gr

% arrowhead
n 1663 1380 m 1783 1350 l 1663 1320 l  col0 s
% Polyline
gs  clippath
2608 1380 m 2760 1380 l 2760 1320 l 2608 1320 l 2608 1320 l 2728 1350 l 2608 1380 l cp
eoclip
n 2430 1350 m
 2745 1350 l gs col0 s gr gr

% arrowhead
n 2608 1380 m 2728 1350 l 2608 1320 l  col0 s
% Polyline
gs  clippath
3913 1380 m 4065 1380 l 4065 1320 l 3913 1320 l 3913 1320 l 4033 1350 l 3913 1380 l cp
eoclip
n 3735 1350 m
 4050 1350 l gs col0 s gr gr

% arrowhead
n 3913 1380 m 4033 1350 l 3913 1320 l  col0 s
% Polyline
n 6165 720 m 6750 720 l 6750 1890 l 6165 1890 l
 cp gs col0 s gr 
% Polyline
gs  clippath
4813 1380 m 4965 1380 l 4965 1320 l 4813 1320 l 4813 1320 l 4933 1350 l 4813 1380 l cp
eoclip
n 4635 1350 m
 4950 1350 l gs col0 s gr gr

% arrowhead
n 4813 1380 m 4933 1350 l 4813 1320 l  col0 s
% Polyline
gs  clippath
6028 1380 m 6180 1380 l 6180 1320 l 6028 1320 l 6028 1320 l 6148 1350 l 6028 1380 l cp
eoclip
n 5850 1350 m
 6165 1350 l gs col0 s gr gr

% arrowhead
n 6028 1380 m 6148 1350 l 6028 1320 l  col0 s
% Polyline
 [60] 0 sd
gs  clippath
4290 2113 m 4290 2265 l 4350 2265 l 4350 2113 l 4350 2113 l 4320 2233 l 4290 2113 l cp
4350 2027 m 4350 1875 l 4290 1875 l 4290 2027 l 4290 2027 l 4320 1907 l 4350 2027 l cp
eoclip
n 4320 1890 m
 4320 2250 l gs col0 s gr gr
 [] 0 sd
% arrowhead
n 4350 2027 m 4320 1907 l 4290 2027 l  col0 s
% arrowhead
n 4290 2113 m 4320 2233 l 4350 2113 l  col0 s
/Times-Roman ff 190.50 scf sf
1935 1395 m
gs 1 -1 sc (RA) col0 sh gr
/Times-Roman ff 190.50 scf sf
4185 1440 m
gs 1 -1 sc (PA) col0 sh gr
/Times-Roman ff 158.75 scf sf
4095 2610 m
gs 1 -1 sc (PStore) col0 sh gr
/Times-Roman ff 158.75 scf sf
675 1395 m
gs 1 -1 sc (\(key,value\)) col0 sh gr
/Times-Roman ff 158.75 scf sf
2835 1395 m
gs 1 -1 sc (\(key[],value\)) col0 sh gr
/Times-Roman ff 158.75 scf sf
4950 1305 m
gs 1 -1 sc (\(key[],value[]\)) col0 sh gr
/Times-Roman ff 158.75 scf sf
6210 1170 m
gs 1 -1 sc (Anonymous) col0 sh gr
/Times-Roman ff 158.75 scf sf
6255 1350 m
gs 1 -1 sc (put\(\)) col0 sh gr
% here ends figure;
pagefooter
showpage
%%Trailer
%EOF
