%!PS-Adobe-2.0 EPSF-2.0
%%Title: C:\a_Rammohan\phd\MyResearch\FirstPaper-SVN\FirstPaper\DataMgmtInP2PSystems\TrustedProxySet.dia
%%Creator: Dia v0.96.1
%%CreationDate: Wed Dec 17 23:47:56 2008
%%For: narendul
%%Orientation: Portrait
%%Magnification: 1.0000
%%BoundingBox: 0 0 682 298
%%BeginSetup
%%EndSetup
%%EndComments
%%BeginProlog
[ /.notdef /.notdef /.notdef /.notdef /.notdef /.notdef /.notdef /.notdef /.notdef /.notdef
/.notdef /.notdef /.notdef /.notdef /.notdef /.notdef /.notdef /.notdef /.notdef /.notdef
/.notdef /.notdef /.notdef /.notdef /.notdef /.notdef /.notdef /.notdef /.notdef /.notdef
/.notdef /.notdef /space /exclam /quotedbl /numbersign /dollar /percent /ampersand /quoteright
/parenleft /parenright /asterisk /plus /comma /hyphen /period /slash /zero /one
/two /three /four /five /six /seven /eight /nine /colon /semicolon
/less /equal /greater /question /at /A /B /C /D /E
/F /G /H /I /J /K /L /M /N /O
/P /Q /R /S /T /U /V /W /X /Y
/Z /bracketleft /backslash /bracketright /asciicircum /underscore /quoteleft /a /b /c
/d /e /f /g /h /i /j /k /l /m
/n /o /p /q /r /s /t /u /v /w
/x /y /z /braceleft /bar /braceright /asciitilde /.notdef /.notdef /.notdef
/.notdef /.notdef /.notdef /.notdef /.notdef /.notdef /.notdef /.notdef /.notdef /.notdef
/.notdef /.notdef /.notdef /.notdef /.notdef /.notdef /.notdef /.notdef /.notdef /.notdef
/.notdef /.notdef /.notdef /.notdef /.notdef /.notdef /.notdef /.notdef /.notdef /.notdef
/space /exclamdown /cent /sterling /currency /yen /brokenbar /section /dieresis /copyright
/ordfeminine /guillemotleft /logicalnot /hyphen /registered /macron /degree /plusminus /twosuperior /threesuperior
/acute /mu /paragraph /periodcentered /cedilla /onesuperior /ordmasculine /guillemotright /onequarter /onehalf
/threequarters /questiondown /Agrave /Aacute /Acircumflex /Atilde /Adieresis /Aring /AE /Ccedilla
/Egrave /Eacute /Ecircumflex /Edieresis /Igrave /Iacute /Icircumflex /Idieresis /Eth /Ntilde
/Ograve /Oacute /Ocircumflex /Otilde /Odieresis /multiply /Oslash /Ugrave /Uacute /Ucircumflex
/Udieresis /Yacute /Thorn /germandbls /agrave /aacute /acircumflex /atilde /adieresis /aring
/ae /ccedilla /egrave /eacute /ecircumflex /edieresis /igrave /iacute /icircumflex /idieresis
/eth /ntilde /ograve /oacute /ocircumflex /otilde /odieresis /divide /oslash /ugrave
/uacute /ucircumflex /udieresis /yacute /thorn /ydieresis] /isolatin1encoding exch def
/cp {closepath} bind def
/c {curveto} bind def
/f {fill} bind def
/a {arc} bind def
/ef {eofill} bind def
/ex {exch} bind def
/gr {grestore} bind def
/gs {gsave} bind def
/sa {save} bind def
/rs {restore} bind def
/l {lineto} bind def
/m {moveto} bind def
/rm {rmoveto} bind def
/n {newpath} bind def
/s {stroke} bind def
/sh {show} bind def
/slc {setlinecap} bind def
/slj {setlinejoin} bind def
/slw {setlinewidth} bind def
/srgb {setrgbcolor} bind def
/rot {rotate} bind def
/sc {scale} bind def
/sd {setdash} bind def
/ff {findfont} bind def
/sf {setfont} bind def
/scf {scalefont} bind def
/sw {stringwidth pop} bind def
/tr {translate} bind def

/ellipsedict 8 dict def
ellipsedict /mtrx matrix put
/ellipse
{ ellipsedict begin
   /endangle exch def
   /startangle exch def
   /yrad exch def
   /xrad exch def
   /y exch def
   /x exch def   /savematrix mtrx currentmatrix def
   x y tr xrad yrad sc
   0 0 1 startangle endangle arc
   savematrix setmatrix
   end
} def

/mergeprocs {
dup length
3 -1 roll
dup
length
dup
5 1 roll
3 -1 roll
add
array cvx
dup
3 -1 roll
0 exch
putinterval
dup
4 2 roll
putinterval
} bind def
/Times-Roman-latin1
    /Times-Roman findfont
    dup length dict begin
	{1 index /FID ne {def} {pop pop} ifelse} forall
	/Encoding isolatin1encoding def
    currentdict end
definefont pop
/Times-Italic-latin1
    /Times-Italic findfont
    dup length dict begin
	{1 index /FID ne {def} {pop pop} ifelse} forall
	/Encoding isolatin1encoding def
    currentdict end
definefont pop
/Times-Bold-latin1
    /Times-Bold findfont
    dup length dict begin
	{1 index /FID ne {def} {pop pop} ifelse} forall
	/Encoding isolatin1encoding def
    currentdict end
definefont pop
/Times-BoldItalic-latin1
    /Times-BoldItalic findfont
    dup length dict begin
	{1 index /FID ne {def} {pop pop} ifelse} forall
	/Encoding isolatin1encoding def
    currentdict end
definefont pop
/AvantGarde-Book-latin1
    /AvantGarde-Book findfont
    dup length dict begin
	{1 index /FID ne {def} {pop pop} ifelse} forall
	/Encoding isolatin1encoding def
    currentdict end
definefont pop
/AvantGarde-BookOblique-latin1
    /AvantGarde-BookOblique findfont
    dup length dict begin
	{1 index /FID ne {def} {pop pop} ifelse} forall
	/Encoding isolatin1encoding def
    currentdict end
definefont pop
/AvantGarde-Demi-latin1
    /AvantGarde-Demi findfont
    dup length dict begin
	{1 index /FID ne {def} {pop pop} ifelse} forall
	/Encoding isolatin1encoding def
    currentdict end
definefont pop
/AvantGarde-DemiOblique-latin1
    /AvantGarde-DemiOblique findfont
    dup length dict begin
	{1 index /FID ne {def} {pop pop} ifelse} forall
	/Encoding isolatin1encoding def
    currentdict end
definefont pop
/Bookman-Light-latin1
    /Bookman-Light findfont
    dup length dict begin
	{1 index /FID ne {def} {pop pop} ifelse} forall
	/Encoding isolatin1encoding def
    currentdict end
definefont pop
/Bookman-LightItalic-latin1
    /Bookman-LightItalic findfont
    dup length dict begin
	{1 index /FID ne {def} {pop pop} ifelse} forall
	/Encoding isolatin1encoding def
    currentdict end
definefont pop
/Bookman-Demi-latin1
    /Bookman-Demi findfont
    dup length dict begin
	{1 index /FID ne {def} {pop pop} ifelse} forall
	/Encoding isolatin1encoding def
    currentdict end
definefont pop
/Bookman-DemiItalic-latin1
    /Bookman-DemiItalic findfont
    dup length dict begin
	{1 index /FID ne {def} {pop pop} ifelse} forall
	/Encoding isolatin1encoding def
    currentdict end
definefont pop
/Courier-latin1
    /Courier findfont
    dup length dict begin
	{1 index /FID ne {def} {pop pop} ifelse} forall
	/Encoding isolatin1encoding def
    currentdict end
definefont pop
/Courier-Oblique-latin1
    /Courier-Oblique findfont
    dup length dict begin
	{1 index /FID ne {def} {pop pop} ifelse} forall
	/Encoding isolatin1encoding def
    currentdict end
definefont pop
/Courier-Bold-latin1
    /Courier-Bold findfont
    dup length dict begin
	{1 index /FID ne {def} {pop pop} ifelse} forall
	/Encoding isolatin1encoding def
    currentdict end
definefont pop
/Courier-BoldOblique-latin1
    /Courier-BoldOblique findfont
    dup length dict begin
	{1 index /FID ne {def} {pop pop} ifelse} forall
	/Encoding isolatin1encoding def
    currentdict end
definefont pop
/Helvetica-latin1
    /Helvetica findfont
    dup length dict begin
	{1 index /FID ne {def} {pop pop} ifelse} forall
	/Encoding isolatin1encoding def
    currentdict end
definefont pop
/Helvetica-Oblique-latin1
    /Helvetica-Oblique findfont
    dup length dict begin
	{1 index /FID ne {def} {pop pop} ifelse} forall
	/Encoding isolatin1encoding def
    currentdict end
definefont pop
/Helvetica-Bold-latin1
    /Helvetica-Bold findfont
    dup length dict begin
	{1 index /FID ne {def} {pop pop} ifelse} forall
	/Encoding isolatin1encoding def
    currentdict end
definefont pop
/Helvetica-BoldOblique-latin1
    /Helvetica-BoldOblique findfont
    dup length dict begin
	{1 index /FID ne {def} {pop pop} ifelse} forall
	/Encoding isolatin1encoding def
    currentdict end
definefont pop
/Helvetica-Narrow-latin1
    /Helvetica-Narrow findfont
    dup length dict begin
	{1 index /FID ne {def} {pop pop} ifelse} forall
	/Encoding isolatin1encoding def
    currentdict end
definefont pop
/Helvetica-Narrow-Oblique-latin1
    /Helvetica-Narrow-Oblique findfont
    dup length dict begin
	{1 index /FID ne {def} {pop pop} ifelse} forall
	/Encoding isolatin1encoding def
    currentdict end
definefont pop
/Helvetica-Narrow-Bold-latin1
    /Helvetica-Narrow-Bold findfont
    dup length dict begin
	{1 index /FID ne {def} {pop pop} ifelse} forall
	/Encoding isolatin1encoding def
    currentdict end
definefont pop
/Helvetica-Narrow-BoldOblique-latin1
    /Helvetica-Narrow-BoldOblique findfont
    dup length dict begin
	{1 index /FID ne {def} {pop pop} ifelse} forall
	/Encoding isolatin1encoding def
    currentdict end
definefont pop
/NewCenturySchoolbook-Roman-latin1
    /NewCenturySchoolbook-Roman findfont
    dup length dict begin
	{1 index /FID ne {def} {pop pop} ifelse} forall
	/Encoding isolatin1encoding def
    currentdict end
definefont pop
/NewCenturySchoolbook-Italic-latin1
    /NewCenturySchoolbook-Italic findfont
    dup length dict begin
	{1 index /FID ne {def} {pop pop} ifelse} forall
	/Encoding isolatin1encoding def
    currentdict end
definefont pop
/NewCenturySchoolbook-Bold-latin1
    /NewCenturySchoolbook-Bold findfont
    dup length dict begin
	{1 index /FID ne {def} {pop pop} ifelse} forall
	/Encoding isolatin1encoding def
    currentdict end
definefont pop
/NewCenturySchoolbook-BoldItalic-latin1
    /NewCenturySchoolbook-BoldItalic findfont
    dup length dict begin
	{1 index /FID ne {def} {pop pop} ifelse} forall
	/Encoding isolatin1encoding def
    currentdict end
definefont pop
/Palatino-Roman-latin1
    /Palatino-Roman findfont
    dup length dict begin
	{1 index /FID ne {def} {pop pop} ifelse} forall
	/Encoding isolatin1encoding def
    currentdict end
definefont pop
/Palatino-Italic-latin1
    /Palatino-Italic findfont
    dup length dict begin
	{1 index /FID ne {def} {pop pop} ifelse} forall
	/Encoding isolatin1encoding def
    currentdict end
definefont pop
/Palatino-Bold-latin1
    /Palatino-Bold findfont
    dup length dict begin
	{1 index /FID ne {def} {pop pop} ifelse} forall
	/Encoding isolatin1encoding def
    currentdict end
definefont pop
/Palatino-BoldItalic-latin1
    /Palatino-BoldItalic findfont
    dup length dict begin
	{1 index /FID ne {def} {pop pop} ifelse} forall
	/Encoding isolatin1encoding def
    currentdict end
definefont pop
/Symbol-latin1
    /Symbol findfont
definefont pop
/ZapfChancery-MediumItalic-latin1
    /ZapfChancery-MediumItalic findfont
    dup length dict begin
	{1 index /FID ne {def} {pop pop} ifelse} forall
	/Encoding isolatin1encoding def
    currentdict end
definefont pop
/ZapfDingbats-latin1
    /ZapfDingbats findfont
    dup length dict begin
	{1 index /FID ne {def} {pop pop} ifelse} forall
	/Encoding isolatin1encoding def
    currentdict end
definefont pop
16.204493 -16.204493 scale
-9.019103 -29.757625 translate
%%EndProlog


0.100000 slw
[] 0 sd
[] 0 sd
0 slc
0 slj
0.100000 slw
0 slc
0 slj
[] 0 sd
1.000000 1.000000 1.000000 srgb
n 10.700000 21.550000 0.450000 0.450000 0 360 ellipse f
0.000000 0.000000 0.000000 srgb
n 10.700000 21.550000 0.450000 0.450000 0 360 ellipse cp s
0.010000 slw
0 slc
0 slj
[] 0 sd
n 10.700000 21.550000 0.450000 0.450000 0 360 ellipse cp s
0.100000 slw
[] 0 sd
[] 0 sd
0 slc
0 slj
0.100000 slw
0 slc
0 slj
[] 0 sd
1.000000 1.000000 1.000000 srgb
n 13.750000 16.145000 0.450000 0.450000 0 360 ellipse f
0.000000 0.000000 0.000000 srgb
n 13.750000 16.145000 0.450000 0.450000 0 360 ellipse cp s
0.010000 slw
0 slc
0 slj
[] 0 sd
n 13.750000 16.145000 0.450000 0.450000 0 360 ellipse cp s
0.100000 slw
[] 0 sd
[] 0 sd
0 slc
0 slj
0.100000 slw
0 slc
0 slj
[] 0 sd
1.000000 1.000000 1.000000 srgb
n 14.100000 26.990000 0.450000 0.450000 0 360 ellipse f
0.000000 0.000000 0.000000 srgb
n 14.100000 26.990000 0.450000 0.450000 0 360 ellipse cp s
0.010000 slw
0 slc
0 slj
[] 0 sd
n 14.100000 26.990000 0.450000 0.450000 0 360 ellipse cp s
0.100000 slw
[] 0 sd
[] 0 sd
0 slc
0 slj
0.100000 slw
0 slc
0 slj
[] 0 sd
0.498039 0.498039 0.498039 srgb
n 23.350000 13.985000 0.450000 0.450000 0 360 ellipse f
0.000000 0.000000 0.000000 srgb
n 23.350000 13.985000 0.450000 0.450000 0 360 ellipse cp s
0.010000 slw
0 slc
0 slj
[] 0 sd
n 23.350000 13.985000 0.450000 0.450000 0 360 ellipse cp s
0.100000 slw
[] 0 sd
[] 0 sd
0 slc
0 slj
0.100000 slw
0 slc
0 slj
[] 0 sd
n 18.750000 13.730000 0.450000 0.450000 0 360 ellipse f
n 18.750000 13.730000 0.450000 0.450000 0 360 ellipse cp s
0.010000 slw
0 slc
0 slj
[] 0 sd
n 18.750000 13.730000 0.450000 0.450000 0 360 ellipse cp s
0.100000 slw
[] 0 sd
[] 0 sd
0 slc
0 slj
0.100000 slw
0 slc
0 slj
[] 0 sd
1.000000 1.000000 1.000000 srgb
n 19.600000 27.425000 0.450000 0.450000 0 360 ellipse f
0.000000 0.000000 0.000000 srgb
n 19.600000 27.425000 0.450000 0.450000 0 360 ellipse cp s
0.010000 slw
0 slc
0 slj
[] 0 sd
n 19.600000 27.425000 0.450000 0.450000 0 360 ellipse cp s
0.100000 slw
[] 0 sd
[] 0 sd
0 slc
0 slj
0.100000 slw
0 slc
0 slj
[] 0 sd
1.000000 1.000000 1.000000 srgb
n 27.950000 14.120000 0.450000 0.450000 0 360 ellipse f
0.000000 0.000000 0.000000 srgb
n 27.950000 14.120000 0.450000 0.450000 0 360 ellipse cp s
0.010000 slw
0 slc
0 slj
[] 0 sd
n 27.950000 14.120000 0.450000 0.450000 0 360 ellipse cp s
0.100000 slw
[] 0 sd
[] 0 sd
0 slc
0 slj
0.100000 slw
0 slc
0 slj
[] 0 sd
n 24.400000 27.255000 0.450000 0.450000 0 360 ellipse f
n 24.400000 27.255000 0.450000 0.450000 0 360 ellipse cp s
0.010000 slw
0 slc
0 slj
[] 0 sd
n 24.400000 27.255000 0.450000 0.450000 0 360 ellipse cp s
0.100000 slw
[] 0 sd
[] 0 sd
0 slc
0 slj
0.100000 slw
0 slc
0 slj
[] 0 sd
0.498039 0.498039 0.498039 srgb
n 29.800000 26.745000 0.450000 0.450000 0 360 ellipse f
0.000000 0.000000 0.000000 srgb
n 29.800000 26.745000 0.450000 0.450000 0 360 ellipse cp s
0.010000 slw
0 slc
0 slj
[] 0 sd
n 29.800000 26.745000 0.450000 0.450000 0 360 ellipse cp s
0.100000 slw
[] 0 sd
[] 0 sd
0 slc
0 slj
0.100000 slw
0 slc
0 slj
[] 0 sd
1.000000 1.000000 1.000000 srgb
n 32.050000 23.685000 0.450000 0.450000 0 360 ellipse f
0.000000 0.000000 0.000000 srgb
n 32.050000 23.685000 0.450000 0.450000 0 360 ellipse cp s
0.010000 slw
0 slc
0 slj
[] 0 sd
n 32.050000 23.685000 0.450000 0.450000 0 360 ellipse cp s
0.100000 slw
[] 0 sd
[] 0 sd
0 slc
0 slj
0.100000 slw
0 slc
0 slj
[] 0 sd
0.498039 0.498039 0.498039 srgb
n 31.750000 19.130000 0.450000 0.450000 0 360 ellipse f
0.000000 0.000000 0.000000 srgb
n 31.750000 19.130000 0.450000 0.450000 0 360 ellipse cp s
0.010000 slw
0 slc
0 slj
[] 0 sd
n 31.750000 19.130000 0.450000 0.450000 0 360 ellipse cp s
/Helvetica-latin1 ff 0.840000 scf sf
(p1) 9.100000 21.762500 m 
dup sw 1.244995 exch sub 
2 div exch 0.0 exch 
 gs 1 -1 sc ashow gr
/Helvetica-latin1 ff 0.840000 scf sf
(p2) 11.850000 15.985000 m 
dup sw 1.244995 exch sub 
2 div exch 0.0 exch 
 gs 1 -1 sc ashow gr
/Helvetica-latin1 ff 0.840000 scf sf
(p11) 13.750000 28.430000 m 
dup sw 1.867493 exch sub 
3 div exch 0.0 exch 
 gs 1 -1 sc ashow gr
/Helvetica-latin1 ff 0.840000 scf sf
(p3) 18.400000 12.225000 m 
dup sw 1.244995 exch sub 
2 div exch 0.0 exch 
 gs 1 -1 sc ashow gr
/Helvetica-latin1 ff 0.840000 scf sf
(p4) 23.150000 12.320000 m 
dup sw 1.244995 exch sub 
2 div exch 0.0 exch 
 gs 1 -1 sc ashow gr
/Helvetica-latin1 ff 0.840000 scf sf
(p5) 28.300000 12.815000 m 
dup sw 1.244995 exch sub 
2 div exch 0.0 exch 
 gs 1 -1 sc ashow gr
/Helvetica-latin1 ff 0.840000 scf sf
(p6) 32.300000 19.560000 m 
dup sw 1.244995 exch sub 
2 div exch 0.0 exch 
 gs 1 -1 sc ashow gr
/Helvetica-latin1 ff 0.840000 scf sf
(p7) 32.700000 23.105000 m 
dup sw 1.244995 exch sub 
2 div exch 0.0 exch 
 gs 1 -1 sc ashow gr
/Helvetica-latin1 ff 0.840000 scf sf
(p8) 29.850000 28.150000 m 
dup sw 1.244995 exch sub 
2 div exch 0.0 exch 
 gs 1 -1 sc ashow gr
/Helvetica-latin1 ff 0.840000 scf sf
(p9) 24.450000 28.462500 m 
dup sw 1.244995 exch sub 
2 div exch 0.0 exch 
 gs 1 -1 sc ashow gr
/Helvetica-latin1 ff 0.840000 scf sf
(p10) 19.250000 29.035000 m 
dup sw 1.867493 exch sub 
3 div exch 0.0 exch 
 gs 1 -1 sc ashow gr
0.010000 slw
[] 0 sd
[] 0 sd
0 slc
n 11.104100 21.200000 m 13.518400 16.587400 l s
0.010000 slw
[] 0 sd
[] 0 sd
0 slc
n 11.150000 21.550000 m 23.004100 14.500000 l s
0.010000 slw
[] 0 sd
[] 0 sd
0 slc
n 11.150000 21.550000 m 19.190500 27.140300 l s
0.010000 slw
[] 0 sd
[] 0 sd
0 slc
n 14.550000 26.990000 m 19.150000 27.425000 l s
0.010000 slw
[] 0 sd
[] 0 sd
0 slc
n 14.354100 26.550000 m 18.750000 14.180000 l s
0.010000 slw
[] 0 sd
[] 0 sd
0 slc
n 18.954100 14.300000 m 24.207200 26.796400 l s
0.010000 slw
[] 0 sd
[] 0 sd
0 slc
n 24.850000 27.255000 m 29.350000 26.745000 l s
0.010000 slw
[] 0 sd
[] 0 sd
0 slc
n 14.163700 16.426100 m 29.350000 26.745000 l s
0.010000 slw
[] 0 sd
[] 0 sd
0 slc
n 23.673300 14.365100 m 31.600000 23.685000 l s
0.010000 slw
[] 0 sd
[] 0 sd
0 slc
n 14.591400 26.899500 m 31.558600 23.775500 l s
0.010000 slw
[] 0 sd
[] 0 sd
0 slc
n 28.400000 14.120000 m 31.750000 18.680000 l s
0.010000 slw
[] 0 sd
[] 0 sd
0 slc
n 24.054100 13.850000 m 27.451100 14.085400 l s
0.010000 slw
[] 0 sd
[] 0 sd
0 slc
n 31.786400 19.628100 m 32.050000 23.235000 l s
0.010000 slw
[] 0 sd
[] 0 sd
0 slc
n 30.154100 26.300000 m 32.050000 24.135000 l s
0.010000 slw
[] 0 sd
[] 0 sd
0 slc
n 35.016600 22.926200 m 37.066600 22.871200 l s
/Helvetica-Bold-latin1 ff 0.840000 scf sf
(Link in overlay) 37.866600 22.888700 m 
dup sw 7.837488 exch sub 
15 div exch 0.0 exch 
 gs 1 -1 sc ashow gr
/Helvetica-Bold-latin1 ff 0.840000 scf sf
(Node in TPS-1) 37.666600 26.538700 m 
dup sw 7.592495 exch sub 
13 div exch 0.0 exch 
 gs 1 -1 sc ashow gr
0.100000 slw
[] 0 sd
[] 0 sd
0 slc
0 slj
0.100000 slw
0 slc
0 slj
[] 0 sd
1.000000 1.000000 1.000000 srgb
n 36.166600 24.521200 0.450000 0.450000 0 360 ellipse f
0.000000 0.000000 0.000000 srgb
n 36.166600 24.521200 0.450000 0.450000 0 360 ellipse cp s
0.010000 slw
0 slc
0 slj
[] 0 sd
n 36.166600 24.521200 0.450000 0.450000 0 360 ellipse cp s
0.100000 slw
[] 0 sd
[] 0 sd
0 slc
0 slj
0.100000 slw
0 slc
0 slj
[] 0 sd
n 36.516600 26.471200 0.450000 0.450000 0 360 ellipse f
n 36.516600 26.471200 0.450000 0.450000 0 360 ellipse cp s
0.010000 slw
0 slc
0 slj
[] 0 sd
n 36.516600 26.471200 0.450000 0.450000 0 360 ellipse cp s
0.100000 slw
[] 0 sd
[] 0 sd
0 slc
0 slj
0.100000 slw
0 slc
0 slj
[] 0 sd
n 10.775000 21.572500 0.450000 0.450000 0 360 ellipse f
n 10.775000 21.572500 0.450000 0.450000 0 360 ellipse cp s
0.010000 slw
0 slc
0 slj
[] 0 sd
n 10.775000 21.572500 0.450000 0.450000 0 360 ellipse cp s
0.100000 slw
[0.200000] 0 sd
[0.200000] 0 sd
0 slc
0 slj
0.100000 slw
0 slc
0 slj
[0.200000] 0 sd
0.498039 0.498039 0.498039 srgb
n 36.541250 28.576250 0.466250 0.466250 0 360 ellipse f
0.000000 0.000000 0.000000 srgb
n 36.541250 28.576250 0.466250 0.466250 0 360 ellipse cp s
0.010000 slw
0 slc
0 slj
[0.200000] 0 sd
n 36.541250 28.576250 0.466250 0.466250 0 360 ellipse cp s
/Helvetica-Bold-latin1 ff 0.840000 scf sf
(Node in TPS-2) 37.475000 28.562500 m 
dup sw 7.592495 exch sub 
13 div exch 0.0 exch 
 gs 1 -1 sc ashow gr
0.100000 slw
[0.200000] 0 sd
[0.200000] 0 sd
0 slc
0 slj
0.100000 slw
0 slc
0 slj
[0.200000] 0 sd
0.498039 0.498039 0.498039 srgb
n 24.675000 27.072500 0.450000 0.450000 0 360 ellipse f
0.000000 0.000000 0.000000 srgb
n 24.675000 27.072500 0.450000 0.450000 0 360 ellipse cp s
0.010000 slw
0 slc
0 slj
[0.200000] 0 sd
n 24.675000 27.072500 0.450000 0.450000 0 360 ellipse cp s
0.100000 slw
[] 0 sd
[] 0 sd
0 slc
n 14.508928 23.306251 4.159496 4.159496 109.068896 174.271862 ellipse s
[] 0 sd
0 slj
0 slc
n 10.348152 23.349288 m 10.589854 23.853352 l 10.341954 23.724237 l 10.089922 23.845088 l ef
n 10.348152 23.349288 m 10.589854 23.853352 l 10.341954 23.724237 l 10.089922 23.845088 l cp s
0.100000 slw
[] 0 sd
[] 0 sd
0 slc
n 13.778347 19.787357 3.344346 3.344346 163.267628 235.483845 ellipse s
[] 0 sd
0 slj
0 slc
n 12.199713 16.836922 m 11.861727 17.282192 l 11.863340 17.002688 l 11.640705 16.833695 l ef
n 12.199713 16.836922 m 11.861727 17.282192 l 11.863340 17.002688 l 11.640705 16.833695 l cp s
0.100000 slw
[] 0 sd
[] 0 sd
0 slc
n 12.425975 18.678508 3.356872 3.356872 152.548837 264.427408 ellipse s
[] 0 sd
0 slj
0 slc
n 9.634754 20.546709 m 9.139951 20.286574 l 9.415913 20.242187 l 9.545980 19.994786 l ef
n 9.634754 20.546709 m 9.139951 20.286574 l 9.415913 20.242187 l 9.545980 19.994786 l cp s
0.100000 slw
[] 0 sd
[] 0 sd
0 slc
n 13.424323 24.145757 4.017078 4.017078 108.023374 192.336459 ellipse s
[] 0 sd
0 slj
0 slc
n 12.540293 28.065949 m 12.001481 28.214882 l 12.172326 27.993665 l 12.097860 27.724259 l ef
n 12.540293 28.065949 m 12.001481 28.214882 l 12.172326 27.993665 l 12.097860 27.724259 l cp s
/Helvetica-Bold-latin1 ff 0.840000 scf sf
(\(1\) p11 queries TPS-1 ) 34.025000 12.725000 m 
dup sw 11.694983 exch sub 
22 div exch 0.0 exch 
 gs 1 -1 sc ashow gr
(\(2\) p1 proxies for the query, and) 34.025000 13.925000 m 
dup sw 17.042478 exch sub 
33 div exch 0.0 exch 
 gs 1 -1 sc ashow gr
(     requeries the network- ) 34.025000 15.125000 m 
dup sw 13.864983 exch sub 
28 div exch 0.0 exch 
 gs 1 -1 sc ashow gr
(     received by p2) 34.025000 16.325000 m 
dup sw 9.327483 exch sub 
19 div exch 0.0 exch 
 gs 1 -1 sc ashow gr
(\(3\) p2 sends reply to p1 ) 34.025000 17.525000 m 
dup sw 12.812480 exch sub 
25 div exch 0.0 exch 
 gs 1 -1 sc ashow gr
(\(4\) p1 replies to original ) 34.025000 18.725000 m 
dup sw 12.932485 exch sub 
27 div exch 0.0 exch 
 gs 1 -1 sc ashow gr
(      querying peer p11 ) 34.025000 19.925000 m 
dup sw 11.814985 exch sub 
24 div exch 0.0 exch 
 gs 1 -1 sc ashow gr
/Helvetica-Bold-latin1 ff 0.840000 scf sf
(Node in overlay) 37.535000 24.535000 m 
dup sw 8.337488 exch sub 
15 div exch 0.0 exch 
 gs 1 -1 sc ashow gr
showpage
