\relax 
\citation{freenet}
\citation{damap}
\citation{kademlia}
\citation{kademlia}
\citation{dalenius1977}
\citation{crowds}
\@writefile{toc}{\contentsline {section}{\numberline {1}Introduction}{1}}
\newlabel{sec:intro}{{1}{1}}
\@writefile{lof}{\contentsline {figure}{\numberline {1}{\ignorespaces Position of various systems on privacy and search efficiency axes.\relax }}{2}}
\providecommand*\caption@xref[2]{\@setref\relax\@undefined{#1}}
\newlabel{fig:pg}{{1}{2}}
\@writefile{toc}{\contentsline {subsection}{\numberline {1.1}Motivation}{2}}
\newlabel{sec:motivation}{{1.1}{2}}
\@writefile{toc}{\contentsline {section}{\numberline {2}The PANACEA System}{2}}
\newlabel{sec:panacea-system}{{2}{2}}
\citation{kanonymity}
\citation{crowds}
\citation{crowds}
\@writefile{toc}{\contentsline {subsection}{\numberline {2.1}Privacy Preserving Publishing}{3}}
\newlabel{sec:approach}{{2.1}{3}}
\@writefile{toc}{\contentsline {subsubsection}{\numberline {2.1.1}Probabilistic publishing}{3}}
\@writefile{toc}{\contentsline {subsubsection}{\numberline {2.1.2}RPP index generation}{3}}
\@writefile{toc}{\contentsline {subsubsection}{\numberline {2.1.3}Randomized forwarding}{3}}
\citation{privacyPreservingJournal}
\@writefile{lof}{\contentsline {figure}{\numberline {2}{\ignorespaces Privacy preserving publishing in PANACEA\relax }}{4}}
\newlabel{fig:approach}{{2}{4}}
\@writefile{toc}{\contentsline {subsubsection}{\numberline {2.1.4}Insertion into the DHT}{4}}
\newlabel{sec:insertion}{{2.1.4}{4}}
\@writefile{toc}{\contentsline {subsection}{\numberline {2.2}Searching}{4}}
\newlabel{sec:search}{{2.2}{4}}
\@writefile{toc}{\contentsline {subsection}{\numberline {2.3}System description through an example}{4}}
\@writefile{toc}{\contentsline {section}{\numberline {3}Resource anonymization}{4}}
\newlabel{sec:resource}{{3}{4}}
\@writefile{toc}{\contentsline {subsection}{\numberline {3.1}Anonymization by random selection (RS) approach}{5}}
\@writefile{toc}{\contentsline {subsection}{\numberline {3.2}Anonymization by fixed selection (FS) approach}{5}}
\newlabel{sec:circular}{{3.2}{5}}
\@writefile{lof}{\contentsline {figure}{\numberline {3}{\ignorespaces Circular approach for key anonymization\relax }}{5}}
\newlabel{fig:circular}{{3}{5}}
\@writefile{toc}{\contentsline {subsubsection}{\numberline {3.2.1}Dictionary construction and distribution}{5}}
\citation{crowds}
\newlabel{algorithm}{{\caption@xref {algorithm}{ on input line 64}}{6}}
\@writefile{loa}{\contentsline {algorithm}{\numberline {1}{\ignorespaces The circular approach\relax }}{6}}
\newlabel{eq:newindex}{{1}{6}}
\@writefile{toc}{\contentsline {subsection}{\numberline {3.3}Discussion}{7}}
\citation{minimality}
\@writefile{toc}{\contentsline {section}{\numberline {4}Privacy and performance analysis}{8}}
\newlabel{sec:analysis}{{4}{8}}
\@writefile{toc}{\contentsline {subsection}{\numberline {4.1}Adversary models}{8}}
\newlabel{sec:adversarymodels}{{4.1}{8}}
\@writefile{toc}{\contentsline {subsection}{\numberline {4.2}Single Entry Case ({\it  SEC})}{9}}
\newlabel{sec:single}{{4.2}{9}}
\@writefile{toc}{\contentsline {subsubsection}{\numberline {4.2.1}Probabilistic approach}{9}}
\newlabel{def}{{4.2.1}{9}}
\citation{serjantov02towards}
\citation{Diaz02towardsmeasuring}
\citation{serjantov02towards}
\citation{Diaz02towardsmeasuring}
\newlabel{pva_panacea}{{2}{10}}
\newlabel{pka_panacea}{{3}{10}}
\newlabel{csa_panacea}{{4}{10}}
\newlabel{pminus_panacea}{{5}{10}}
\newlabel{csminus_panacea}{{6}{10}}
\@writefile{toc}{\contentsline {subsubsection}{\numberline {4.2.2}Information-theoretic approach}{10}}
\newlabel{sec:entropy}{{4.2.2}{10}}
\newlabel{p_entropy}{{9}{11}}
\newlabel{r_entropy}{{10}{11}}
\@writefile{toc}{\contentsline {subsection}{\numberline {4.3}Multiple Entry Case ({\it  MEC})}{11}}
\newlabel{theorem:privacyforset}{{4.1}{12}}
\@writefile{toc}{\contentsline {subsubsection}{\numberline {4.3.1}Collusive group of adversaries}{13}}
\@writefile{toc}{\contentsline {subsection}{\numberline {4.4}More attacking scenarios}{13}}
\newlabel{sec:moreattacks}{{4.4}{13}}
\citation{sybilguard}
\citation{privacyPreservingIndex}
\citation{privacyPreservingIndex}
\@writefile{toc}{\contentsline {section}{\numberline {5}Evaluation}{14}}
\newlabel{sec:evaluation}{{5}{14}}
\@writefile{toc}{\contentsline {subsection}{\numberline {5.1}Simulation based evaluation}{14}}
\@writefile{toc}{\contentsline {subsubsection}{\numberline {5.1.1}Privacy and search cost}{14}}
\newlabel{fig:pak_nanc}{{4a}{15}}
\newlabel{sub@fig:pak_nanc}{{(a)}{a}}
\newlabel{fig:puk_nanc}{{4b}{15}}
\newlabel{sub@fig:puk_nanc}{{(b)}{b}}
\newlabel{fig:pav_nanc}{{4c}{15}}
\newlabel{sub@fig:pav_nanc}{{(c)}{c}}
\newlabel{fig:puv_nanc}{{4d}{15}}
\newlabel{sub@fig:puv_nanc}{{(d)}{d}}
\@writefile{lof}{\contentsline {figure}{\numberline {4}{\ignorespaces Privacy performance (Experiment- 1)\relax }}{15}}
\newlabel{fig:kv_nanc}{{4}{15}}
\newlabel{fig:csa_nanc}{{5a}{15}}
\newlabel{sub@fig:csa_nanc}{{(a)}{a}}
\newlabel{fig:csu_nanc}{{5b}{15}}
\newlabel{sub@fig:csu_nanc}{{(b)}{b}}
\@writefile{lof}{\contentsline {figure}{\numberline {5}{\ignorespaces Search performance (Experiment- 1)\relax }}{15}}
\newlabel{fig:cost_nanc}{{5}{15}}
\citation{phera}
\citation{privacyPreservingJournal}
\citation{privacyPreservingJournal}
\citation{privacyPreservingJournal}
\citation{privacyPreservingJournal}
\newlabel{fig:pak_nabync}{{6a}{16}}
\newlabel{sub@fig:pak_nabync}{{(a)}{a}}
\newlabel{fig:puk_nabync}{{6b}{16}}
\newlabel{sub@fig:puk_nabync}{{(b)}{b}}
\newlabel{fig:pav_nabync}{{6c}{16}}
\newlabel{sub@fig:pav_nabync}{{(c)}{c}}
\newlabel{fig:puv_nabync}{{6d}{16}}
\newlabel{sub@fig:puv_nabync}{{(d)}{d}}
\@writefile{lof}{\contentsline {figure}{\numberline {6}{\ignorespaces Privacy performance (Experiment- 2\&3)\relax }}{16}}
\newlabel{fig:kv_nabync}{{6}{16}}
\newlabel{fig:csa_nabync}{{7a}{16}}
\newlabel{sub@fig:csa_nabync}{{(a)}{a}}
\newlabel{fig:csu_nabync}{{7b}{16}}
\newlabel{sub@fig:csu_nabync}{{(b)}{b}}
\@writefile{lof}{\contentsline {figure}{\numberline {7}{\ignorespaces Search performance (Experiment- 2\&3)\relax }}{16}}
\newlabel{fig:cost_nabync}{{7}{16}}
\@writefile{toc}{\contentsline {subsubsection}{\numberline {5.1.2}System entropy}{16}}
\newlabel{entropy}{{5.1.2}{16}}
\@writefile{toc}{\contentsline {subsection}{\numberline {5.2}PlanetLab based evaluation}{16}}
\newlabel{fig:r_entropy}{{8a}{16}}
\newlabel{sub@fig:r_entropy}{{(a)}{a}}
\newlabel{fig:p_entropy}{{8b}{16}}
\newlabel{sub@fig:p_entropy}{{(b)}{b}}
\@writefile{lof}{\contentsline {figure}{\numberline {8}{\ignorespaces Entropy performance\relax }}{16}}
\newlabel{fig:entropy}{{8}{16}}
\@writefile{toc}{\contentsline {subsection}{\numberline {5.3}Discussion}{16}}
\@writefile{toc}{\contentsline {section}{\numberline {6}Related Work}{16}}
\newlabel{sec:relatedwork}{{6}{16}}
\citation{privacysurvey}
\citation{p4p}
\citation{privdocindexing2}
\citation{oneswarm}
\citation{crowds}
\citation{tor}
\citation{freenet}
\citation{agyaat}
\citation{freehaven}
\citation{freenet}
\citation{damap}
\citation{agyaat}
\citation{privacyPreservingJournal}
\citation{noyb}
\@writefile{toc}{\contentsline {section}{\numberline {7}Conclusion}{17}}
\newlabel{sec:conclusion}{{7}{17}}
\@writefile{toc}{\contentsline {section}{Appendix\nobreakspace  {}A: Analysis of PPI system}{17}}
\bibstyle{IEEEtran}
\bibdata{main}
\bibcite{freenet}{1}
\bibcite{damap}{2}
\bibcite{kademlia}{3}
\bibcite{dalenius1977}{4}
\bibcite{crowds}{5}
\bibcite{kanonymity}{6}
\bibcite{privacyPreservingJournal}{7}
\bibcite{minimality}{8}
\bibcite{serjantov02towards}{9}
\bibcite{Diaz02towardsmeasuring}{10}
\bibcite{sybilguard}{11}
\bibcite{privacyPreservingIndex}{12}
\bibcite{phera}{13}
\bibcite{privacysurvey}{14}
\bibcite{p4p}{15}
\bibcite{privdocindexing2}{16}
\bibcite{oneswarm}{17}
\bibcite{tor}{18}
\bibcite{agyaat}{19}
\bibcite{freehaven}{20}
\bibcite{noyb}{21}
\@writefile{toc}{\contentsline {subsection}{\numberline {A.1}Probabilistic}{18}}
\newlabel{pva_vldb}{{12}{18}}
\@writefile{toc}{\contentsline {subsection}{\numberline {A.2}Information theoretic}{18}}
\newlabel{hva_vldb}{{13}{18}}
\@writefile{toc}{\contentsline {section}{References}{18}}
\@writefile{toc}{\contentsline {section}{Biographies}{18}}
\@writefile{toc}{\contentsline {subsection}{Rammohan Narendula}{18}}
\@writefile{toc}{\contentsline {subsection}{Rammohan Narendula}{18}}
