%!PS-Adobe-2.0 EPSF-2.0
%%Title: C:\a_Rammohan\phd\MyResearch\FirstPaper-SVN\FirstPaper\DataMgmtInP2PSystems\TrustedSubOverlay.dia
%%Creator: Dia v0.96.1
%%CreationDate: Wed Dec 17 23:44:56 2008
%%For: narendul
%%Orientation: Portrait
%%Magnification: 1.0000
%%BoundingBox: 0 0 682 379
%%BeginSetup
%%EndSetup
%%EndComments
%%BeginProlog
[ /.notdef /.notdef /.notdef /.notdef /.notdef /.notdef /.notdef /.notdef /.notdef /.notdef
/.notdef /.notdef /.notdef /.notdef /.notdef /.notdef /.notdef /.notdef /.notdef /.notdef
/.notdef /.notdef /.notdef /.notdef /.notdef /.notdef /.notdef /.notdef /.notdef /.notdef
/.notdef /.notdef /space /exclam /quotedbl /numbersign /dollar /percent /ampersand /quoteright
/parenleft /parenright /asterisk /plus /comma /hyphen /period /slash /zero /one
/two /three /four /five /six /seven /eight /nine /colon /semicolon
/less /equal /greater /question /at /A /B /C /D /E
/F /G /H /I /J /K /L /M /N /O
/P /Q /R /S /T /U /V /W /X /Y
/Z /bracketleft /backslash /bracketright /asciicircum /underscore /quoteleft /a /b /c
/d /e /f /g /h /i /j /k /l /m
/n /o /p /q /r /s /t /u /v /w
/x /y /z /braceleft /bar /braceright /asciitilde /.notdef /.notdef /.notdef
/.notdef /.notdef /.notdef /.notdef /.notdef /.notdef /.notdef /.notdef /.notdef /.notdef
/.notdef /.notdef /.notdef /.notdef /.notdef /.notdef /.notdef /.notdef /.notdef /.notdef
/.notdef /.notdef /.notdef /.notdef /.notdef /.notdef /.notdef /.notdef /.notdef /.notdef
/space /exclamdown /cent /sterling /currency /yen /brokenbar /section /dieresis /copyright
/ordfeminine /guillemotleft /logicalnot /hyphen /registered /macron /degree /plusminus /twosuperior /threesuperior
/acute /mu /paragraph /periodcentered /cedilla /onesuperior /ordmasculine /guillemotright /onequarter /onehalf
/threequarters /questiondown /Agrave /Aacute /Acircumflex /Atilde /Adieresis /Aring /AE /Ccedilla
/Egrave /Eacute /Ecircumflex /Edieresis /Igrave /Iacute /Icircumflex /Idieresis /Eth /Ntilde
/Ograve /Oacute /Ocircumflex /Otilde /Odieresis /multiply /Oslash /Ugrave /Uacute /Ucircumflex
/Udieresis /Yacute /Thorn /germandbls /agrave /aacute /acircumflex /atilde /adieresis /aring
/ae /ccedilla /egrave /eacute /ecircumflex /edieresis /igrave /iacute /icircumflex /idieresis
/eth /ntilde /ograve /oacute /ocircumflex /otilde /odieresis /divide /oslash /ugrave
/uacute /ucircumflex /udieresis /yacute /thorn /ydieresis] /isolatin1encoding exch def
/cp {closepath} bind def
/c {curveto} bind def
/f {fill} bind def
/a {arc} bind def
/ef {eofill} bind def
/ex {exch} bind def
/gr {grestore} bind def
/gs {gsave} bind def
/sa {save} bind def
/rs {restore} bind def
/l {lineto} bind def
/m {moveto} bind def
/rm {rmoveto} bind def
/n {newpath} bind def
/s {stroke} bind def
/sh {show} bind def
/slc {setlinecap} bind def
/slj {setlinejoin} bind def
/slw {setlinewidth} bind def
/srgb {setrgbcolor} bind def
/rot {rotate} bind def
/sc {scale} bind def
/sd {setdash} bind def
/ff {findfont} bind def
/sf {setfont} bind def
/scf {scalefont} bind def
/sw {stringwidth pop} bind def
/tr {translate} bind def

/ellipsedict 8 dict def
ellipsedict /mtrx matrix put
/ellipse
{ ellipsedict begin
   /endangle exch def
   /startangle exch def
   /yrad exch def
   /xrad exch def
   /y exch def
   /x exch def   /savematrix mtrx currentmatrix def
   x y tr xrad yrad sc
   0 0 1 startangle endangle arc
   savematrix setmatrix
   end
} def

/mergeprocs {
dup length
3 -1 roll
dup
length
dup
5 1 roll
3 -1 roll
add
array cvx
dup
3 -1 roll
0 exch
putinterval
dup
4 2 roll
putinterval
} bind def
/Times-Roman-latin1
    /Times-Roman findfont
    dup length dict begin
	{1 index /FID ne {def} {pop pop} ifelse} forall
	/Encoding isolatin1encoding def
    currentdict end
definefont pop
/Times-Italic-latin1
    /Times-Italic findfont
    dup length dict begin
	{1 index /FID ne {def} {pop pop} ifelse} forall
	/Encoding isolatin1encoding def
    currentdict end
definefont pop
/Times-Bold-latin1
    /Times-Bold findfont
    dup length dict begin
	{1 index /FID ne {def} {pop pop} ifelse} forall
	/Encoding isolatin1encoding def
    currentdict end
definefont pop
/Times-BoldItalic-latin1
    /Times-BoldItalic findfont
    dup length dict begin
	{1 index /FID ne {def} {pop pop} ifelse} forall
	/Encoding isolatin1encoding def
    currentdict end
definefont pop
/AvantGarde-Book-latin1
    /AvantGarde-Book findfont
    dup length dict begin
	{1 index /FID ne {def} {pop pop} ifelse} forall
	/Encoding isolatin1encoding def
    currentdict end
definefont pop
/AvantGarde-BookOblique-latin1
    /AvantGarde-BookOblique findfont
    dup length dict begin
	{1 index /FID ne {def} {pop pop} ifelse} forall
	/Encoding isolatin1encoding def
    currentdict end
definefont pop
/AvantGarde-Demi-latin1
    /AvantGarde-Demi findfont
    dup length dict begin
	{1 index /FID ne {def} {pop pop} ifelse} forall
	/Encoding isolatin1encoding def
    currentdict end
definefont pop
/AvantGarde-DemiOblique-latin1
    /AvantGarde-DemiOblique findfont
    dup length dict begin
	{1 index /FID ne {def} {pop pop} ifelse} forall
	/Encoding isolatin1encoding def
    currentdict end
definefont pop
/Bookman-Light-latin1
    /Bookman-Light findfont
    dup length dict begin
	{1 index /FID ne {def} {pop pop} ifelse} forall
	/Encoding isolatin1encoding def
    currentdict end
definefont pop
/Bookman-LightItalic-latin1
    /Bookman-LightItalic findfont
    dup length dict begin
	{1 index /FID ne {def} {pop pop} ifelse} forall
	/Encoding isolatin1encoding def
    currentdict end
definefont pop
/Bookman-Demi-latin1
    /Bookman-Demi findfont
    dup length dict begin
	{1 index /FID ne {def} {pop pop} ifelse} forall
	/Encoding isolatin1encoding def
    currentdict end
definefont pop
/Bookman-DemiItalic-latin1
    /Bookman-DemiItalic findfont
    dup length dict begin
	{1 index /FID ne {def} {pop pop} ifelse} forall
	/Encoding isolatin1encoding def
    currentdict end
definefont pop
/Courier-latin1
    /Courier findfont
    dup length dict begin
	{1 index /FID ne {def} {pop pop} ifelse} forall
	/Encoding isolatin1encoding def
    currentdict end
definefont pop
/Courier-Oblique-latin1
    /Courier-Oblique findfont
    dup length dict begin
	{1 index /FID ne {def} {pop pop} ifelse} forall
	/Encoding isolatin1encoding def
    currentdict end
definefont pop
/Courier-Bold-latin1
    /Courier-Bold findfont
    dup length dict begin
	{1 index /FID ne {def} {pop pop} ifelse} forall
	/Encoding isolatin1encoding def
    currentdict end
definefont pop
/Courier-BoldOblique-latin1
    /Courier-BoldOblique findfont
    dup length dict begin
	{1 index /FID ne {def} {pop pop} ifelse} forall
	/Encoding isolatin1encoding def
    currentdict end
definefont pop
/Helvetica-latin1
    /Helvetica findfont
    dup length dict begin
	{1 index /FID ne {def} {pop pop} ifelse} forall
	/Encoding isolatin1encoding def
    currentdict end
definefont pop
/Helvetica-Oblique-latin1
    /Helvetica-Oblique findfont
    dup length dict begin
	{1 index /FID ne {def} {pop pop} ifelse} forall
	/Encoding isolatin1encoding def
    currentdict end
definefont pop
/Helvetica-Bold-latin1
    /Helvetica-Bold findfont
    dup length dict begin
	{1 index /FID ne {def} {pop pop} ifelse} forall
	/Encoding isolatin1encoding def
    currentdict end
definefont pop
/Helvetica-BoldOblique-latin1
    /Helvetica-BoldOblique findfont
    dup length dict begin
	{1 index /FID ne {def} {pop pop} ifelse} forall
	/Encoding isolatin1encoding def
    currentdict end
definefont pop
/Helvetica-Narrow-latin1
    /Helvetica-Narrow findfont
    dup length dict begin
	{1 index /FID ne {def} {pop pop} ifelse} forall
	/Encoding isolatin1encoding def
    currentdict end
definefont pop
/Helvetica-Narrow-Oblique-latin1
    /Helvetica-Narrow-Oblique findfont
    dup length dict begin
	{1 index /FID ne {def} {pop pop} ifelse} forall
	/Encoding isolatin1encoding def
    currentdict end
definefont pop
/Helvetica-Narrow-Bold-latin1
    /Helvetica-Narrow-Bold findfont
    dup length dict begin
	{1 index /FID ne {def} {pop pop} ifelse} forall
	/Encoding isolatin1encoding def
    currentdict end
definefont pop
/Helvetica-Narrow-BoldOblique-latin1
    /Helvetica-Narrow-BoldOblique findfont
    dup length dict begin
	{1 index /FID ne {def} {pop pop} ifelse} forall
	/Encoding isolatin1encoding def
    currentdict end
definefont pop
/NewCenturySchoolbook-Roman-latin1
    /NewCenturySchoolbook-Roman findfont
    dup length dict begin
	{1 index /FID ne {def} {pop pop} ifelse} forall
	/Encoding isolatin1encoding def
    currentdict end
definefont pop
/NewCenturySchoolbook-Italic-latin1
    /NewCenturySchoolbook-Italic findfont
    dup length dict begin
	{1 index /FID ne {def} {pop pop} ifelse} forall
	/Encoding isolatin1encoding def
    currentdict end
definefont pop
/NewCenturySchoolbook-Bold-latin1
    /NewCenturySchoolbook-Bold findfont
    dup length dict begin
	{1 index /FID ne {def} {pop pop} ifelse} forall
	/Encoding isolatin1encoding def
    currentdict end
definefont pop
/NewCenturySchoolbook-BoldItalic-latin1
    /NewCenturySchoolbook-BoldItalic findfont
    dup length dict begin
	{1 index /FID ne {def} {pop pop} ifelse} forall
	/Encoding isolatin1encoding def
    currentdict end
definefont pop
/Palatino-Roman-latin1
    /Palatino-Roman findfont
    dup length dict begin
	{1 index /FID ne {def} {pop pop} ifelse} forall
	/Encoding isolatin1encoding def
    currentdict end
definefont pop
/Palatino-Italic-latin1
    /Palatino-Italic findfont
    dup length dict begin
	{1 index /FID ne {def} {pop pop} ifelse} forall
	/Encoding isolatin1encoding def
    currentdict end
definefont pop
/Palatino-Bold-latin1
    /Palatino-Bold findfont
    dup length dict begin
	{1 index /FID ne {def} {pop pop} ifelse} forall
	/Encoding isolatin1encoding def
    currentdict end
definefont pop
/Palatino-BoldItalic-latin1
    /Palatino-BoldItalic findfont
    dup length dict begin
	{1 index /FID ne {def} {pop pop} ifelse} forall
	/Encoding isolatin1encoding def
    currentdict end
definefont pop
/Symbol-latin1
    /Symbol findfont
definefont pop
/ZapfChancery-MediumItalic-latin1
    /ZapfChancery-MediumItalic findfont
    dup length dict begin
	{1 index /FID ne {def} {pop pop} ifelse} forall
	/Encoding isolatin1encoding def
    currentdict end
definefont pop
/ZapfDingbats-latin1
    /ZapfDingbats findfont
    dup length dict begin
	{1 index /FID ne {def} {pop pop} ifelse} forall
	/Encoding isolatin1encoding def
    currentdict end
definefont pop
15.149901 -15.149901 scale
-6.250000 -29.757625 translate
%%EndProlog


0.100000 slw
[] 0 sd
[] 0 sd
0 slc
0 slj
0.100000 slw
0 slc
0 slj
[] 0 sd
1.000000 1.000000 1.000000 srgb
n 10.700000 21.550000 0.450000 0.450000 0 360 ellipse f
0.000000 0.000000 0.000000 srgb
n 10.700000 21.550000 0.450000 0.450000 0 360 ellipse cp s
0.010000 slw
0 slc
0 slj
[] 0 sd
n 10.700000 21.550000 0.450000 0.450000 0 360 ellipse cp s
0.100000 slw
[] 0 sd
[] 0 sd
0 slc
0 slj
0.100000 slw
0 slc
0 slj
[] 0 sd
1.000000 1.000000 1.000000 srgb
n 13.750000 16.145000 0.450000 0.450000 0 360 ellipse f
0.000000 0.000000 0.000000 srgb
n 13.750000 16.145000 0.450000 0.450000 0 360 ellipse cp s
0.010000 slw
0 slc
0 slj
[] 0 sd
n 13.750000 16.145000 0.450000 0.450000 0 360 ellipse cp s
0.100000 slw
[] 0 sd
[] 0 sd
0 slc
0 slj
0.100000 slw
0 slc
0 slj
[] 0 sd
1.000000 1.000000 1.000000 srgb
n 14.100000 26.990000 0.450000 0.450000 0 360 ellipse f
0.000000 0.000000 0.000000 srgb
n 14.100000 26.990000 0.450000 0.450000 0 360 ellipse cp s
0.010000 slw
0 slc
0 slj
[] 0 sd
n 14.100000 26.990000 0.450000 0.450000 0 360 ellipse cp s
0.100000 slw
[] 0 sd
[] 0 sd
0 slc
0 slj
0.100000 slw
0 slc
0 slj
[] 0 sd
1.000000 1.000000 1.000000 srgb
n 23.350000 13.985000 0.450000 0.450000 0 360 ellipse f
0.000000 0.000000 0.000000 srgb
n 23.350000 13.985000 0.450000 0.450000 0 360 ellipse cp s
0.010000 slw
0 slc
0 slj
[] 0 sd
n 23.350000 13.985000 0.450000 0.450000 0 360 ellipse cp s
0.100000 slw
[] 0 sd
[] 0 sd
0 slc
0 slj
0.100000 slw
0 slc
0 slj
[] 0 sd
1.000000 1.000000 1.000000 srgb
n 18.750000 13.730000 0.450000 0.450000 0 360 ellipse f
0.000000 0.000000 0.000000 srgb
n 18.750000 13.730000 0.450000 0.450000 0 360 ellipse cp s
0.010000 slw
0 slc
0 slj
[] 0 sd
n 18.750000 13.730000 0.450000 0.450000 0 360 ellipse cp s
0.100000 slw
[] 0 sd
[] 0 sd
0 slc
0 slj
0.100000 slw
0 slc
0 slj
[] 0 sd
1.000000 1.000000 1.000000 srgb
n 19.600000 27.425000 0.450000 0.450000 0 360 ellipse f
0.000000 0.000000 0.000000 srgb
n 19.600000 27.425000 0.450000 0.450000 0 360 ellipse cp s
0.010000 slw
0 slc
0 slj
[] 0 sd
n 19.600000 27.425000 0.450000 0.450000 0 360 ellipse cp s
0.100000 slw
[] 0 sd
[] 0 sd
0 slc
0 slj
0.100000 slw
0 slc
0 slj
[] 0 sd
1.000000 1.000000 1.000000 srgb
n 27.950000 14.120000 0.450000 0.450000 0 360 ellipse f
0.000000 0.000000 0.000000 srgb
n 27.950000 14.120000 0.450000 0.450000 0 360 ellipse cp s
0.010000 slw
0 slc
0 slj
[] 0 sd
n 27.950000 14.120000 0.450000 0.450000 0 360 ellipse cp s
0.100000 slw
[] 0 sd
[] 0 sd
0 slc
0 slj
0.100000 slw
0 slc
0 slj
[] 0 sd
1.000000 1.000000 1.000000 srgb
n 24.400000 27.255000 0.450000 0.450000 0 360 ellipse f
0.000000 0.000000 0.000000 srgb
n 24.400000 27.255000 0.450000 0.450000 0 360 ellipse cp s
0.010000 slw
0 slc
0 slj
[] 0 sd
n 24.400000 27.255000 0.450000 0.450000 0 360 ellipse cp s
0.100000 slw
[] 0 sd
[] 0 sd
0 slc
0 slj
0.100000 slw
0 slc
0 slj
[] 0 sd
1.000000 1.000000 1.000000 srgb
n 29.800000 26.745000 0.450000 0.450000 0 360 ellipse f
0.000000 0.000000 0.000000 srgb
n 29.800000 26.745000 0.450000 0.450000 0 360 ellipse cp s
0.010000 slw
0 slc
0 slj
[] 0 sd
n 29.800000 26.745000 0.450000 0.450000 0 360 ellipse cp s
0.100000 slw
[] 0 sd
[] 0 sd
0 slc
0 slj
0.100000 slw
0 slc
0 slj
[] 0 sd
1.000000 1.000000 1.000000 srgb
n 32.050000 23.685000 0.450000 0.450000 0 360 ellipse f
0.000000 0.000000 0.000000 srgb
n 32.050000 23.685000 0.450000 0.450000 0 360 ellipse cp s
0.010000 slw
0 slc
0 slj
[] 0 sd
n 32.050000 23.685000 0.450000 0.450000 0 360 ellipse cp s
0.100000 slw
[] 0 sd
[] 0 sd
0 slc
0 slj
0.100000 slw
0 slc
0 slj
[] 0 sd
1.000000 1.000000 1.000000 srgb
n 31.750000 19.130000 0.450000 0.450000 0 360 ellipse f
0.000000 0.000000 0.000000 srgb
n 31.750000 19.130000 0.450000 0.450000 0 360 ellipse cp s
0.010000 slw
0 slc
0 slj
[] 0 sd
n 31.750000 19.130000 0.450000 0.450000 0 360 ellipse cp s
/Helvetica-latin1 ff 0.840000 scf sf
(p1) 9.100000 21.762500 m 
dup sw 1.244995 exch sub 
2 div exch 0.0 exch 
 gs 1 -1 sc ashow gr
/Helvetica-latin1 ff 0.840000 scf sf
(p2) 11.850000 15.985000 m 
dup sw 1.244995 exch sub 
2 div exch 0.0 exch 
 gs 1 -1 sc ashow gr
/Helvetica-latin1 ff 0.840000 scf sf
(p11) 13.750000 28.430000 m 
dup sw 1.867493 exch sub 
3 div exch 0.0 exch 
 gs 1 -1 sc ashow gr
/Helvetica-latin1 ff 0.840000 scf sf
(p3) 18.400000 12.225000 m 
dup sw 1.244995 exch sub 
2 div exch 0.0 exch 
 gs 1 -1 sc ashow gr
/Helvetica-latin1 ff 0.840000 scf sf
(p4) 23.150000 12.320000 m 
dup sw 1.244995 exch sub 
2 div exch 0.0 exch 
 gs 1 -1 sc ashow gr
/Helvetica-latin1 ff 0.840000 scf sf
(p5) 28.300000 12.815000 m 
dup sw 1.244995 exch sub 
2 div exch 0.0 exch 
 gs 1 -1 sc ashow gr
/Helvetica-latin1 ff 0.840000 scf sf
(p6) 32.200000 20.010000 m 
dup sw 1.244995 exch sub 
2 div exch 0.0 exch 
 gs 1 -1 sc ashow gr
/Helvetica-latin1 ff 0.840000 scf sf
(p7) 32.550000 24.755000 m 
dup sw 1.244995 exch sub 
2 div exch 0.0 exch 
 gs 1 -1 sc ashow gr
/Helvetica-latin1 ff 0.840000 scf sf
(p8) 29.850000 28.150000 m 
dup sw 1.244995 exch sub 
2 div exch 0.0 exch 
 gs 1 -1 sc ashow gr
/Helvetica-latin1 ff 0.840000 scf sf
(p9) 24.450000 28.462500 m 
dup sw 1.244995 exch sub 
2 div exch 0.0 exch 
 gs 1 -1 sc ashow gr
/Helvetica-latin1 ff 0.840000 scf sf
(p10) 19.250000 29.035000 m 
dup sw 1.867493 exch sub 
3 div exch 0.0 exch 
 gs 1 -1 sc ashow gr
0.010000 slw
[] 0 sd
[] 0 sd
0 slc
n 11.104100 21.200000 m 13.518400 16.587400 l s
0.010000 slw
[] 0 sd
[] 0 sd
0 slc
n 11.150000 21.550000 m 23.004100 14.500000 l s
0.010000 slw
[] 0 sd
[] 0 sd
0 slc
n 11.150000 21.550000 m 19.190500 27.140300 l s
0.010000 slw
[] 0 sd
[] 0 sd
0 slc
n 14.550000 26.990000 m 19.150000 27.425000 l s
0.010000 slw
[] 0 sd
[] 0 sd
0 slc
n 14.354100 26.550000 m 18.750000 14.180000 l s
0.010000 slw
[] 0 sd
[] 0 sd
0 slc
n 18.954100 14.300000 m 24.207200 26.796400 l s
0.010000 slw
[] 0 sd
[] 0 sd
0 slc
n 24.850000 27.255000 m 29.350000 26.745000 l s
0.010000 slw
[] 0 sd
[] 0 sd
0 slc
n 14.163700 16.426100 m 29.350000 26.745000 l s
0.010000 slw
[] 0 sd
[] 0 sd
0 slc
n 23.673300 14.365100 m 31.600000 23.685000 l s
0.010000 slw
[] 0 sd
[] 0 sd
0 slc
n 14.591400 26.899500 m 31.558600 23.775500 l s
0.010000 slw
[] 0 sd
[] 0 sd
0 slc
n 28.400000 14.120000 m 31.750000 18.680000 l s
0.010000 slw
[] 0 sd
[] 0 sd
0 slc
n 24.054100 13.850000 m 27.451100 14.085400 l s
0.010000 slw
[] 0 sd
[] 0 sd
0 slc
n 31.786400 19.628100 m 32.050000 23.235000 l s
0.010000 slw
[] 0 sd
[] 0 sd
0 slc
n 30.154100 26.300000 m 32.050000 24.135000 l s
0.010000 slw
[0.200000] 0 sd
[0.200000] 0 sd
0 slc
n 10.504100 21.000000 m 10.754100 9.000000 l s
0.010000 slw
[0.200000] 0 sd
[0.200000] 0 sd
0 slc
n 18.470100 13.316200 m 15.084000 8.308830 l s
0.010000 slw
[0.200000] 0 sd
[0.200000] 0 sd
0 slc
n 23.950000 27.255000 m 13.204100 10.200000 l s
0.100000 slw
[] 0 sd
[] 0 sd
0 slc
0 slj
0.100000 slw
0 slc
0 slj
[] 0 sd
n 14.804100 7.895000 0.450000 0.450000 0 360 ellipse f
n 14.804100 7.895000 0.450000 0.450000 0 360 ellipse cp s
0.010000 slw
0 slc
0 slj
[] 0 sd
n 14.804100 7.895000 0.450000 0.450000 0 360 ellipse cp s
0.100000 slw
[] 0 sd
[] 0 sd
0 slc
0 slj
0.100000 slw
0 slc
0 slj
[] 0 sd
n 10.954100 8.540000 0.450000 0.450000 0 360 ellipse f
n 10.954100 8.540000 0.450000 0.450000 0 360 ellipse cp s
0.010000 slw
0 slc
0 slj
[] 0 sd
n 10.954100 8.540000 0.450000 0.450000 0 360 ellipse cp s
0.100000 slw
[] 0 sd
[] 0 sd
0 slc
0 slj
0.100000 slw
0 slc
0 slj
[] 0 sd
n 13.354100 9.935000 0.450000 0.450000 0 360 ellipse f
n 13.354100 9.935000 0.450000 0.450000 0 360 ellipse cp s
0.010000 slw
0 slc
0 slj
[] 0 sd
n 13.354100 9.935000 0.450000 0.450000 0 360 ellipse cp s
/Helvetica-latin1 ff 0.840000 scf sf
(p1) 9.354120 8.635000 m 
dup sw 1.244995 exch sub 
2 div exch 0.0 exch 
 gs 1 -1 sc ashow gr
/Helvetica-latin1 ff 0.840000 scf sf
(p3) 15.504100 7.030000 m 
dup sw 1.244995 exch sub 
2 div exch 0.0 exch 
 gs 1 -1 sc ashow gr
/Helvetica-latin1 ff 0.840000 scf sf
(p9) 14.154100 10.425000 m 
dup sw 1.244995 exch sub 
2 div exch 0.0 exch 
 gs 1 -1 sc ashow gr
/Helvetica-Bold-latin1 ff 0.840000 scf sf
(TSO-1) 16.666600 9.088700 m 
dup sw 3.297498 exch sub 
5 div exch 0.0 exch 
 gs 1 -1 sc ashow gr
0.050000 slw
[0.200000] 0 sd
[0.200000] 0 sd
0 slc
n 23.567300 13.535300 m 26.616600 7.226200 l s
0.050000 slw
[0.200000] 0 sd
[0.200000] 0 sd
0 slc
n 31.750000 18.680000 m 30.116600 8.376200 l s
0.050000 slw
[0.200000] 0 sd
[0.200000] 0 sd
0 slc
n 29.800000 26.295000 m 28.566600 10.776200 l s
0.100000 slw
[] 0 sd
[] 0 sd
0 slc
0 slj
0.100000 slw
0 slc
0 slj
[] 0 sd
n 28.516600 10.421200 0.450000 0.450000 0 360 ellipse f
n 28.516600 10.421200 0.450000 0.450000 0 360 ellipse cp s
0.010000 slw
0 slc
0 slj
[] 0 sd
n 28.516600 10.421200 0.450000 0.450000 0 360 ellipse cp s
0.100000 slw
[] 0 sd
[] 0 sd
0 slc
0 slj
0.100000 slw
0 slc
0 slj
[] 0 sd
n 30.016600 7.966200 0.450000 0.450000 0 360 ellipse f
n 30.016600 7.966200 0.450000 0.450000 0 360 ellipse cp s
0.010000 slw
0 slc
0 slj
[] 0 sd
n 30.016600 7.966200 0.450000 0.450000 0 360 ellipse cp s
0.100000 slw
[] 0 sd
[] 0 sd
0 slc
0 slj
0.100000 slw
0 slc
0 slj
[] 0 sd
n 26.616600 6.861200 0.450000 0.450000 0 360 ellipse f
n 26.616600 6.861200 0.450000 0.450000 0 360 ellipse cp s
0.010000 slw
0 slc
0 slj
[] 0 sd
n 26.616600 6.861200 0.450000 0.450000 0 360 ellipse cp s
/Helvetica-latin1 ff 0.840000 scf sf
(p8) 29.266600 10.411200 m 
dup sw 1.244995 exch sub 
2 div exch 0.0 exch 
 gs 1 -1 sc ashow gr
/Helvetica-latin1 ff 0.840000 scf sf
(p6) 30.866600 7.456200 m 
dup sw 1.244995 exch sub 
2 div exch 0.0 exch 
 gs 1 -1 sc ashow gr
/Helvetica-latin1 ff 0.840000 scf sf
(p4) 26.616600 5.601200 m 
dup sw 1.244995 exch sub 
2 div exch 0.0 exch 
 gs 1 -1 sc ashow gr
0.050000 slw
[0.200000] 0 sd
[0.200000] 0 sd
0 slc
n 24.400000 26.805000 m 26.666600 9.776200 l s
0.100000 slw
[] 0 sd
[] 0 sd
0 slc
0 slj
0.100000 slw
0 slc
0 slj
[] 0 sd
n 26.666600 9.621200 0.450000 0.450000 0 360 ellipse f
n 26.666600 9.621200 0.450000 0.450000 0 360 ellipse cp s
0.010000 slw
0 slc
0 slj
[] 0 sd
n 26.666600 9.621200 0.450000 0.450000 0 360 ellipse cp s
/Helvetica-latin1 ff 0.840000 scf sf
(p9) 25.666600 10.711200 m 
dup sw 1.244995 exch sub 
2 div exch 0.0 exch 
 gs 1 -1 sc ashow gr
0.100000 slw
[] 0 sd
[] 0 sd
0 slc
n 27.166600 7.076200 m 29.540000 7.817360 l s
0.100000 slw
[] 0 sd
[] 0 sd
0 slc
n 28.916600 10.076200 m 29.785400 8.409730 l s
0.100000 slw
[] 0 sd
[] 0 sd
0 slc
n 26.625700 7.360510 m 26.657600 9.121890 l s
0.100000 slw
[] 0 sd
[] 0 sd
0 slc
n 27.116600 9.621200 m 28.083200 10.173500 l s
0.100000 slw
[] 0 sd
[] 0 sd
0 slc
n 26.851300 7.300990 m 28.281900 9.981420 l s
0.100000 slw
[] 0 sd
[] 0 sd
0 slc
n 11.316600 8.176200 m 14.306000 7.935160 l s
0.100000 slw
[] 0 sd
[] 0 sd
0 slc
n 14.514400 8.302650 m 13.643900 9.527350 l s
0.100000 slw
[] 0 sd
[] 0 sd
0 slc
n 11.404100 8.540000 m 12.947300 9.643980 l s
/Helvetica-Bold-latin1 ff 0.840000 scf sf
(TSO-2) 28.366600 6.011200 m 
dup sw 3.297498 exch sub 
5 div exch 0.0 exch 
 gs 1 -1 sc ashow gr
0.010000 slw
[] 0 sd
[] 0 sd
0 slc
n 34.866600 21.026200 m 36.916600 20.971200 l s
/Helvetica-Bold-latin1 ff 0.700000 scf sf
(Link in overlay) 38.366600 21.128700 m 
dup sw 6.530000 exch sub 
15 div exch 0.0 exch 
 gs 1 -1 sc ashow gr
0.100000 slw
[] 0 sd
[] 0 sd
0 slc
n 34.866600 23.076200 m 36.966600 23.021200 l s
/Helvetica-Bold-latin1 ff 0.700000 scf sf
(Link in Trusted Sub Overlay) 38.116600 23.201200 m 
dup sw 12.385000 exch sub 
27 div exch 0.0 exch 
 gs 1 -1 sc ashow gr
/Helvetica-Bold-latin1 ff 0.700000 scf sf
(Same node in TSO) 38.066600 27.028700 m 
dup sw 8.242500 exch sub 
16 div exch 0.0 exch 
 gs 1 -1 sc ashow gr
0.100000 slw
[] 0 sd
[] 0 sd
0 slc
0 slj
0.100000 slw
0 slc
0 slj
[] 0 sd
1.000000 1.000000 1.000000 srgb
n 36.966600 24.821200 0.450000 0.450000 0 360 ellipse f
0.000000 0.000000 0.000000 srgb
n 36.966600 24.821200 0.450000 0.450000 0 360 ellipse cp s
0.010000 slw
0 slc
0 slj
[] 0 sd
n 36.966600 24.821200 0.450000 0.450000 0 360 ellipse cp s
0.100000 slw
[] 0 sd
[] 0 sd
0 slc
0 slj
0.100000 slw
0 slc
0 slj
[] 0 sd
n 37.016600 26.871200 0.450000 0.450000 0 360 ellipse f
n 37.016600 26.871200 0.450000 0.450000 0 360 ellipse cp s
0.010000 slw
0 slc
0 slj
[] 0 sd
n 37.016600 26.871200 0.450000 0.450000 0 360 ellipse cp s
/Helvetica-Bold-latin1 ff 0.910000 scf sf
(\(1\) p11 queries TSO-1 ) 33.825000 9.655000 m 
dup sw 12.810000 exch sub 
22 div exch 0.0 exch 
 gs 1 -1 sc ashow gr
(\(2\) p1 receives the query, and ) 33.825000 10.955000 m 
dup sw 17.400000 exch sub 
31 div exch 0.0 exch 
 gs 1 -1 sc ashow gr
(     requeries the sub overlay- ) 33.825000 12.255000 m 
dup sw 17.130000 exch sub 
32 div exch 0.0 exch 
 gs 1 -1 sc ashow gr
(     received by p3) 33.825000 13.555000 m 
dup sw 10.117500 exch sub 
19 div exch 0.0 exch 
 gs 1 -1 sc ashow gr
(\(3\) p3 sends reply to p11) 33.825000 14.855000 m 
dup sw 14.227500 exch sub 
25 div exch 0.0 exch 
 gs 1 -1 sc ashow gr
0.100000 slw
[] 0 sd
[] 0 sd
0 slc
n 19.818157 16.926223 12.457679 12.457679 124.847006 212.654437 ellipse s
[] 0 sd
0 slj
0 slc
n 9.536045 9.891704 m 9.455085 10.444828 l 9.321532 10.199291 l 9.044970 10.158811 l ef
n 9.536045 9.891704 m 9.455085 10.444828 l 9.321532 10.199291 l 9.044970 10.158811 l cp s
0.100000 slw
[] 0 sd
[] 0 sd
0 slc
n 13.444842 11.688682 4.744303 4.744303 236.118465 278.857143 ellipse s
[] 0 sd
0 slj
0 slc
n 14.541864 7.071599 m 13.994759 7.186388 l 14.179165 6.976341 l 14.121770 6.702789 l ef
n 14.541864 7.071599 m 13.994759 7.186388 l 14.179165 6.976341 l 14.121770 6.702789 l cp s
0.100000 slw
[] 0 sd
[] 0 sd
0 slj
0 slc
n 14.000000 6.200000 m 6.300000 6.200000 l 6.300000 28.300000 l 11.763197 28.300000 l s
[] 0 sd
0 slj
0 slc
n 12.138197 28.300000 m 11.638197 28.550000 l 11.763197 28.300000 l 11.638197 28.050000 l ef
n 12.138197 28.300000 m 11.638197 28.550000 l 11.763197 28.300000 l 11.638197 28.050000 l cp s
/Helvetica-Bold-latin1 ff 0.700000 scf sf
(Node in main overlay) 38.100000 24.965000 m 
dup sw 9.380000 exch sub 
20 div exch 0.0 exch 
 gs 1 -1 sc ashow gr
showpage
