\relax 
\citation{kanonymity}
\citation{crowds}
\citation{itc}
\@writefile{toc}{\contentsline {section}{\numberline {I}Introduction}{1}}
\newlabel{sec:intro}{{I}{1}}
\@writefile{toc}{\contentsline {section}{\numberline {II}The Approach}{1}}
\newlabel{sec:panacea-system}{{II}{1}}
\@writefile{toc}{\contentsline {subsubsection}{\numberline {\unhbox \voidb@x \hbox {II-}1}Probabilistic publishing}{1}}
\@writefile{toc}{\contentsline {subsubsection}{\numberline {\unhbox \voidb@x \hbox {II-}2}RPP index generation}{1}}
\@writefile{toc}{\contentsline {subsubsection}{\numberline {\unhbox \voidb@x \hbox {II-}3}Randomized forwarding}{1}}
\newlabel{sec:insertion}{{\unhbox \voidb@x \hbox {II-}4}{1}}
\@writefile{toc}{\contentsline {subsubsection}{\numberline {\unhbox \voidb@x \hbox {II-}4}Insertion into the DHT}{1}}
\@writefile{toc}{\contentsline {section}{\numberline {III}Privacy analysis}{1}}
\bibstyle{IEEEtran}
\bibdata{main}
\bibcite{kanonymity}{1}
\bibcite{crowds}{2}
\bibcite{itc}{3}
\newlabel{theorem:privacyforset}{{3.1}{2}}
\@writefile{toc}{\contentsline {section}{\numberline {IV}Conclusion}{2}}
\newlabel{sec:conclusion}{{IV}{2}}
\@writefile{toc}{\contentsline {section}{References}{2}}
