This is BibTeX, Version 0.99c (TeX Live 2009/Debian)
The top-level auxiliary file: ITC.aux
The style file: IEEEtran.bst
Reallocated wiz_functions (elt_size=4) to 6000 items from 3000.
Database file #1: main.bib
You're missing a field name---line 91 of file main.bib
 :     
 :     %pages = "149--160",
(Error may have been on previous line)
I'm skipping whatever remains of this entry
You're missing a field name---line 707 of file main.bib
 :  
 :  %pages = {67--95},
(Error may have been on previous line)
I'm skipping whatever remains of this entry
You're missing a field name---line 935 of file main.bib
 :  
 :  %pages = {922--933},
(Error may have been on previous line)
I'm skipping whatever remains of this entry
-- IEEEtran.bst version 1.12 (2007/01/11) by Michael Shell.
-- http://www.michaelshell.org/tex/ieeetran/bibtex/
-- See the "IEEEtran_bst_HOWTO.pdf" manual for usage information.
Name 2 in "Narendula Rammohan and Zoltan Miklos, and Karl Aberer" has a comma at the end for entry damap
while executing---line 2411 of file IEEEtran.bst

Done.
You've used 10 entries,
            4024 wiz_defined-function locations,
            872 strings with 9114 characters,
and the built_in function-call counts, 7123 in all, are:
= -- 552
> -- 165
< -- 48
+ -- 86
- -- 30
* -- 359
:= -- 1087
add.period$ -- 22
call.type$ -- 10
change.case$ -- 10
chr.to.int$ -- 108
cite$ -- 10
duplicate$ -- 533
empty$ -- 631
format.name$ -- 39
if$ -- 1627
int.to.chr$ -- 0
int.to.str$ -- 10
missing$ -- 99
newline$ -- 55
num.names$ -- 10
pop$ -- 239
preamble$ -- 1
purify$ -- 0
quote$ -- 2
skip$ -- 543
stack$ -- 0
substring$ -- 262
swap$ -- 398
text.length$ -- 12
text.prefix$ -- 0
top$ -- 5
type$ -- 10
warning$ -- 0
while$ -- 30
width$ -- 12
write$ -- 118
(There were 4 error messages)
