\relax 
\citation{freenet}
\citation{damap}
\citation{kademlia}
\citation{kademlia}
\citation{crowds}
\@writefile{toc}{\contentsline {section}{\numberline {I}Introduction}{1}}
\newlabel{sec:intro}{{I}{1}}
\citation{kanonymity}
\@writefile{toc}{\contentsline {subsection}{\numberline {\unhbox \voidb@x \hbox {I-A}}Motivation}{2}}
\newlabel{sec:motivation}{{\unhbox \voidb@x \hbox {I-A}}{2}}
\@writefile{toc}{\contentsline {section}{\numberline {II}The PANACEA System}{2}}
\newlabel{sec:panacea-system}{{II}{2}}
\@writefile{toc}{\contentsline {subsection}{\numberline {\unhbox \voidb@x \hbox {II-A}}Privacy Preserving Publishing}{2}}
\newlabel{sec:approach}{{\unhbox \voidb@x \hbox {II-A}}{2}}
\@writefile{toc}{\contentsline {subsubsection}{\numberline {\unhbox \voidb@x \hbox {II-A}1}Probabilistic publishing}{2}}
\@writefile{toc}{\contentsline {subsubsection}{\numberline {\unhbox \voidb@x \hbox {II-A}2}RPP index generation}{2}}
\citation{crowds}
\citation{crowds}
\citation{privacyPreservingJournal}
\@writefile{lof}{\contentsline {figure}{\numberline {1}{\ignorespaces Privacy preserving publishing in PANACEA}}{3}}
\newlabel{fig:approach}{{1}{3}}
\@writefile{toc}{\contentsline {subsubsection}{\numberline {\unhbox \voidb@x \hbox {II-A}3}Randomized forwarding}{3}}
\newlabel{sec:insertion}{{\unhbox \voidb@x \hbox {II-A}4}{3}}
\@writefile{toc}{\contentsline {subsubsection}{\numberline {\unhbox \voidb@x \hbox {II-A}4}Insertion into the DHT}{3}}
\@writefile{toc}{\contentsline {subsection}{\numberline {\unhbox \voidb@x \hbox {II-B}}Searching}{3}}
\newlabel{sec:search}{{\unhbox \voidb@x \hbox {II-B}}{3}}
\@writefile{toc}{\contentsline {subsection}{\numberline {\unhbox \voidb@x \hbox {II-C}}System description through an example}{4}}
\@writefile{toc}{\contentsline {section}{\numberline {III}Resource anonymization}{4}}
\newlabel{sec:resource}{{III}{4}}
\@writefile{toc}{\contentsline {subsection}{\numberline {\unhbox \voidb@x \hbox {III-A}}Anonymization by random selection (RS) approach}{4}}
\@writefile{toc}{\contentsline {subsection}{\numberline {\unhbox \voidb@x \hbox {III-B}}Anonymization by fixed selection (FS) approach}{4}}
\newlabel{sec:circular}{{\unhbox \voidb@x \hbox {III-B}}{4}}
\@writefile{lof}{\contentsline {figure}{\numberline {2}{\ignorespaces Circular approach for key anonymization}}{5}}
\newlabel{fig:circular}{{2}{5}}
\newlabel{algorithm}{{\unhbox \voidb@x \hbox {III-B}}{5}}
\@writefile{loa}{\contentsline {algorithm}{\numberline {1}{\ignorespaces The circular approach}}{5}}
\@writefile{toc}{\contentsline {subsubsection}{\numberline {\unhbox \voidb@x \hbox {III-B}1}Dictionary construction and distribution}{5}}
\citation{crowds}
\newlabel{eq:newindex}{{1}{6}}
\citation{minimality}
\@writefile{toc}{\contentsline {subsection}{\numberline {\unhbox \voidb@x \hbox {III-C}}Discussion}{7}}
\@writefile{toc}{\contentsline {section}{\numberline {IV}Privacy and performance analysis}{7}}
\newlabel{sec:analysis}{{IV}{7}}
\@writefile{toc}{\contentsline {subsection}{\numberline {\unhbox \voidb@x \hbox {IV-A}}Adversary models}{7}}
\newlabel{sec:adversarymodels}{{\unhbox \voidb@x \hbox {IV-A}}{7}}
\@writefile{toc}{\contentsline {subsection}{\numberline {\unhbox \voidb@x \hbox {IV-B}}Single searcher-single query adversary model}{8}}
\@writefile{toc}{\contentsline {subsubsection}{\numberline {\unhbox \voidb@x \hbox {IV-B}1}Probabilistic approach}{8}}
\newlabel{def}{{\unhbox \voidb@x \hbox {IV-B}1}{8}}
\citation{serjantov02towards}
\citation{Diaz02towardsmeasuring}
\citation{serjantov02towards}
\citation{Diaz02towardsmeasuring}
\newlabel{pva_panacea}{{2}{9}}
\newlabel{pka_panacea}{{3}{9}}
\newlabel{csa_panacea}{{4}{9}}
\newlabel{pminus_panacea}{{5}{9}}
\newlabel{csminus_panacea}{{6}{9}}
\newlabel{sec:entropy}{{\unhbox \voidb@x \hbox {IV-B}2}{9}}
\@writefile{toc}{\contentsline {subsubsection}{\numberline {\unhbox \voidb@x \hbox {IV-B}2}Information-theoretic approach}{9}}
\newlabel{p_entropy}{{9}{10}}
\newlabel{r_entropy}{{10}{10}}
\@writefile{toc}{\contentsline {subsubsection}{\numberline {\unhbox \voidb@x \hbox {IV-B}3}The case of resource anonymization with Random Selection}{10}}
\newlabel{pka_panacea_rs}{{11}{11}}
\newlabel{pva_panacea_rs}{{12}{11}}
\@writefile{toc}{\contentsline {subsection}{\numberline {\unhbox \voidb@x \hbox {IV-C}}Privacy analysis for other adversary models}{11}}
\newlabel{theorem:privacyforset}{{4.1}{11}}
\@writefile{toc}{\contentsline {subsubsection}{\numberline {\unhbox \voidb@x \hbox {IV-C}1}Iterative attacks}{12}}
\@writefile{toc}{\contentsline {subsubsection}{\numberline {\unhbox \voidb@x \hbox {IV-C}2}Collusive group of adversaries}{12}}
\citation{sybilguard}
\bibstyle{IEEEtran}
\bibdata{main}
\bibcite{freenet}{1}
\bibcite{damap}{2}
\bibcite{kademlia}{3}
\bibcite{crowds}{4}
\bibcite{kanonymity}{5}
\bibcite{privacyPreservingJournal}{6}
\bibcite{minimality}{7}
\bibcite{serjantov02towards}{8}
\bibcite{Diaz02towardsmeasuring}{9}
\bibcite{sybilguard}{10}
\@writefile{toc}{\contentsline {subsection}{\numberline {\unhbox \voidb@x \hbox {IV-D}}More attacking scenarios}{13}}
\@writefile{toc}{\contentsline {section}{\numberline {V}Conclusion}{13}}
\newlabel{sec:conclusion}{{V}{13}}
\@writefile{toc}{\contentsline {section}{References}{13}}
