\relax 
\citation{gnutella}
\@writefile{toc}{\contentsline {section}{\numberline {I}Introduction}{1}}
\@writefile{toc}{\contentsline {section}{\numberline {II}Problem overview}{1}}
\@writefile{lof}{\contentsline {figure}{\numberline {1}{\ignorespaces Privacy Graph}}{1}}
\newlabel{pg}{{1}{1}}
\citation{privacyPreserving}
\@writefile{lof}{\contentsline {figure}{\numberline {2}{\ignorespaces Comparison of the systems on Privacy and Performance scale}}{2}}
\newlabel{comparison}{{2}{2}}
\@writefile{toc}{\contentsline {section}{\numberline {III}Solution Mechanism}{2}}
\@writefile{toc}{\contentsline {subsection}{\numberline {\unhbox \voidb@x \hbox {III-A}}Design of HAC}{2}}
\@writefile{toc}{\contentsline {subsubsection}{\numberline {\unhbox \voidb@x \hbox {III-A}1}RPP index}{2}}
\@writefile{toc}{\contentsline {subsubsection}{\numberline {\unhbox \voidb@x \hbox {III-A}2}Probabilistic publishing}{2}}
\@writefile{toc}{\contentsline {subsection}{\numberline {\unhbox \voidb@x \hbox {III-B}}Generating and inserting RPP index}{2}}
\citation{crowds}
\@writefile{lof}{\contentsline {figure}{\numberline {3}{\ignorespaces RPP index generation process}}{3}}
\newlabel{pra}{{3}{3}}
\@writefile{toc}{\contentsline {subsubsection}{\numberline {\unhbox \voidb@x \hbox {III-B}1}Resource anonymization}{3}}
\@writefile{toc}{\contentsline {subsubsection}{\numberline {\unhbox \voidb@x \hbox {III-B}2}Provider anonymization}{3}}
\@writefile{toc}{\contentsline {subsubsection}{\numberline {\unhbox \voidb@x \hbox {III-B}3}Anonymous publishing}{3}}
\@writefile{toc}{\contentsline {subsection}{\numberline {\unhbox \voidb@x \hbox {III-C}}Searching}{4}}
\@writefile{toc}{\contentsline {section}{\numberline {IV}Privacy and Performance Measurements}{4}}
\@writefile{toc}{\contentsline {section}{\numberline {V}System properties}{5}}
\@writefile{toc}{\contentsline {subsection}{\numberline {\unhbox \voidb@x \hbox {V-A}}Privacy properties}{5}}
\@writefile{toc}{\contentsline {subsection}{\numberline {\unhbox \voidb@x \hbox {V-B}}Performance properties}{5}}
\@writefile{toc}{\contentsline {section}{\numberline {VI}Analysis}{5}}
\newlabel{analysis}{{VI}{5}}
\@writefile{toc}{\contentsline {subsection}{\numberline {\unhbox \voidb@x \hbox {VI-A}}CAC}{5}}
\@writefile{toc}{\contentsline {subsubsection}{\numberline {\unhbox \voidb@x \hbox {VI-A}1}$P_a$ and $P_a^{-}$}{5}}
\@writefile{toc}{\contentsline {subsubsection}{\numberline {\unhbox \voidb@x \hbox {VI-A}2}$P_u$ and $P_u^{-}$}{5}}
\@writefile{toc}{\contentsline {subsection}{\numberline {\unhbox \voidb@x \hbox {VI-B}}GAC}{5}}
\@writefile{toc}{\contentsline {subsubsection}{\numberline {\unhbox \voidb@x \hbox {VI-B}1}$P_a$}{6}}
\@writefile{toc}{\contentsline {subsubsection}{\numberline {\unhbox \voidb@x \hbox {VI-B}2}$P_a^{-}$}{6}}
\@writefile{toc}{\contentsline {subsubsection}{\numberline {\unhbox \voidb@x \hbox {VI-B}3}$P_u$}{6}}
\@writefile{toc}{\contentsline {subsubsection}{\numberline {\unhbox \voidb@x \hbox {VI-B}4}$P_u^{-}$}{6}}
\@writefile{toc}{\contentsline {subsection}{\numberline {\unhbox \voidb@x \hbox {VI-C}}HAC}{6}}
\@writefile{toc}{\contentsline {subsubsection}{\numberline {\unhbox \voidb@x \hbox {VI-C}1}$P_a$}{6}}
\@writefile{toc}{\contentsline {subsubsection}{\numberline {\unhbox \voidb@x \hbox {VI-C}2}$P_a^{-}$}{6}}
\citation{damap}
\citation{phera}
\citation{damap}
\@writefile{toc}{\contentsline {subsubsection}{\numberline {\unhbox \voidb@x \hbox {VI-C}3}$P_u$}{7}}
\@writefile{toc}{\contentsline {subsubsection}{\numberline {\unhbox \voidb@x \hbox {VI-C}4}$P_u^{-}$}{7}}
\@writefile{toc}{\contentsline {section}{\numberline {VII}System evaluation}{7}}
\@writefile{toc}{\contentsline {section}{\numberline {VIII}Motivation}{7}}
\@writefile{toc}{\contentsline {section}{\numberline {IX}Related Work}{7}}
\citation{privacyPreserving}
\citation{privacyPreserving}
\citation{mutual-anonymity}
\citation{imprecise}
\citation{freenet}
\citation{crowds}
\citation{p5}
\citation{onion}
\citation{freehaven}
\citation{p2panonymous}
\citation{agyaat}
\citation{freenet}
\citation{crowds}
\citation{freenet}
\citation{freehaven}
\citation{freenet}
\citation{freenet}
\citation{freehaven}
\citation{agyaat}
\bibstyle{IEEEtran}
\bibdata{main}
\@writefile{toc}{\contentsline {section}{\numberline {X}Conclusion and Future Work}{8}}
