%!PS-Adobe-2.0 EPSF-2.0
%%Title: /home/rammohan/MyResearch/HotP2P-2010/MathematicaScripts/Graphs/legends.dia
%%Creator: Dia v0.97
%%CreationDate: Tue Nov 24 11:43:44 2009
%%For: rammohan
%%Orientation: Portrait
%%Magnification: 1.0000
%%BoundingBox: 0 0 279 152
%%BeginSetup
%%EndSetup
%%EndComments
%%BeginProlog
[ /.notdef /.notdef /.notdef /.notdef /.notdef /.notdef /.notdef /.notdef /.notdef /.notdef
/.notdef /.notdef /.notdef /.notdef /.notdef /.notdef /.notdef /.notdef /.notdef /.notdef
/.notdef /.notdef /.notdef /.notdef /.notdef /.notdef /.notdef /.notdef /.notdef /.notdef
/.notdef /.notdef /space /exclam /quotedbl /numbersign /dollar /percent /ampersand /quoteright
/parenleft /parenright /asterisk /plus /comma /hyphen /period /slash /zero /one
/two /three /four /five /six /seven /eight /nine /colon /semicolon
/less /equal /greater /question /at /A /B /C /D /E
/F /G /H /I /J /K /L /M /N /O
/P /Q /R /S /T /U /V /W /X /Y
/Z /bracketleft /backslash /bracketright /asciicircum /underscore /quoteleft /a /b /c
/d /e /f /g /h /i /j /k /l /m
/n /o /p /q /r /s /t /u /v /w
/x /y /z /braceleft /bar /braceright /asciitilde /.notdef /.notdef /.notdef
/.notdef /.notdef /.notdef /.notdef /.notdef /.notdef /.notdef /.notdef /.notdef /.notdef
/.notdef /.notdef /.notdef /.notdef /.notdef /.notdef /.notdef /.notdef /.notdef /.notdef
/.notdef /.notdef /.notdef /.notdef /.notdef /.notdef /.notdef /.notdef /.notdef /.notdef
/space /exclamdown /cent /sterling /currency /yen /brokenbar /section /dieresis /copyright
/ordfeminine /guillemotleft /logicalnot /hyphen /registered /macron /degree /plusminus /twosuperior /threesuperior
/acute /mu /paragraph /periodcentered /cedilla /onesuperior /ordmasculine /guillemotright /onequarter /onehalf
/threequarters /questiondown /Agrave /Aacute /Acircumflex /Atilde /Adieresis /Aring /AE /Ccedilla
/Egrave /Eacute /Ecircumflex /Edieresis /Igrave /Iacute /Icircumflex /Idieresis /Eth /Ntilde
/Ograve /Oacute /Ocircumflex /Otilde /Odieresis /multiply /Oslash /Ugrave /Uacute /Ucircumflex
/Udieresis /Yacute /Thorn /germandbls /agrave /aacute /acircumflex /atilde /adieresis /aring
/ae /ccedilla /egrave /eacute /ecircumflex /edieresis /igrave /iacute /icircumflex /idieresis
/eth /ntilde /ograve /oacute /ocircumflex /otilde /odieresis /divide /oslash /ugrave
/uacute /ucircumflex /udieresis /yacute /thorn /ydieresis] /isolatin1encoding exch def
/cp {closepath} bind def
/c {curveto} bind def
/f {fill} bind def
/a {arc} bind def
/ef {eofill} bind def
/ex {exch} bind def
/gr {grestore} bind def
/gs {gsave} bind def
/sa {save} bind def
/rs {restore} bind def
/l {lineto} bind def
/m {moveto} bind def
/rm {rmoveto} bind def
/n {newpath} bind def
/s {stroke} bind def
/sh {show} bind def
/slc {setlinecap} bind def
/slj {setlinejoin} bind def
/slw {setlinewidth} bind def
/srgb {setrgbcolor} bind def
/rot {rotate} bind def
/sc {scale} bind def
/sd {setdash} bind def
/ff {findfont} bind def
/sf {setfont} bind def
/scf {scalefont} bind def
/sw {stringwidth pop} bind def
/tr {translate} bind def

/ellipsedict 8 dict def
ellipsedict /mtrx matrix put
/ellipse
{ ellipsedict begin
   /endangle exch def
   /startangle exch def
   /yrad exch def
   /xrad exch def
   /y exch def
   /x exch def   /savematrix mtrx currentmatrix def
   x y tr xrad yrad sc
   0 0 1 startangle endangle arc
   savematrix setmatrix
   end
} def

/mergeprocs {
dup length
3 -1 roll
dup
length
dup
5 1 roll
3 -1 roll
add
array cvx
dup
3 -1 roll
0 exch
putinterval
dup
4 2 roll
putinterval
} bind def
/dpi_x 300 def
/dpi_y 300 def
/conicto {
    /to_y exch def
    /to_x exch def
    /conic_cntrl_y exch def
    /conic_cntrl_x exch def
    currentpoint
    /p0_y exch def
    /p0_x exch def
    /p1_x p0_x conic_cntrl_x p0_x sub 2 3 div mul add def
    /p1_y p0_y conic_cntrl_y p0_y sub 2 3 div mul add def
    /p2_x p1_x to_x p0_x sub 1 3 div mul add def
    /p2_y p1_y to_y p0_y sub 1 3 div mul add def
    p1_x p1_y p2_x p2_y to_x to_y curveto
} bind def
/start_ol { gsave 1.1 dpi_x div dup scale} bind def
/end_ol { closepath fill grestore } bind def
28.346000 -28.346000 scale
-4.124261 -9.237500 translate
%%EndProlog


0.150000 slw
[] 0 sd
[] 0 sd
0 slc
0.098039 0.078431 0.537255 srgb
n 4.200000 4.300000 m 9.250000 4.250000 l s
0.150000 slw
[0.200000] 0 sd
[0.400000] 0 sd
0 slc
0.635294 0.329412 0.756863 srgb
n 4.245740 6.520740 m 9.295740 6.470740 l s
0.150000 slw
[2.000000] 0 sd
[1.200000] 0 sd
0 slc
0.615686 0.501961 0.211765 srgb
n 4.495740 8.920740 m 9.545740 8.870740 l s
0.000000 0.000000 0.000000 srgb
gsave 9.750000 4.500000 translate 0.035278 -0.035278 scale
start_ol
960 3136 moveto
960 1792 lineto
1552 1792 lineto
1881 1792 2060 1967 conicto
2240 2142 2240 2465 conicto
2240 2786 2060 2961 conicto
1881 3136 1552 3136 conicto
960 3136 lineto
448 3520 moveto
1552 3520 lineto
2145 3520 2448 3251 conicto
2752 2983 2752 2465 conicto
2752 1943 2448 1675 conicto
2145 1408 1552 1408 conicto
960 1408 lineto
960 0 lineto
448 0 lineto
448 3520 lineto
end_ol grestore 
gsave 10.094678 4.500000 translate 0.035278 -0.035278 scale
start_ol
1696 3047 moveto
1042 1280 lineto
2352 1280 lineto
1696 3047 lineto
1424 3520 moveto
1970 3520 lineto
3328 0 lineto
2827 0 lineto
2502 896 lineto
897 896 lineto
572 0 lineto
64 0 lineto
1424 3520 lineto
end_ol grestore 
gsave 10.531769 4.500000 translate 0.035278 -0.035278 scale
start_ol
448 3520 moveto
1131 3520 lineto
2624 575 lineto
2624 3520 lineto
3136 3520 lineto
3136 0 lineto
2453 0 lineto
960 2945 lineto
960 0 lineto
448 0 lineto
448 3520 lineto
end_ol grestore 
gsave 11.011318 4.500000 translate 0.035278 -0.035278 scale
start_ol
1696 3047 moveto
1042 1280 lineto
2352 1280 lineto
1696 3047 lineto
1424 3520 moveto
1970 3520 lineto
3328 0 lineto
2827 0 lineto
2502 896 lineto
897 896 lineto
572 0 lineto
64 0 lineto
1424 3520 lineto
end_ol grestore 
gsave 11.438414 4.500000 translate 0.035278 -0.035278 scale
start_ol
3136 3264 moveto
3136 2752 lineto
2892 2977 2616 3088 conicto
2340 3200 2030 3200 conicto
1418 3200 1093 2829 conicto
768 2459 768 1759 conicto
768 1061 1093 690 conicto
1418 320 2030 320 conicto
2340 320 2616 431 conicto
2892 543 3136 768 conicto
3136 256 lineto
2882 96 2599 16 conicto
2316 -64 2000 -64 conicto
1189 -64 722 424 conicto
256 913 256 1759 conicto
256 2607 722 3095 conicto
1189 3584 2000 3584 conicto
2320 3584 2603 3504 conicto
2887 3424 3136 3264 conicto
end_ol grestore 
gsave 11.885493 4.500000 translate 0.035278 -0.035278 scale
start_ol
448 3520 moveto
2688 3520 lineto
2688 3136 lineto
960 3136 lineto
960 2112 lineto
2624 2112 lineto
2624 1728 lineto
960 1728 lineto
960 384 lineto
2752 384 lineto
2752 0 lineto
448 0 lineto
448 3520 lineto
end_ol grestore 
gsave 12.290107 4.500000 translate 0.035278 -0.035278 scale
start_ol
1696 3047 moveto
1042 1280 lineto
2352 1280 lineto
1696 3047 lineto
1424 3520 moveto
1970 3520 lineto
3328 0 lineto
2827 0 lineto
2502 896 lineto
897 896 lineto
572 0 lineto
64 0 lineto
1424 3520 lineto
end_ol grestore 
gsave 9.770000 6.690000 translate 0.035278 -0.035278 scale
start_ol
448 3520 moveto
960 3520 lineto
960 1383 lineto
960 817 1156 568 conicto
1353 320 1793 320 conicto
2231 320 2427 568 conicto
2624 817 2624 1383 conicto
2624 3520 lineto
3136 3520 lineto
3136 1324 lineto
3136 637 2796 286 conicto
2456 -64 1793 -64 conicto
1128 -64 788 286 conicto
448 637 448 1324 conicto
448 3520 lineto
end_ol grestore 
gsave 10.237056 6.690000 translate 0.035278 -0.035278 scale
start_ol
2688 1646 moveto
2688 0 lineto
2240 0 lineto
2240 1632 lineto
2240 2001 2093 2184 conicto
1947 2368 1654 2368 conicto
1302 2368 1099 2146 conicto
896 1925 896 1542 conicto
896 0 lineto
448 0 lineto
448 2688 lineto
896 2688 lineto
896 2304 lineto
1053 2529 1266 2640 conicto
1479 2752 1757 2752 conicto
2217 2752 2452 2471 conicto
2688 2191 2688 1646 conicto
end_ol grestore 
gsave 10.641670 6.690000 translate 0.035278 -0.035278 scale
start_ol
2112 2560 moveto
2112 2176 lineto
1932 2272 1738 2320 conicto
1544 2368 1336 2368 conicto
1020 2368 862 2269 conicto
704 2170 704 1972 conicto
704 1821 814 1735 conicto
925 1649 1260 1571 conicto
1403 1538 lineto
1857 1438 2048 1255 conicto
2240 1072 2240 744 conicto
2240 371 1954 153 conicto
1668 -64 1167 -64 conicto
958 -64 732 -16 conicto
506 32 256 128 conicto
256 576 lineto
491 448 719 384 conicto
947 320 1170 320 conicto
1470 320 1631 425 conicto
1792 531 1792 722 conicto
1792 900 1678 994 conicto
1564 1089 1177 1177 conicto
1032 1212 lineto
621 1298 438 1476 conicto
256 1654 256 1964 conicto
256 2341 520 2546 conicto
784 2752 1269 2752 conicto
1509 2752 1721 2704 conicto
1933 2656 2112 2560 conicto
end_ol grestore 
gsave 10.973854 6.690000 translate 0.035278 -0.035278 scale
start_ol
896 3456 moveto
896 2688 lineto
1792 2688 lineto
1792 2368 lineto
896 2368 lineto
896 902 lineto
896 572 984 478 conicto
1073 384 1345 384 conicto
1792 384 lineto
1792 0 lineto
1345 0 lineto
836 0 642 194 conicto
448 389 448 902 conicto
448 2368 lineto
128 2368 lineto
128 2688 lineto
448 2688 lineto
448 3456 lineto
896 3456 lineto
end_ol grestore 
gsave 11.223621 6.690000 translate 0.035278 -0.035278 scale
start_ol
1984 2304 moveto
1912 2337 1828 2352 conicto
1744 2368 1642 2368 conicto
1282 2368 1089 2127 conicto
896 1887 896 1437 conicto
896 0 lineto
448 0 lineto
448 2688 lineto
896 2688 lineto
896 2304 lineto
1030 2531 1245 2641 conicto
1460 2752 1767 2752 conicto
1811 2752 1864 2752 conicto
1917 2752 1982 2752 conicto
1984 2304 lineto
end_ol grestore 
gsave 11.485873 6.690000 translate 0.035278 -0.035278 scale
start_ol
448 1040 moveto
448 2688 lineto
896 2688 lineto
896 1057 lineto
896 689 1042 504 conicto
1188 320 1481 320 conicto
1832 320 2036 541 conicto
2240 763 2240 1145 conicto
2240 2688 lineto
2688 2688 lineto
2688 0 lineto
2240 0 lineto
2240 384 lineto
2081 157 1870 46 conicto
1660 -64 1382 -64 conicto
923 -64 685 217 conicto
448 499 448 1040 conicto
1554 2752 moveto
1554 2752 lineto
end_ol grestore 
gsave 11.890487 6.690000 translate 0.035278 -0.035278 scale
start_ol
2368 2560 moveto
2368 2176 lineto
2180 2272 1991 2320 conicto
1803 2368 1611 2368 conicto
1180 2368 942 2099 conicto
704 1830 704 1344 conicto
704 858 942 589 conicto
1180 320 1611 320 conicto
1803 320 1991 368 conicto
2180 416 2368 512 conicto
2368 128 lineto
2184 32 1987 -16 conicto
1791 -64 1569 -64 conicto
966 -64 611 316 conicto
256 697 256 1344 conicto
256 2000 615 2376 conicto
974 2752 1598 2752 conicto
1801 2752 1994 2704 conicto
2187 2656 2368 2560 conicto
end_ol grestore 
gsave 12.242655 6.690000 translate 0.035278 -0.035278 scale
start_ol
896 3456 moveto
896 2688 lineto
1792 2688 lineto
1792 2368 lineto
896 2368 lineto
896 902 lineto
896 572 984 478 conicto
1073 384 1345 384 conicto
1792 384 lineto
1792 0 lineto
1345 0 lineto
836 0 642 194 conicto
448 389 448 902 conicto
448 2368 lineto
128 2368 lineto
128 2688 lineto
448 2688 lineto
448 3456 lineto
896 3456 lineto
end_ol grestore 
gsave 12.492422 6.690000 translate 0.035278 -0.035278 scale
start_ol
448 1040 moveto
448 2688 lineto
896 2688 lineto
896 1057 lineto
896 689 1042 504 conicto
1188 320 1481 320 conicto
1832 320 2036 541 conicto
2240 763 2240 1145 conicto
2240 2688 lineto
2688 2688 lineto
2688 0 lineto
2240 0 lineto
2240 384 lineto
2081 157 1870 46 conicto
1660 -64 1382 -64 conicto
923 -64 685 217 conicto
448 499 448 1040 conicto
1554 2752 moveto
1554 2752 lineto
end_ol grestore 
gsave 12.897036 6.690000 translate 0.035278 -0.035278 scale
start_ol
1984 2304 moveto
1912 2337 1828 2352 conicto
1744 2368 1642 2368 conicto
1282 2368 1089 2127 conicto
896 1887 896 1437 conicto
896 0 lineto
448 0 lineto
448 2688 lineto
896 2688 lineto
896 2304 lineto
1030 2531 1245 2641 conicto
1460 2752 1767 2752 conicto
1811 2752 1864 2752 conicto
1917 2752 1982 2752 conicto
1984 2304 lineto
end_ol grestore 
gsave 13.144297 6.690000 translate 0.035278 -0.035278 scale
start_ol
2752 1480 moveto
2752 1280 lineto
704 1280 lineto
733 811 978 565 conicto
1223 320 1660 320 conicto
1914 320 2152 384 conicto
2390 448 2624 576 conicto
2624 192 lineto
2388 67 2140 1 conicto
1893 -64 1639 -64 conicto
1001 -64 628 309 conicto
256 683 256 1320 conicto
256 1979 613 2365 conicto
970 2752 1576 2752 conicto
2120 2752 2436 2410 conicto
2752 2068 2752 1480 conicto
2304 1600 moveto
2299 1950 2099 2159 conicto
1900 2368 1572 2368 conicto
1200 2368 976 2166 conicto
753 1964 719 1597 conicto
2304 1600 lineto
end_ol grestore 
gsave 13.538923 6.690000 translate 0.035278 -0.035278 scale
start_ol
2176 2304 moveto
2176 3712 lineto
2624 3712 lineto
2624 0 lineto
2176 0 lineto
2176 384 lineto
2040 157 1832 46 conicto
1624 -64 1332 -64 conicto
855 -64 555 324 conicto
256 712 256 1344 conicto
256 1976 555 2364 conicto
855 2752 1332 2752 conicto
1624 2752 1832 2641 conicto
2040 2531 2176 2304 conicto
704 1344 moveto
704 865 900 592 conicto
1096 320 1439 320 conicto
1782 320 1979 592 conicto
2176 865 2176 1344 conicto
2176 1823 1979 2095 conicto
1782 2368 1439 2368 conicto
1096 2368 900 2095 conicto
704 1823 704 1344 conicto
end_ol grestore 
gsave 10.040000 9.085000 translate 0.035278 -0.035278 scale
start_ol
2624 3392 moveto
2624 2944 lineto
2352 3073 2111 3136 conicto
1870 3200 1645 3200 conicto
1255 3200 1043 3052 conicto
832 2904 832 2631 conicto
832 2402 969 2285 conicto
1107 2169 1491 2097 conicto
1773 2039 lineto
2308 1937 2562 1678 conicto
2816 1420 2816 986 conicto
2816 469 2468 202 conicto
2121 -64 1450 -64 conicto
1197 -64 911 0 conicto
626 65 320 192 conicto
320 704 lineto
613 513 893 416 conicto
1174 320 1445 320 conicto
1857 320 2080 485 conicto
2304 650 2304 955 conicto
2304 1221 2148 1371 conicto
1992 1522 1636 1597 conicto
1352 1652 lineto
807 1756 563 1978 conicto
320 2201 320 2597 conicto
320 3056 654 3320 conicto
989 3584 1576 3584 conicto
1828 3584 2089 3536 conicto
2351 3488 2624 3392 conicto
end_ol grestore 
gsave 10.447119 9.085000 translate 0.035278 -0.035278 scale
start_ol
896 3456 moveto
896 2688 lineto
1792 2688 lineto
1792 2368 lineto
896 2368 lineto
896 902 lineto
896 572 984 478 conicto
1073 384 1345 384 conicto
1792 384 lineto
1792 0 lineto
1345 0 lineto
836 0 642 194 conicto
448 389 448 902 conicto
448 2368 lineto
128 2368 lineto
128 2688 lineto
448 2688 lineto
448 3456 lineto
896 3456 lineto
end_ol grestore 
gsave 10.696886 9.085000 translate 0.035278 -0.035278 scale
start_ol
1984 2304 moveto
1912 2337 1828 2352 conicto
1744 2368 1642 2368 conicto
1282 2368 1089 2127 conicto
896 1887 896 1437 conicto
896 0 lineto
448 0 lineto
448 2688 lineto
896 2688 lineto
896 2304 lineto
1030 2531 1245 2641 conicto
1460 2752 1767 2752 conicto
1811 2752 1864 2752 conicto
1917 2752 1982 2752 conicto
1984 2304 lineto
end_ol grestore 
gsave 10.959138 9.085000 translate 0.035278 -0.035278 scale
start_ol
448 1040 moveto
448 2688 lineto
896 2688 lineto
896 1057 lineto
896 689 1042 504 conicto
1188 320 1481 320 conicto
1832 320 2036 541 conicto
2240 763 2240 1145 conicto
2240 2688 lineto
2688 2688 lineto
2688 0 lineto
2240 0 lineto
2240 384 lineto
2081 157 1870 46 conicto
1660 -64 1382 -64 conicto
923 -64 685 217 conicto
448 499 448 1040 conicto
1554 2752 moveto
1554 2752 lineto
end_ol grestore 
gsave 11.363752 9.085000 translate 0.035278 -0.035278 scale
start_ol
2368 2560 moveto
2368 2176 lineto
2180 2272 1991 2320 conicto
1803 2368 1611 2368 conicto
1180 2368 942 2099 conicto
704 1830 704 1344 conicto
704 858 942 589 conicto
1180 320 1611 320 conicto
1803 320 1991 368 conicto
2180 416 2368 512 conicto
2368 128 lineto
2184 32 1987 -16 conicto
1791 -64 1569 -64 conicto
966 -64 611 316 conicto
256 697 256 1344 conicto
256 2000 615 2376 conicto
974 2752 1598 2752 conicto
1801 2752 1994 2704 conicto
2187 2656 2368 2560 conicto
end_ol grestore 
gsave 11.715920 9.085000 translate 0.035278 -0.035278 scale
start_ol
896 3456 moveto
896 2688 lineto
1792 2688 lineto
1792 2368 lineto
896 2368 lineto
896 902 lineto
896 572 984 478 conicto
1073 384 1345 384 conicto
1792 384 lineto
1792 0 lineto
1345 0 lineto
836 0 642 194 conicto
448 389 448 902 conicto
448 2368 lineto
128 2368 lineto
128 2688 lineto
448 2688 lineto
448 3456 lineto
896 3456 lineto
end_ol grestore 
gsave 11.965687 9.085000 translate 0.035278 -0.035278 scale
start_ol
448 1040 moveto
448 2688 lineto
896 2688 lineto
896 1057 lineto
896 689 1042 504 conicto
1188 320 1481 320 conicto
1832 320 2036 541 conicto
2240 763 2240 1145 conicto
2240 2688 lineto
2688 2688 lineto
2688 0 lineto
2240 0 lineto
2240 384 lineto
2081 157 1870 46 conicto
1660 -64 1382 -64 conicto
923 -64 685 217 conicto
448 499 448 1040 conicto
1554 2752 moveto
1554 2752 lineto
end_ol grestore 
gsave 12.370301 9.085000 translate 0.035278 -0.035278 scale
start_ol
1984 2304 moveto
1912 2337 1828 2352 conicto
1744 2368 1642 2368 conicto
1282 2368 1089 2127 conicto
896 1887 896 1437 conicto
896 0 lineto
448 0 lineto
448 2688 lineto
896 2688 lineto
896 2304 lineto
1030 2531 1245 2641 conicto
1460 2752 1767 2752 conicto
1811 2752 1864 2752 conicto
1917 2752 1982 2752 conicto
1984 2304 lineto
end_ol grestore 
gsave 12.617563 9.085000 translate 0.035278 -0.035278 scale
start_ol
2752 1480 moveto
2752 1280 lineto
704 1280 lineto
733 811 978 565 conicto
1223 320 1660 320 conicto
1914 320 2152 384 conicto
2390 448 2624 576 conicto
2624 192 lineto
2388 67 2140 1 conicto
1893 -64 1639 -64 conicto
1001 -64 628 309 conicto
256 683 256 1320 conicto
256 1979 613 2365 conicto
970 2752 1576 2752 conicto
2120 2752 2436 2410 conicto
2752 2068 2752 1480 conicto
2304 1600 moveto
2299 1950 2099 2159 conicto
1900 2368 1572 2368 conicto
1200 2368 976 2166 conicto
753 1964 719 1597 conicto
2304 1600 lineto
end_ol grestore 
gsave 13.012189 9.085000 translate 0.035278 -0.035278 scale
start_ol
2176 2304 moveto
2176 3712 lineto
2624 3712 lineto
2624 0 lineto
2176 0 lineto
2176 384 lineto
2040 157 1832 46 conicto
1624 -64 1332 -64 conicto
855 -64 555 324 conicto
256 712 256 1344 conicto
256 1976 555 2364 conicto
855 2752 1332 2752 conicto
1624 2752 1832 2641 conicto
2040 2531 2176 2304 conicto
704 1344 moveto
704 865 900 592 conicto
1096 320 1439 320 conicto
1782 320 1979 592 conicto
2176 865 2176 1344 conicto
2176 1823 1979 2095 conicto
1782 2368 1439 2368 conicto
1096 2368 900 2095 conicto
704 1823 704 1344 conicto
end_ol grestore 
showpage
