%!PS-Adobe-3.0 EPSF-1.2
%%BoundingBox: 0 0 360 225
%%HiResBoundingBox: 0 0 360 225
%%Creator: (Wolfram Mathematica 7.0 for Linux x86 (32-bit) (February 25, 2009))
%%CreationDate: (Saturday, November 14, 2009) (23:02:41)
%%Title: Clipboard
%%DocumentNeededResources: font Times-Roman
%%+ font Times-BoldItalic
%%+ font Times-Bold
%%DocumentSuppliedResources: font Times-Roman-MISO
%%+ font Times-Bold-MISO
%%+ font Times-BoldItalic-MISO
%%DocumentNeededFonts: Times-Roman
%%+ Times-BoldItalic
%%+ Times-Bold
%%DocumentSuppliedFonts: Times-Roman-MISO
%%+ Times-Bold-MISO
%%+ Times-BoldItalic-MISO
%%DocumentFonts: Times-Roman
%%+ Times-BoldItalic
%%+ Times-Bold
%%+ Times-Roman-MISO
%%+ Times-Bold-MISO
%%+ Times-BoldItalic-MISO
%%EndComments
/g { setgray} bind def
/k { setcmykcolor} bind def
/p { gsave} bind def
/r { setrgbcolor} bind def
/w { setlinewidth} bind def
/C { curveto} bind def
/F { fill} bind def
/L { lineto} bind def
/rL { rlineto} bind def
/P { grestore} bind def
/s { stroke} bind def
/S { show} bind def
/N {currentpoint 3 -1 roll show moveto} bind def
/Msf { findfont exch scalefont [1 0 0 -1 0 0 ] makefont setfont} bind def
/m { moveto} bind def
/Mr { rmoveto} bind def
/Mx {currentpoint exch pop moveto} bind def
/My {currentpoint pop exch moveto} bind def
/X {0 rmoveto} bind def
/Y {0 exch rmoveto} bind def
1 -1 scale 0 -224.613 translate
-47 -12 translate
[1 0 0 1 0 0 ]  concat
1 w
0 g
[ ] 0 setdash
2 setlinecap
0 setlinejoin
10 setmiterlimit
p
newpath 45 10 m
45 238.613 L
409 238.613 L
409 10 L
closepath
clip newpath
p
newpath 47 11.613 m
47 236.613 L
407 236.613 L
407 11.613 L
closepath
clip newpath
3.239 setmiterlimit
p
newpath 36.661 11 m
36.661 231.66 L
392.46 231.66 L
392.46 11 L
closepath
clip newpath
p
newpath 52.661 11.66 m
52.661 230.66 L
376.661 230.66 L
376.661 11.66 L
closepath
clip newpath
p
newpath 60.661 30.66 m
60.661 218.66 L
363.661 218.66 L
363.661 30.66 L
closepath
clip newpath
P
p
newpath 60.661 30.66 m
60.661 218.66 L
363.661 218.66 L
363.661 30.66 L
closepath
clip newpath
P
p
newpath 60.661 30.66 m
60.661 218.66 L
363.661 218.66 L
363.661 30.66 L
closepath
clip newpath
0.247 0.24 0.6 r
0.5 w
[ ] 0 setdash
3.25 setmiterlimit
96.395 33.317 m
96.474 33.318 L
96.554 33.318 L
96.714 33.318 L
97.034 33.319 L
97.673 33.32 L
98.951 33.323 L
99.031 33.323 L
99.111 33.324 L
99.271 33.324 L
99.59 33.325 L
100.229 33.326 L
101.508 33.328 L
101.594 33.328 L
101.681 33.328 L
101.854 33.329 L
102.201 33.329 L
102.893 33.331 L
104.279 33.333 L
104.366 33.333 L
104.452 33.333 L
104.626 33.333 L
104.972 33.334 L
105.665 33.335 L
107.051 33.337 L
107.132 33.337 L
107.213 33.337 L
107.374 33.337 L
107.698 33.338 L
108.345 33.338 L
109.639 33.34 L
112.227 33.343 L
112.306 33.343 L
112.385 33.343 L
112.544 33.343 L
112.861 33.343 L
113.495 33.344 L
114.764 33.345 L
117.301 33.347 L
117.387 33.348 L
117.473 33.348 L
117.645 33.348 L
117.989 33.348 L
118.677 33.349 L
120.053 33.35 L
122.805 33.352 L
122.886 33.352 L
122.966 33.352 L
123.126 33.352 L
123.447 33.352 L
124.09 33.352 L
125.374 33.353 L
127.942 33.355 L
128.029 33.355 L
128.116 33.355 L
128.29 33.355 L
128.638 33.355 L
129.334 33.356 L
130.726 33.356 L
133.51 33.358 L
138.975 33.36 L
144.073 33.362 L
149.602 33.364 L
154.763 33.365 L
159.822 33.367 L
165.312 33.368 L
170.434 33.369 L
175.986 33.37 L
181.437 33.371 L
186.521 33.372 L
192.034 33.372 L
197.18 33.373 L
202.757 33.374 L
208.231 33.374 L
213.339 33.375 L
218.876 33.375 L
224.047 33.376 L
229.115 33.376 L
234.614 33.377 L
239.745 33.377 L
245.307 33.377 L
250.767 33.378 L
255.859 33.378 L
261.382 33.378 L
266.537 33.379 L
271.591 33.379 L
277.075 33.379 L
282.192 33.379 L
287.738 33.38 L
292.918 33.38 L
297.996 33.38 L
303.503 33.38 L
308.644 33.381 L
314.215 33.381 L
319.684 33.381 L
324.785 33.381 L
330.317 33.381 L
335.482 33.381 L
340.545 33.382 L
346.038 33.382 L
351.164 33.382 L
351.253 33.382 L
351.342 33.382 L
351.521 33.382 L
351.879 33.382 L
352.594 33.382 L
354.025 33.382 L
354.114 33.382 L
354.203 33.382 L
354.382 33.382 L
354.74 33.382 L
355.455 33.382 L
355.544 33.382 L
355.634 33.382 L
355.813 33.382 L
356.17 33.382 L
356.26 33.382 L
356.349 33.382 L
356.528 33.382 L
356.617 33.382 L
356.707 33.382 L
356.796 33.382 L
356.886 33.382 L
s
0.6 0.24 0.443 r
[ ] 0 setdash
96.395 121.485 m
98.951 121.485 L
101.508 121.485 L
107.051 121.485 L
112.227 121.485 L
117.301 121.485 L
122.805 121.485 L
127.942 121.485 L
133.51 121.485 L
138.975 121.485 L
144.073 121.485 L
149.602 121.485 L
154.763 121.485 L
159.822 121.485 L
165.312 121.485 L
170.434 121.485 L
175.986 121.485 L
181.437 121.485 L
186.521 121.485 L
192.034 121.485 L
197.18 121.485 L
202.757 121.485 L
208.231 121.485 L
213.339 121.485 L
218.876 121.485 L
224.047 121.485 L
229.115 121.485 L
234.614 121.485 L
239.745 121.485 L
245.307 121.485 L
250.767 121.485 L
255.859 121.485 L
261.382 121.485 L
266.537 121.485 L
271.591 121.485 L
277.075 121.485 L
282.192 121.485 L
287.738 121.485 L
292.918 121.485 L
297.996 121.485 L
303.503 121.485 L
308.644 121.485 L
314.215 121.485 L
319.684 121.485 L
324.785 121.485 L
330.317 121.485 L
335.482 121.485 L
340.545 121.485 L
346.038 121.485 L
351.164 121.485 L
354.025 121.485 L
356.886 121.485 L
s
0.6 0.547 0.24 r
[ ] 0 setdash
96.395 31.481 m
98.951 31.481 L
101.508 31.481 L
107.051 31.481 L
112.227 31.481 L
117.301 31.481 L
122.805 31.481 L
127.942 31.481 L
133.51 31.481 L
138.975 31.481 L
144.073 31.481 L
149.602 31.481 L
154.763 31.481 L
159.822 31.481 L
165.312 31.481 L
170.434 31.481 L
175.986 31.481 L
181.437 31.481 L
186.521 31.481 L
192.034 31.481 L
197.18 31.481 L
202.757 31.481 L
208.231 31.481 L
213.339 31.481 L
218.876 31.481 L
224.047 31.481 L
229.115 31.481 L
234.614 31.481 L
239.745 31.481 L
245.307 31.481 L
250.767 31.481 L
255.859 31.481 L
261.382 31.481 L
266.537 31.481 L
271.591 31.481 L
277.075 31.481 L
282.192 31.481 L
287.738 31.481 L
292.918 31.481 L
297.996 31.481 L
303.503 31.481 L
308.644 31.481 L
314.215 31.481 L
319.684 31.481 L
324.785 31.481 L
330.317 31.481 L
335.482 31.481 L
340.545 31.481 L
346.038 31.481 L
351.164 31.481 L
354.025 31.481 L
356.886 31.481 L
s
P
0 g
0.2 w
[ ] 0 setdash
3.25 setmiterlimit
p
0 setlinecap
67.451 217.815 m
67.451 214.235 L
s
P
p
newpath 64.201 219.815 m
64.201 231.66 L
70.701 231.66 L
70.701 219.815 L
closepath
clip newpath
p
1 w
0 g
[ ] 0 setdash
2 setlinecap
0 setlinejoin
10 setmiterlimit
[1 0 0 1 65.201 220.815 ]  concat
1 w
[ ] 0 setdash
p
newpath -2 -2 m
-2 11.845 L
6.5 11.845 L
6.5 -2 L
closepath
clip newpath
/MISOfy
{
    /newfontname exch def
    /oldfontname exch def

    oldfontname findfont
    dup length dict begin
        {1 index /FID ne {def} {pop pop} ifelse} forall
        /Encoding ISOLatin1Encoding def
        currentdict
    end

    newfontname exch definefont pop
} def
%%IncludeResource: font Times-Bold
%%IncludeFont: Times-Bold
%%BeginResource: font Times-Bold-MISO
%%BeginFont: Times-Bold-MISO
/Times-Bold /Times-Bold-MISO MISOfy
%%EndFont
%%EndResource
%%IncludeResource: font Times-Bold-MISO
%%IncludeFont: Times-Bold-MISO
9 /Times-Bold-MISO Msf
0 8 m
(0) N
P
[1 0 0 1 -65.201 -220.815 ]  concat
1 w
[ ] 0 setdash
P
P
[ ] 0 setdash
p
0 setlinecap
81.923 217.815 m
81.923 215.667 L
s
P
p
0 setlinecap
96.395 217.815 m
96.395 215.667 L
s
P
p
0 setlinecap
110.866 217.815 m
110.866 215.667 L
s
P
p
0 setlinecap
125.338 217.815 m
125.338 214.235 L
s
P
p
newpath 122.088 219.815 m
122.088 231.66 L
128.588 231.66 L
128.588 219.815 L
closepath
clip newpath
p
1 w
0 g
[ ] 0 setdash
2 setlinecap
0 setlinejoin
10 setmiterlimit
[1 0 0 1 123.088 220.815 ]  concat
1 w
[ ] 0 setdash
p
newpath -2 -2 m
-2 11.845 L
6.5 11.845 L
6.5 -2 L
closepath
clip newpath
%%IncludeResource: font Times-Bold-MISO
%%IncludeFont: Times-Bold-MISO
9 /Times-Bold-MISO Msf
0 8 m
(2) N
P
[1 0 0 1 -123.088 -220.815 ]  concat
1 w
[ ] 0 setdash
P
P
[ ] 0 setdash
p
0 setlinecap
139.81 217.815 m
139.81 215.667 L
s
P
p
0 setlinecap
154.281 217.815 m
154.281 215.667 L
s
P
p
0 setlinecap
168.753 217.815 m
168.753 215.667 L
s
P
p
0 setlinecap
183.225 217.815 m
183.225 214.235 L
s
P
p
newpath 179.975 219.815 m
179.975 231.66 L
186.475 231.66 L
186.475 219.815 L
closepath
clip newpath
p
1 w
0 g
[ ] 0 setdash
2 setlinecap
0 setlinejoin
10 setmiterlimit
[1 0 0 1 180.975 220.815 ]  concat
1 w
[ ] 0 setdash
p
newpath -2 -2 m
-2 11.845 L
6.5 11.845 L
6.5 -2 L
closepath
clip newpath
%%IncludeResource: font Times-Bold-MISO
%%IncludeFont: Times-Bold-MISO
9 /Times-Bold-MISO Msf
0 8 m
(4) N
P
[1 0 0 1 -180.975 -220.815 ]  concat
1 w
[ ] 0 setdash
P
P
[ ] 0 setdash
p
0 setlinecap
197.697 217.815 m
197.697 215.667 L
s
P
p
0 setlinecap
212.168 217.815 m
212.168 215.667 L
s
P
p
0 setlinecap
226.64 217.815 m
226.64 215.667 L
s
P
p
0 setlinecap
241.112 217.815 m
241.112 214.235 L
s
P
p
newpath 237.862 219.815 m
237.862 231.66 L
244.362 231.66 L
244.362 219.815 L
closepath
clip newpath
p
1 w
0 g
[ ] 0 setdash
2 setlinecap
0 setlinejoin
10 setmiterlimit
[1 0 0 1 238.862 220.815 ]  concat
1 w
[ ] 0 setdash
p
newpath -2 -2 m
-2 11.845 L
6.5 11.845 L
6.5 -2 L
closepath
clip newpath
%%IncludeResource: font Times-Bold-MISO
%%IncludeFont: Times-Bold-MISO
9 /Times-Bold-MISO Msf
0 8 m
(6) N
P
[1 0 0 1 -238.862 -220.815 ]  concat
1 w
[ ] 0 setdash
P
P
[ ] 0 setdash
p
0 setlinecap
255.583 217.815 m
255.583 215.667 L
s
P
p
0 setlinecap
270.055 217.815 m
270.055 215.667 L
s
P
p
0 setlinecap
284.527 217.815 m
284.527 215.667 L
s
P
p
0 setlinecap
298.999 217.815 m
298.999 214.235 L
s
P
p
newpath 295.749 219.815 m
295.749 231.66 L
302.249 231.66 L
302.249 219.815 L
closepath
clip newpath
p
1 w
0 g
[ ] 0 setdash
2 setlinecap
0 setlinejoin
10 setmiterlimit
[1 0 0 1 296.749 220.815 ]  concat
1 w
[ ] 0 setdash
p
newpath -2 -2 m
-2 11.845 L
6.5 11.845 L
6.5 -2 L
closepath
clip newpath
%%IncludeResource: font Times-Bold-MISO
%%IncludeFont: Times-Bold-MISO
9 /Times-Bold-MISO Msf
0 8 m
(8) N
P
[1 0 0 1 -296.749 -220.815 ]  concat
1 w
[ ] 0 setdash
P
P
[ ] 0 setdash
p
0 setlinecap
313.47 217.815 m
313.47 215.667 L
s
P
p
0 setlinecap
327.942 217.815 m
327.942 215.667 L
s
P
p
0 setlinecap
342.414 217.815 m
342.414 215.667 L
s
P
p
0 setlinecap
356.886 217.815 m
356.886 214.235 L
s
P
p
newpath 351.386 219.815 m
351.386 231.66 L
362.386 231.66 L
362.386 219.815 L
closepath
clip newpath
p
1 w
0 g
[ ] 0 setdash
2 setlinecap
0 setlinejoin
10 setmiterlimit
[1 0 0 1 352.386 220.815 ]  concat
1 w
[ ] 0 setdash
p
newpath -2 -2 m
-2 11.845 L
11 11.845 L
11 -2 L
closepath
clip newpath
%%IncludeResource: font Times-Bold-MISO
%%IncludeFont: Times-Bold-MISO
9 /Times-Bold-MISO Msf
0 8 m
(10) N
P
[1 0 0 1 -352.386 -220.815 ]  concat
1 w
[ ] 0 setdash
P
P
[ ] 0 setdash
p
0 setlinecap
61.421 217.815 m
362.915 217.815 L
s
P
p
newpath 369.915 212.85 m
369.915 222.779 L
376.919 222.779 L
376.919 212.85 L
closepath
clip newpath
p
1 w
0 g
[ ] 0 setdash
2 setlinecap
0 setlinejoin
10 setmiterlimit
[1 0 0 1 370.915 213.85 ]  concat
1 w
[ ] 0 setdash
p
newpath -2 -2 m
-2 9.929 L
7.004 9.929 L
7.004 -2 L
closepath
clip newpath
%%IncludeResource: font Times-Bold-MISO
%%IncludeFont: Times-Bold-MISO
9 /Times-Bold-MISO Msf
0 6.084 m
(n) N
P
[1 0 0 1 -370.915 -213.85 ]  concat
1 w
[ ] 0 setdash
P
P
[ ] 0 setdash
p
0 setlinecap
67.451 217.815 m
71.031 217.815 L
s
P
[1 0 0 1 53.201 212.892 ]  concat
0.2 w
[ ] 0 setdash
p
newpath -2 -2 m
-2 11.845 L
13.25 11.845 L
13.25 -2 L
closepath
clip newpath
P
[1 0 0 1 -53.201 -212.892 ]  concat
0.2 w
[ ] 0 setdash
[1 0 0 1 0 0 ]  concat
0.2 w
[ ] 0 setdash
[ ] 0 setdash
p
0 setlinecap
67.451 208.498 m
69.599 208.498 L
s
P
p
0 setlinecap
67.451 199.181 m
69.599 199.181 L
s
P
p
0 setlinecap
67.451 189.865 m
69.599 189.865 L
s
P
p
0 setlinecap
67.451 180.548 m
71.031 180.548 L
s
P
[1 0 0 1 0 0 ]  concat
0.2 w
[ ] 0 setdash
p
newpath 52.201 174.626 m
52.201 186.471 L
65.451 186.471 L
65.451 174.626 L
closepath
clip newpath
p
1 w
0 g
[ ] 0 setdash
2 setlinecap
0 setlinejoin
10 setmiterlimit
[1 0 0 1 53.201 175.626 ]  concat
1 w
[ ] 0 setdash
p
newpath -2 -2 m
-2 11.845 L
13.25 11.845 L
13.25 -2 L
closepath
clip newpath
%%IncludeResource: font Times-Bold-MISO
%%IncludeFont: Times-Bold-MISO
9 /Times-Bold-MISO Msf
0 8 m
(0.2) N
P
[1 0 0 1 -53.201 -175.626 ]  concat
1 w
[ ] 0 setdash
P
P
[1 0 0 1 0 0 ]  concat
0.2 w
[ ] 0 setdash
[ ] 0 setdash
p
0 setlinecap
67.451 171.231 m
69.599 171.231 L
s
P
p
0 setlinecap
67.451 161.915 m
69.599 161.915 L
s
P
p
0 setlinecap
67.451 152.598 m
69.599 152.598 L
s
P
p
0 setlinecap
67.451 143.281 m
71.031 143.281 L
s
P
[1 0 0 1 0 0 ]  concat
0.2 w
[ ] 0 setdash
p
newpath 52.201 137.359 m
52.201 149.204 L
65.451 149.204 L
65.451 137.359 L
closepath
clip newpath
p
1 w
0 g
[ ] 0 setdash
2 setlinecap
0 setlinejoin
10 setmiterlimit
[1 0 0 1 53.201 138.359 ]  concat
1 w
[ ] 0 setdash
p
newpath -2 -2 m
-2 11.845 L
13.25 11.845 L
13.25 -2 L
closepath
clip newpath
%%IncludeResource: font Times-Bold-MISO
%%IncludeFont: Times-Bold-MISO
9 /Times-Bold-MISO Msf
0 8 m
(0.4) N
P
[1 0 0 1 -53.201 -138.359 ]  concat
1 w
[ ] 0 setdash
P
P
[1 0 0 1 0 0 ]  concat
0.2 w
[ ] 0 setdash
[ ] 0 setdash
p
0 setlinecap
67.451 133.965 m
69.599 133.965 L
s
P
p
0 setlinecap
67.451 124.648 m
69.599 124.648 L
s
P
p
0 setlinecap
67.451 115.331 m
69.599 115.331 L
s
P
p
0 setlinecap
67.451 106.015 m
71.031 106.015 L
s
P
[1 0 0 1 0 0 ]  concat
0.2 w
[ ] 0 setdash
p
newpath 52.201 100.092 m
52.201 111.937 L
65.451 111.937 L
65.451 100.092 L
closepath
clip newpath
p
1 w
0 g
[ ] 0 setdash
2 setlinecap
0 setlinejoin
10 setmiterlimit
[1 0 0 1 53.201 101.092 ]  concat
1 w
[ ] 0 setdash
p
newpath -2 -2 m
-2 11.845 L
13.25 11.845 L
13.25 -2 L
closepath
clip newpath
%%IncludeResource: font Times-Bold-MISO
%%IncludeFont: Times-Bold-MISO
9 /Times-Bold-MISO Msf
0 8 m
(0.6) N
P
[1 0 0 1 -53.201 -101.092 ]  concat
1 w
[ ] 0 setdash
P
P
[1 0 0 1 0 0 ]  concat
0.2 w
[ ] 0 setdash
[ ] 0 setdash
p
0 setlinecap
67.451 96.698 m
69.599 96.698 L
s
P
p
0 setlinecap
67.451 87.381 m
69.599 87.381 L
s
P
p
0 setlinecap
67.451 78.065 m
69.599 78.065 L
s
P
p
0 setlinecap
67.451 68.748 m
71.031 68.748 L
s
P
[1 0 0 1 0 0 ]  concat
0.2 w
[ ] 0 setdash
p
newpath 52.201 62.825 m
52.201 74.67 L
65.451 74.67 L
65.451 62.825 L
closepath
clip newpath
p
1 w
0 g
[ ] 0 setdash
2 setlinecap
0 setlinejoin
10 setmiterlimit
[1 0 0 1 53.201 63.825 ]  concat
1 w
[ ] 0 setdash
p
newpath -2 -2 m
-2 11.845 L
13.25 11.845 L
13.25 -2 L
closepath
clip newpath
%%IncludeResource: font Times-Bold-MISO
%%IncludeFont: Times-Bold-MISO
9 /Times-Bold-MISO Msf
0 8 m
(0.8) N
P
[1 0 0 1 -53.201 -63.825 ]  concat
1 w
[ ] 0 setdash
P
P
[1 0 0 1 0 0 ]  concat
0.2 w
[ ] 0 setdash
[ ] 0 setdash
p
0 setlinecap
67.451 59.431 m
69.599 59.431 L
s
P
p
0 setlinecap
67.451 50.114 m
69.599 50.114 L
s
P
p
0 setlinecap
67.451 40.798 m
69.599 40.798 L
s
P
p
0 setlinecap
67.451 31.481 m
71.031 31.481 L
s
P
[1 0 0 1 0 0 ]  concat
0.2 w
[ ] 0 setdash
p
newpath 52.201 25.559 m
52.201 37.404 L
65.451 37.404 L
65.451 25.559 L
closepath
clip newpath
p
1 w
0 g
[ ] 0 setdash
2 setlinecap
0 setlinejoin
10 setmiterlimit
[1 0 0 1 53.201 26.559 ]  concat
1 w
[ ] 0 setdash
p
newpath -2 -2 m
-2 11.845 L
13.25 11.845 L
13.25 -2 L
closepath
clip newpath
%%IncludeResource: font Times-Bold-MISO
%%IncludeFont: Times-Bold-MISO
9 /Times-Bold-MISO Msf
0 8 m
(1.0) N
P
[1 0 0 1 -53.201 -26.559 ]  concat
1 w
[ ] 0 setdash
P
P
[1 0 0 1 0 0 ]  concat
0.2 w
[ ] 0 setdash
[ ] 0 setdash
p
0 setlinecap
67.451 217.815 m
67.451 31.481 L
s
P
[1 0 0 1 0 0 ]  concat
0.2 w
[ ] 0 setdash
p
newpath 59.131 11 m
59.131 26.481 L
75.771 26.481 L
75.771 11 L
closepath
clip newpath
p
1 w
0 g
[ ] 0 setdash
2 setlinecap
0 setlinejoin
10 setmiterlimit
[1 0 0 1 60.131 12 ]  concat
1 w
[ ] 0 setdash
p
newpath -2 -2 m
-2 15.481 L
16.64 15.481 L
16.64 -2 L
closepath
clip newpath
%%IncludeResource: font Times-Bold-MISO
%%IncludeFont: Times-Bold-MISO
9 /Times-Bold-MISO Msf
%%IncludeResource: font Times-BoldItalic
%%IncludeFont: Times-BoldItalic
%%BeginResource: font Times-BoldItalic-MISO
%%BeginFont: Times-BoldItalic-MISO
/Times-BoldItalic /Times-BoldItalic-MISO MISOfy
%%EndFont
%%EndResource
%%IncludeResource: font Times-BoldItalic-MISO
%%IncludeFont: Times-BoldItalic-MISO
9 /Times-BoldItalic-MISO Msf
0.243 10.005 m
(P) N
%%IncludeResource: font Times-BoldItalic-MISO
%%IncludeFont: Times-BoldItalic-MISO
6.39 /Times-BoldItalic-MISO Msf
5.876 11.481 m
(a) N
9.571 6 m
(V) N
%%IncludeResource: font Times-Bold-MISO
%%IncludeFont: Times-Bold-MISO
9 /Times-Bold-MISO Msf
P
[1 0 0 1 -60.131 -12 ]  concat
1 w
[ ] 0 setdash
P
P
[1 0 0 1 0 0 ]  concat
0.2 w
[ ] 0 setdash
p
newpath 60.661 30.66 m
60.661 218.66 L
363.661 218.66 L
363.661 30.66 L
closepath
clip newpath
P
P
P
0 g
newpath 318.55 121.33 m
318.55 85.95 L
350.854 85.95 L
350.854 121.33 L
closepath
F
1 g
newpath 318.55 121.33 m
318.55 85.95 L
350.854 85.95 L
350.854 121.33 L
closepath
F
0 g
0.31 w
[ ] 0 setdash
3.25 setmiterlimit
318.55 121.33 m
318.55 85.95 L
350.854 85.95 L
350.854 121.33 L
closepath
s
p
newpath 317.55 84.95 m
317.55 122.33 L
351.854 122.33 L
351.854 84.95 L
closepath
clip newpath
p
newpath 318.55 85.33 m
318.55 121.33 L
351.55 121.33 L
351.55 85.33 L
closepath
clip newpath
3.239 setmiterlimit
p
newpath 317.08 108.985 m
317.08 120.599 L
328.694 120.599 L
328.694 108.985 L
closepath
clip newpath
p
newpath 320.08 109.599 m
320.08 119.599 L
326.08 119.599 L
326.08 109.599 L
closepath
clip newpath
0.6 0.547 0.24 r
0.5 w
[ ] 0 setdash
3.25 setmiterlimit
320.531 114.792 m
325.244 114.792 L
s
P
P
p
newpath 330.145 108.816 m
330.145 120.769 L
337.149 120.769 L
337.149 108.816 L
closepath
clip newpath
p
1 w
0 g
[ ] 0 setdash
2 setlinecap
0 setlinejoin
10 setmiterlimit
[1 0 0 1 331.145 109.816 ]  concat
1 w
[ ] 0 setdash
p
newpath -2 -2 m
-2 11.953 L
7.004 11.953 L
7.004 -2 L
closepath
clip newpath
%%IncludeResource: font Times-Roman
%%IncludeFont: Times-Roman
%%BeginResource: font Times-Roman-MISO
%%BeginFont: Times-Roman-MISO
/Times-Roman /Times-Roman-MISO MISOfy
%%EndFont
%%EndResource
%%IncludeResource: font Times-Roman-MISO
%%IncludeFont: Times-Roman-MISO
9 /Times-Roman-MISO Msf
0 8 m
(S) N
P
[1 0 0 1 -331.145 -109.816 ]  concat
1 w
[ ] 0 setdash
P
P
p
newpath 317.08 97.833 m
317.08 109.447 L
328.694 109.447 L
328.694 97.833 L
closepath
clip newpath
p
newpath 320.08 98.447 m
320.08 108.447 L
326.08 108.447 L
326.08 98.447 L
closepath
clip newpath
0.6 0.24 0.443 r
0.5 w
[ ] 0 setdash
3.25 setmiterlimit
320.531 103.64 m
325.244 103.64 L
s
P
P
p
newpath 330.145 98.59 m
330.145 108.69 L
338.643 108.69 L
338.643 98.59 L
closepath
clip newpath
p
1 w
0 g
[ ] 0 setdash
2 setlinecap
0 setlinejoin
10 setmiterlimit
[1 0 0 1 331.145 99.59 ]  concat
1 w
[ ] 0 setdash
p
newpath -2 -2 m
-2 10.1 L
8.498 10.1 L
8.498 -2 L
closepath
clip newpath
%%IncludeResource: font Times-Roman-MISO
%%IncludeFont: Times-Roman-MISO
9 /Times-Roman-MISO Msf
0 6.147 m
(U) N
P
[1 0 0 1 -331.145 -99.59 ]  concat
1 w
[ ] 0 setdash
P
P
p
newpath 317.08 86.681 m
317.08 98.295 L
328.694 98.295 L
328.694 86.681 L
closepath
clip newpath
p
newpath 320.08 87.295 m
320.08 97.295 L
326.08 97.295 L
326.08 87.295 L
closepath
clip newpath
0.247 0.24 0.6 r
0.5 w
[ ] 0 setdash
3.25 setmiterlimit
320.531 92.488 m
325.244 92.488 L
s
P
P
p
newpath 330.145 87.438 m
330.145 97.538 L
337.149 97.538 L
337.149 87.438 L
closepath
clip newpath
p
1 w
0 g
[ ] 0 setdash
2 setlinecap
0 setlinejoin
10 setmiterlimit
[1 0 0 1 331.145 88.438 ]  concat
1 w
[ ] 0 setdash
p
newpath -2 -2 m
-2 10.1 L
7.004 10.1 L
7.004 -2 L
closepath
clip newpath
%%IncludeResource: font Times-Roman-MISO
%%IncludeFont: Times-Roman-MISO
9 /Times-Roman-MISO Msf
0 6.147 m
(P) N
P
[1 0 0 1 -331.145 -88.438 ]  concat
1 w
[ ] 0 setdash
P
P
P
P
P
P
1 w
0 g
[ ] 0 setdash
2 setlinecap
0 setlinejoin
10 setmiterlimit
%Trailer
%EOF
