%!PS-Adobe-2.0 EPSF-2.0
%%Title: /home/rammohan/MyResearch/HotP2P-2010/Figures/panacea.dia
%%Creator: Dia v0.97
%%CreationDate: Wed Nov 18 16:22:59 2009
%%For: rammohan
%%Orientation: Portrait
%%Magnification: 1.0000
%%BoundingBox: 0 0 453 524
%%BeginSetup
%%EndSetup
%%EndComments
%%BeginProlog
[ /.notdef /.notdef /.notdef /.notdef /.notdef /.notdef /.notdef /.notdef /.notdef /.notdef
/.notdef /.notdef /.notdef /.notdef /.notdef /.notdef /.notdef /.notdef /.notdef /.notdef
/.notdef /.notdef /.notdef /.notdef /.notdef /.notdef /.notdef /.notdef /.notdef /.notdef
/.notdef /.notdef /space /exclam /quotedbl /numbersign /dollar /percent /ampersand /quoteright
/parenleft /parenright /asterisk /plus /comma /hyphen /period /slash /zero /one
/two /three /four /five /six /seven /eight /nine /colon /semicolon
/less /equal /greater /question /at /A /B /C /D /E
/F /G /H /I /J /K /L /M /N /O
/P /Q /R /S /T /U /V /W /X /Y
/Z /bracketleft /backslash /bracketright /asciicircum /underscore /quoteleft /a /b /c
/d /e /f /g /h /i /j /k /l /m
/n /o /p /q /r /s /t /u /v /w
/x /y /z /braceleft /bar /braceright /asciitilde /.notdef /.notdef /.notdef
/.notdef /.notdef /.notdef /.notdef /.notdef /.notdef /.notdef /.notdef /.notdef /.notdef
/.notdef /.notdef /.notdef /.notdef /.notdef /.notdef /.notdef /.notdef /.notdef /.notdef
/.notdef /.notdef /.notdef /.notdef /.notdef /.notdef /.notdef /.notdef /.notdef /.notdef
/space /exclamdown /cent /sterling /currency /yen /brokenbar /section /dieresis /copyright
/ordfeminine /guillemotleft /logicalnot /hyphen /registered /macron /degree /plusminus /twosuperior /threesuperior
/acute /mu /paragraph /periodcentered /cedilla /onesuperior /ordmasculine /guillemotright /onequarter /onehalf
/threequarters /questiondown /Agrave /Aacute /Acircumflex /Atilde /Adieresis /Aring /AE /Ccedilla
/Egrave /Eacute /Ecircumflex /Edieresis /Igrave /Iacute /Icircumflex /Idieresis /Eth /Ntilde
/Ograve /Oacute /Ocircumflex /Otilde /Odieresis /multiply /Oslash /Ugrave /Uacute /Ucircumflex
/Udieresis /Yacute /Thorn /germandbls /agrave /aacute /acircumflex /atilde /adieresis /aring
/ae /ccedilla /egrave /eacute /ecircumflex /edieresis /igrave /iacute /icircumflex /idieresis
/eth /ntilde /ograve /oacute /ocircumflex /otilde /odieresis /divide /oslash /ugrave
/uacute /ucircumflex /udieresis /yacute /thorn /ydieresis] /isolatin1encoding exch def
/cp {closepath} bind def
/c {curveto} bind def
/f {fill} bind def
/a {arc} bind def
/ef {eofill} bind def
/ex {exch} bind def
/gr {grestore} bind def
/gs {gsave} bind def
/sa {save} bind def
/rs {restore} bind def
/l {lineto} bind def
/m {moveto} bind def
/rm {rmoveto} bind def
/n {newpath} bind def
/s {stroke} bind def
/sh {show} bind def
/slc {setlinecap} bind def
/slj {setlinejoin} bind def
/slw {setlinewidth} bind def
/srgb {setrgbcolor} bind def
/rot {rotate} bind def
/sc {scale} bind def
/sd {setdash} bind def
/ff {findfont} bind def
/sf {setfont} bind def
/scf {scalefont} bind def
/sw {stringwidth pop} bind def
/tr {translate} bind def

/ellipsedict 8 dict def
ellipsedict /mtrx matrix put
/ellipse
{ ellipsedict begin
   /endangle exch def
   /startangle exch def
   /yrad exch def
   /xrad exch def
   /y exch def
   /x exch def   /savematrix mtrx currentmatrix def
   x y tr xrad yrad sc
   0 0 1 startangle endangle arc
   savematrix setmatrix
   end
} def

/mergeprocs {
dup length
3 -1 roll
dup
length
dup
5 1 roll
3 -1 roll
add
array cvx
dup
3 -1 roll
0 exch
putinterval
dup
4 2 roll
putinterval
} bind def
/dpi_x 300 def
/dpi_y 300 def
/conicto {
    /to_y exch def
    /to_x exch def
    /conic_cntrl_y exch def
    /conic_cntrl_x exch def
    currentpoint
    /p0_y exch def
    /p0_x exch def
    /p1_x p0_x conic_cntrl_x p0_x sub 2 3 div mul add def
    /p1_y p0_y conic_cntrl_y p0_y sub 2 3 div mul add def
    /p2_x p1_x to_x p0_x sub 1 3 div mul add def
    /p2_y p1_y to_y p0_y sub 1 3 div mul add def
    p1_x p1_y p2_x p2_y to_x to_y curveto
} bind def
/start_ol { gsave 1.1 dpi_x div dup scale} bind def
/end_ol { closepath fill grestore } bind def
28.346000 -28.346000 scale
-16.029098 -20.510000 translate
%%EndProlog


1.000000 1.000000 1.000000 srgb
n 22.201818 4.138619 m 28.324538 8.139897 l 22.201818 12.141175 l 16.079098 8.139897 l ef
0.100000 slw
[] 0 sd
[] 0 sd
0 slj
0.000000 0.000000 0.000000 srgb
n 22.201818 4.138619 m 28.324538 8.139897 l 22.201818 12.141175 l 16.079098 8.139897 l cp s
gsave 19.149318 7.934897 translate 0.035278 -0.035278 scale
start_ol
960 3136 moveto
960 384 lineto
1536 384 lineto
2266 384 2605 716 conicto
2944 1048 2944 1764 conicto
2944 2475 2605 2805 conicto
2266 3136 1536 3136 conicto
960 3136 lineto
448 3520 moveto
1463 3520 lineto
2493 3520 2974 3094 conicto
3456 2669 3456 1764 conicto
3456 853 2972 426 conicto
2488 0 1463 0 conicto
448 0 lineto
448 3520 lineto
end_ol grestore 
gsave 19.641352 7.934897 translate 0.035278 -0.035278 scale
start_ol
2752 1480 moveto
2752 1280 lineto
704 1280 lineto
733 811 978 565 conicto
1223 320 1660 320 conicto
1914 320 2152 384 conicto
2390 448 2624 576 conicto
2624 192 lineto
2388 67 2140 1 conicto
1893 -64 1639 -64 conicto
1001 -64 628 309 conicto
256 683 256 1320 conicto
256 1979 613 2365 conicto
970 2752 1576 2752 conicto
2120 2752 2436 2410 conicto
2752 2068 2752 1480 conicto
2304 1600 moveto
2299 1950 2099 2159 conicto
1900 2368 1572 2368 conicto
1200 2368 976 2166 conicto
753 1964 719 1597 conicto
2304 1600 lineto
end_ol grestore 
gsave 20.035978 7.934897 translate 0.035278 -0.035278 scale
start_ol
2368 2560 moveto
2368 2176 lineto
2180 2272 1991 2320 conicto
1803 2368 1611 2368 conicto
1180 2368 942 2099 conicto
704 1830 704 1344 conicto
704 858 942 589 conicto
1180 320 1611 320 conicto
1803 320 1991 368 conicto
2180 416 2368 512 conicto
2368 128 lineto
2184 32 1987 -16 conicto
1791 -64 1569 -64 conicto
966 -64 611 316 conicto
256 697 256 1344 conicto
256 2000 615 2376 conicto
974 2752 1598 2752 conicto
1801 2752 1994 2704 conicto
2187 2656 2368 2560 conicto
end_ol grestore 
gsave 20.388147 7.934897 translate 0.035278 -0.035278 scale
start_ol
448 2688 moveto
896 2688 lineto
896 0 lineto
448 0 lineto
448 2688 lineto
448 3712 moveto
896 3712 lineto
896 3136 lineto
448 3136 lineto
448 3712 lineto
end_ol grestore 
gsave 20.565476 7.934897 translate 0.035278 -0.035278 scale
start_ol
2176 2304 moveto
2176 3712 lineto
2624 3712 lineto
2624 0 lineto
2176 0 lineto
2176 384 lineto
2040 157 1832 46 conicto
1624 -64 1332 -64 conicto
855 -64 555 324 conicto
256 712 256 1344 conicto
256 1976 555 2364 conicto
855 2752 1332 2752 conicto
1624 2752 1832 2641 conicto
2040 2531 2176 2304 conicto
704 1344 moveto
704 865 900 592 conicto
1096 320 1439 320 conicto
1782 320 1979 592 conicto
2176 865 2176 1344 conicto
2176 1823 1979 2095 conicto
1782 2368 1439 2368 conicto
1096 2368 900 2095 conicto
704 1823 704 1344 conicto
end_ol grestore 
gsave 20.972595 7.934897 translate 0.035278 -0.035278 scale
start_ol
2752 1480 moveto
2752 1280 lineto
704 1280 lineto
733 811 978 565 conicto
1223 320 1660 320 conicto
1914 320 2152 384 conicto
2390 448 2624 576 conicto
2624 192 lineto
2388 67 2140 1 conicto
1893 -64 1639 -64 conicto
1001 -64 628 309 conicto
256 683 256 1320 conicto
256 1979 613 2365 conicto
970 2752 1576 2752 conicto
2120 2752 2436 2410 conicto
2752 2068 2752 1480 conicto
2304 1600 moveto
2299 1950 2099 2159 conicto
1900 2368 1572 2368 conicto
1200 2368 976 2166 conicto
753 1964 719 1597 conicto
2304 1600 lineto
end_ol grestore 
gsave 21.367221 7.934897 translate 0.035278 -0.035278 scale
start_ol
end_ol grestore 
gsave 21.569528 7.934897 translate 0.035278 -0.035278 scale
start_ol
192 2688 moveto
631 2688 lineto
1179 590 lineto
1725 2688 lineto
2243 2688 lineto
2791 590 lineto
3337 2688 lineto
3776 2688 lineto
3077 0 lineto
2560 0 lineto
1985 2203 lineto
1408 0 lineto
891 0 lineto
192 2688 lineto
end_ol grestore 
gsave 22.091534 7.934897 translate 0.035278 -0.035278 scale
start_ol
2688 1646 moveto
2688 0 lineto
2240 0 lineto
2240 1632 lineto
2240 2001 2093 2184 conicto
1947 2368 1654 2368 conicto
1302 2368 1099 2146 conicto
896 1925 896 1542 conicto
896 0 lineto
448 0 lineto
448 3712 lineto
896 3712 lineto
896 2304 lineto
1053 2529 1266 2640 conicto
1479 2752 1757 2752 conicto
2217 2752 2452 2471 conicto
2688 2191 2688 1646 conicto
end_ol grestore 
gsave 22.496149 7.934897 translate 0.035278 -0.035278 scale
start_ol
2752 1480 moveto
2752 1280 lineto
704 1280 lineto
733 811 978 565 conicto
1223 320 1660 320 conicto
1914 320 2152 384 conicto
2390 448 2624 576 conicto
2624 192 lineto
2388 67 2140 1 conicto
1893 -64 1639 -64 conicto
1001 -64 628 309 conicto
256 683 256 1320 conicto
256 1979 613 2365 conicto
970 2752 1576 2752 conicto
2120 2752 2436 2410 conicto
2752 2068 2752 1480 conicto
2304 1600 moveto
2299 1950 2099 2159 conicto
1900 2368 1572 2368 conicto
1200 2368 976 2166 conicto
753 1964 719 1597 conicto
2304 1600 lineto
end_ol grestore 
gsave 22.890775 7.934897 translate 0.035278 -0.035278 scale
start_ol
896 3456 moveto
896 2688 lineto
1792 2688 lineto
1792 2368 lineto
896 2368 lineto
896 902 lineto
896 572 984 478 conicto
1073 384 1345 384 conicto
1792 384 lineto
1792 0 lineto
1345 0 lineto
836 0 642 194 conicto
448 389 448 902 conicto
448 2368 lineto
128 2368 lineto
128 2688 lineto
448 2688 lineto
448 3456 lineto
896 3456 lineto
end_ol grestore 
gsave 23.140541 7.934897 translate 0.035278 -0.035278 scale
start_ol
2688 1646 moveto
2688 0 lineto
2240 0 lineto
2240 1632 lineto
2240 2001 2093 2184 conicto
1947 2368 1654 2368 conicto
1302 2368 1099 2146 conicto
896 1925 896 1542 conicto
896 0 lineto
448 0 lineto
448 3712 lineto
896 3712 lineto
896 2304 lineto
1053 2529 1266 2640 conicto
1479 2752 1757 2752 conicto
2217 2752 2452 2471 conicto
2688 2191 2688 1646 conicto
end_ol grestore 
gsave 23.545155 7.934897 translate 0.035278 -0.035278 scale
start_ol
2752 1480 moveto
2752 1280 lineto
704 1280 lineto
733 811 978 565 conicto
1223 320 1660 320 conicto
1914 320 2152 384 conicto
2390 448 2624 576 conicto
2624 192 lineto
2388 67 2140 1 conicto
1893 -64 1639 -64 conicto
1001 -64 628 309 conicto
256 683 256 1320 conicto
256 1979 613 2365 conicto
970 2752 1576 2752 conicto
2120 2752 2436 2410 conicto
2752 2068 2752 1480 conicto
2304 1600 moveto
2299 1950 2099 2159 conicto
1900 2368 1572 2368 conicto
1200 2368 976 2166 conicto
753 1964 719 1597 conicto
2304 1600 lineto
end_ol grestore 
gsave 23.939781 7.934897 translate 0.035278 -0.035278 scale
start_ol
1984 2304 moveto
1912 2337 1828 2352 conicto
1744 2368 1642 2368 conicto
1282 2368 1089 2127 conicto
896 1887 896 1437 conicto
896 0 lineto
448 0 lineto
448 2688 lineto
896 2688 lineto
896 2304 lineto
1030 2531 1245 2641 conicto
1460 2752 1767 2752 conicto
1811 2752 1864 2752 conicto
1917 2752 1982 2752 conicto
1984 2304 lineto
end_ol grestore 
gsave 24.202033 7.934897 translate 0.035278 -0.035278 scale
start_ol
end_ol grestore 
gsave 24.404340 7.934897 translate 0.035278 -0.035278 scale
start_ol
896 3456 moveto
896 2688 lineto
1792 2688 lineto
1792 2368 lineto
896 2368 lineto
896 902 lineto
896 572 984 478 conicto
1073 384 1345 384 conicto
1792 384 lineto
1792 0 lineto
1345 0 lineto
836 0 642 194 conicto
448 389 448 902 conicto
448 2368 lineto
128 2368 lineto
128 2688 lineto
448 2688 lineto
448 3456 lineto
896 3456 lineto
end_ol grestore 
gsave 24.654107 7.934897 translate 0.035278 -0.035278 scale
start_ol
1473 2368 moveto
1117 2368 910 2094 conicto
704 1820 704 1344 conicto
704 868 909 594 conicto
1115 320 1473 320 conicto
1827 320 2033 595 conicto
2240 870 2240 1344 conicto
2240 1816 2033 2092 conicto
1827 2368 1473 2368 conicto
1472 2752 moveto
2040 2752 2364 2378 conicto
2688 2005 2688 1344 conicto
2688 685 2364 310 conicto
2040 -64 1472 -64 conicto
902 -64 579 310 conicto
256 685 256 1344 conicto
256 2005 579 2378 conicto
902 2752 1472 2752 conicto
end_ol grestore 
gsave 25.046236 7.934897 translate 0.035278 -0.035278 scale
start_ol
end_ol grestore 
gsave 18.324318 8.734897 translate 0.035278 -0.035278 scale
start_ol
896 384 moveto
896 -1024 lineto
448 -1024 lineto
448 2688 lineto
896 2688 lineto
896 2304 lineto
1032 2531 1240 2641 conicto
1448 2752 1737 2752 conicto
2217 2752 2516 2364 conicto
2816 1976 2816 1344 conicto
2816 712 2516 324 conicto
2217 -64 1737 -64 conicto
1448 -64 1240 46 conicto
1032 157 896 384 conicto
2368 1344 moveto
2368 1823 2171 2095 conicto
1975 2368 1632 2368 conicto
1289 2368 1092 2095 conicto
896 1823 896 1344 conicto
896 865 1092 592 conicto
1289 320 1632 320 conicto
1975 320 2171 592 conicto
2368 865 2368 1344 conicto
end_ol grestore 
gsave 18.731438 8.734897 translate 0.035278 -0.035278 scale
start_ol
448 1040 moveto
448 2688 lineto
896 2688 lineto
896 1057 lineto
896 689 1042 504 conicto
1188 320 1481 320 conicto
1832 320 2036 541 conicto
2240 763 2240 1145 conicto
2240 2688 lineto
2688 2688 lineto
2688 0 lineto
2240 0 lineto
2240 384 lineto
2081 157 1870 46 conicto
1660 -64 1382 -64 conicto
923 -64 685 217 conicto
448 499 448 1040 conicto
1554 2752 moveto
1554 2752 lineto
end_ol grestore 
gsave 19.136052 8.734897 translate 0.035278 -0.035278 scale
start_ol
2368 1344 moveto
2368 1823 2171 2095 conicto
1975 2368 1632 2368 conicto
1289 2368 1092 2095 conicto
896 1823 896 1344 conicto
896 865 1092 592 conicto
1289 320 1632 320 conicto
1975 320 2171 592 conicto
2368 865 2368 1344 conicto
896 2304 moveto
1032 2531 1240 2641 conicto
1448 2752 1737 2752 conicto
2217 2752 2516 2364 conicto
2816 1976 2816 1344 conicto
2816 712 2516 324 conicto
2217 -64 1737 -64 conicto
1448 -64 1240 46 conicto
1032 157 896 384 conicto
896 0 lineto
448 0 lineto
448 3712 lineto
896 3712 lineto
896 2304 lineto
end_ol grestore 
gsave 19.543171 8.734897 translate 0.035278 -0.035278 scale
start_ol
448 3712 moveto
896 3712 lineto
896 0 lineto
448 0 lineto
448 3712 lineto
end_ol grestore 
gsave 19.720500 8.734897 translate 0.035278 -0.035278 scale
start_ol
448 2688 moveto
896 2688 lineto
896 0 lineto
448 0 lineto
448 2688 lineto
448 3712 moveto
896 3712 lineto
896 3136 lineto
448 3136 lineto
448 3712 lineto
end_ol grestore 
gsave 19.897828 8.734897 translate 0.035278 -0.035278 scale
start_ol
2112 2560 moveto
2112 2176 lineto
1932 2272 1738 2320 conicto
1544 2368 1336 2368 conicto
1020 2368 862 2269 conicto
704 2170 704 1972 conicto
704 1821 814 1735 conicto
925 1649 1260 1571 conicto
1403 1538 lineto
1857 1438 2048 1255 conicto
2240 1072 2240 744 conicto
2240 371 1954 153 conicto
1668 -64 1167 -64 conicto
958 -64 732 -16 conicto
506 32 256 128 conicto
256 576 lineto
491 448 719 384 conicto
947 320 1170 320 conicto
1470 320 1631 425 conicto
1792 531 1792 722 conicto
1792 900 1678 994 conicto
1564 1089 1177 1177 conicto
1032 1212 lineto
621 1298 438 1476 conicto
256 1654 256 1964 conicto
256 2341 520 2546 conicto
784 2752 1269 2752 conicto
1509 2752 1721 2704 conicto
1933 2656 2112 2560 conicto
end_ol grestore 
gsave 20.230013 8.734897 translate 0.035278 -0.035278 scale
start_ol
2688 1646 moveto
2688 0 lineto
2240 0 lineto
2240 1632 lineto
2240 2001 2093 2184 conicto
1947 2368 1654 2368 conicto
1302 2368 1099 2146 conicto
896 1925 896 1542 conicto
896 0 lineto
448 0 lineto
448 3712 lineto
896 3712 lineto
896 2304 lineto
1053 2529 1266 2640 conicto
1479 2752 1757 2752 conicto
2217 2752 2452 2471 conicto
2688 2191 2688 1646 conicto
end_ol grestore 
gsave 20.634627 8.734897 translate 0.035278 -0.035278 scale
start_ol
end_ol grestore 
gsave 20.836934 8.734897 translate 0.035278 -0.035278 scale
start_ol
448 2688 moveto
896 2688 lineto
896 0 lineto
448 0 lineto
448 2688 lineto
448 3712 moveto
896 3712 lineto
896 3136 lineto
448 3136 lineto
448 3712 lineto
end_ol grestore 
gsave 21.014263 8.734897 translate 0.035278 -0.035278 scale
start_ol
2688 1646 moveto
2688 0 lineto
2240 0 lineto
2240 1632 lineto
2240 2001 2093 2184 conicto
1947 2368 1654 2368 conicto
1302 2368 1099 2146 conicto
896 1925 896 1542 conicto
896 0 lineto
448 0 lineto
448 2688 lineto
896 2688 lineto
896 2304 lineto
1053 2529 1266 2640 conicto
1479 2752 1757 2752 conicto
2217 2752 2452 2471 conicto
2688 2191 2688 1646 conicto
end_ol grestore 
gsave 21.418877 8.734897 translate 0.035278 -0.035278 scale
start_ol
896 3456 moveto
896 2688 lineto
1792 2688 lineto
1792 2368 lineto
896 2368 lineto
896 902 lineto
896 572 984 478 conicto
1073 384 1345 384 conicto
1792 384 lineto
1792 0 lineto
1345 0 lineto
836 0 642 194 conicto
448 389 448 902 conicto
448 2368 lineto
128 2368 lineto
128 2688 lineto
448 2688 lineto
448 3456 lineto
896 3456 lineto
end_ol grestore 
gsave 21.668643 8.734897 translate 0.035278 -0.035278 scale
start_ol
1473 2368 moveto
1117 2368 910 2094 conicto
704 1820 704 1344 conicto
704 868 909 594 conicto
1115 320 1473 320 conicto
1827 320 2033 595 conicto
2240 870 2240 1344 conicto
2240 1816 2033 2092 conicto
1827 2368 1473 2368 conicto
1472 2752 moveto
2040 2752 2364 2378 conicto
2688 2005 2688 1344 conicto
2688 685 2364 310 conicto
2040 -64 1472 -64 conicto
902 -64 579 310 conicto
256 685 256 1344 conicto
256 2005 579 2378 conicto
902 2752 1472 2752 conicto
end_ol grestore 
gsave 22.060772 8.734897 translate 0.035278 -0.035278 scale
start_ol
end_ol grestore 
gsave 22.263079 8.734897 translate 0.035278 -0.035278 scale
start_ol
960 3136 moveto
960 384 lineto
1536 384 lineto
2266 384 2605 716 conicto
2944 1048 2944 1764 conicto
2944 2475 2605 2805 conicto
2266 3136 1536 3136 conicto
960 3136 lineto
448 3520 moveto
1463 3520 lineto
2493 3520 2974 3094 conicto
3456 2669 3456 1764 conicto
3456 853 2972 426 conicto
2488 0 1463 0 conicto
448 0 lineto
448 3520 lineto
end_ol grestore 
gsave 22.755113 8.734897 translate 0.035278 -0.035278 scale
start_ol
448 3520 moveto
960 3520 lineto
960 2112 lineto
2624 2112 lineto
2624 3520 lineto
3136 3520 lineto
3136 0 lineto
2624 0 lineto
2624 1728 lineto
960 1728 lineto
960 0 lineto
448 0 lineto
448 3520 lineto
end_ol grestore 
gsave 23.237159 8.734897 translate 0.035278 -0.035278 scale
start_ol
-64 3520 moveto
3008 3520 lineto
3008 3136 lineto
1728 3136 lineto
1728 0 lineto
1216 0 lineto
1216 3136 lineto
-64 3136 lineto
-64 3520 lineto
end_ol grestore 
gsave 23.626791 8.734897 translate 0.035278 -0.035278 scale
start_ol
end_ol grestore 
gsave 23.829098 8.734897 translate 0.035278 -0.035278 scale
start_ol
1473 2368 moveto
1117 2368 910 2094 conicto
704 1820 704 1344 conicto
704 868 909 594 conicto
1115 320 1473 320 conicto
1827 320 2033 595 conicto
2240 870 2240 1344 conicto
2240 1816 2033 2092 conicto
1827 2368 1473 2368 conicto
1472 2752 moveto
2040 2752 2364 2378 conicto
2688 2005 2688 1344 conicto
2688 685 2364 310 conicto
2040 -64 1472 -64 conicto
902 -64 579 310 conicto
256 685 256 1344 conicto
256 2005 579 2378 conicto
902 2752 1472 2752 conicto
end_ol grestore 
gsave 24.221228 8.734897 translate 0.035278 -0.035278 scale
start_ol
1984 2304 moveto
1912 2337 1828 2352 conicto
1744 2368 1642 2368 conicto
1282 2368 1089 2127 conicto
896 1887 896 1437 conicto
896 0 lineto
448 0 lineto
448 2688 lineto
896 2688 lineto
896 2304 lineto
1030 2531 1245 2641 conicto
1460 2752 1767 2752 conicto
1811 2752 1864 2752 conicto
1917 2752 1982 2752 conicto
1984 2304 lineto
end_ol grestore 
gsave 24.483479 8.734897 translate 0.035278 -0.035278 scale
start_ol
end_ol grestore 
gsave 24.685786 8.734897 translate 0.035278 -0.035278 scale
start_ol
2688 1646 moveto
2688 0 lineto
2240 0 lineto
2240 1632 lineto
2240 2001 2093 2184 conicto
1947 2368 1654 2368 conicto
1302 2368 1099 2146 conicto
896 1925 896 1542 conicto
896 0 lineto
448 0 lineto
448 2688 lineto
896 2688 lineto
896 2304 lineto
1053 2529 1266 2640 conicto
1479 2752 1757 2752 conicto
2217 2752 2452 2471 conicto
2688 2191 2688 1646 conicto
end_ol grestore 
gsave 25.090400 8.734897 translate 0.035278 -0.035278 scale
start_ol
1473 2368 moveto
1117 2368 910 2094 conicto
704 1820 704 1344 conicto
704 868 909 594 conicto
1115 320 1473 320 conicto
1827 320 2033 595 conicto
2240 870 2240 1344 conicto
2240 1816 2033 2092 conicto
1827 2368 1473 2368 conicto
1472 2752 moveto
2040 2752 2364 2378 conicto
2688 2005 2688 1344 conicto
2688 685 2364 310 conicto
2040 -64 1472 -64 conicto
902 -64 579 310 conicto
256 685 256 1344 conicto
256 2005 579 2378 conicto
902 2752 1472 2752 conicto
end_ol grestore 
gsave 25.482529 8.734897 translate 0.035278 -0.035278 scale
start_ol
896 3456 moveto
896 2688 lineto
1792 2688 lineto
1792 2368 lineto
896 2368 lineto
896 902 lineto
896 572 984 478 conicto
1073 384 1345 384 conicto
1792 384 lineto
1792 0 lineto
1345 0 lineto
836 0 642 194 conicto
448 389 448 902 conicto
448 2368 lineto
128 2368 lineto
128 2688 lineto
448 2688 lineto
448 3456 lineto
896 3456 lineto
end_ol grestore 
gsave 25.732296 8.734897 translate 0.035278 -0.035278 scale
start_ol
896 576 moveto
1408 576 lineto
1408 0 lineto
896 0 lineto
896 576 lineto
1408 896 moveto
896 896 lineto
896 1270 lineto
896 1515 971 1672 conicto
1046 1830 1287 2038 conicto
1493 2254 lineto
1617 2381 1672 2493 conicto
1728 2606 1728 2723 conicto
1728 2937 1572 3068 conicto
1417 3200 1161 3200 conicto
974 3200 762 3118 conicto
550 3036 320 2880 conicto
320 3328 lineto
546 3457 778 3520 conicto
1011 3584 1260 3584 conicto
1703 3584 1971 3352 conicto
2240 3121 2240 2742 conicto
2240 2561 2149 2397 conicto
2058 2234 1831 2029 conicto
1626 1820 lineto
1529 1706 1489 1641 conicto
1449 1577 1433 1517 conicto
1420 1466 1414 1393 conicto
1408 1320 1408 1194 conicto
1408 896 lineto
end_ol grestore 
0.100000 slw
[] 0 sd
[] 0 sd
0 slc
n 22.250000 3.150000 m 22.228591 3.589271 l s
0 slj
n 21.978888 3.577101 m 22.204252 4.088678 l 22.478295 3.601441 l ef
0.100000 slw
[] 0 sd
0 slj
n 21.978888 3.577101 m 22.204252 4.088678 l 22.478295 3.601441 l cp s
0.100000 slw
[] 0 sd
[] 0 sd
0 slc
n 28.324538 8.139897 m 29.500009 8.146780 l s
0 slj
n 29.498546 8.396775 m 30.000001 8.149707 l 29.501473 7.896784 l ef
0.100000 slw
[] 0 sd
0 slj
n 29.498546 8.396775 m 30.000001 8.149707 l 29.501473 7.896784 l cp s
0.100000 slw
[] 0 sd
[] 0 sd
0 slc
0 slj
0.100000 slw
0 slc
0 slj
[] 0 sd
1.000000 1.000000 1.000000 srgb
n 30.235714 7.150000 m 31.664286 7.150000 l 31.878571 7.550000 31.950000 7.750000 31.950000 8.150000 c 31.950000 8.550000 31.878571 8.750000 31.664286 9.150000 c 30.235714 9.150000 l 29.950000 8.150000 l 30.235714 7.150000 l ef
0.000000 0.000000 0.000000 srgb
n 30.235714 7.150000 m 31.664286 7.150000 l 31.878571 7.550000 31.950000 7.750000 31.950000 8.150000 c 31.950000 8.550000 31.878571 8.750000 31.664286 9.150000 c 30.235714 9.150000 l 29.950000 8.150000 l 30.235714 7.150000 l s
0.100000 slw
[] 0 sd
[] 0 sd
0 slc
n 22.201818 12.141175 m 22.211706 12.550161 l s
0 slj
n 21.961779 12.556203 m 22.223791 13.050015 l 22.461633 12.544118 l ef
0.100000 slw
[] 0 sd
0 slj
n 21.961779 12.556203 m 22.223791 13.050015 l 22.461633 12.544118 l cp s
1.000000 1.000000 1.000000 srgb
n 17.750000 13.100000 m 17.750000 15.950000 l 26.700000 15.950000 l 26.700000 13.100000 l f
0.100000 slw
[] 0 sd
[] 0 sd
0 slj
0.000000 0.000000 0.000000 srgb
n 17.750000 13.100000 m 17.750000 15.950000 l 26.700000 15.950000 l 26.700000 13.100000 l cp s
0.100000 slw
[] 0 sd
[] 0 sd
0 slc
n 22.225000 15.950000 m 22.289041 17.910293 l s
0 slj
n 22.039175 17.918456 m 22.305367 18.410027 l 22.538908 17.902130 l ef
0.100000 slw
[] 0 sd
0 slj
n 22.039175 17.918456 m 22.305367 18.410027 l 22.538908 17.902130 l cp s
0.100000 slw
[] 0 sd
[] 0 sd
0 slc
0 slj
0.100000 slw
0 slc
0 slj
[] 0 sd
1.000000 1.000000 1.000000 srgb
n 21.592714 18.460000 m 23.021286 18.460000 l 23.235571 18.860000 23.307000 19.060000 23.307000 19.460000 c 23.307000 19.860000 23.235571 20.060000 23.021286 20.460000 c 21.592714 20.460000 l 21.307000 19.460000 l 21.592714 18.460000 l ef
0.000000 0.000000 0.000000 srgb
n 21.592714 18.460000 m 23.021286 18.460000 l 23.235571 18.860000 23.307000 19.060000 23.307000 19.460000 c 23.307000 19.860000 23.235571 20.060000 23.021286 20.460000 c 21.592714 20.460000 l 21.307000 19.460000 l 21.592714 18.460000 l s
gsave 20.500000 2.650000 translate 0.035278 -0.035278 scale
start_ol
2140 1632 moveto
2295 1581 2442 1413 conicto
2590 1245 2738 952 conicto
3200 0 lineto
2709 0 lineto
2250 893 lineto
2077 1243 1915 1357 conicto
1753 1472 1473 1472 conicto
960 1472 lineto
960 0 lineto
448 0 lineto
448 3520 lineto
1552 3520 lineto
2157 3520 2454 3265 conicto
2752 3010 2752 2496 conicto
2752 2161 2595 1939 conicto
2439 1718 2140 1632 conicto
960 3136 moveto
960 1856 lineto
1552 1856 lineto
1893 1856 2066 2019 conicto
2240 2182 2240 2498 conicto
2240 2815 2066 2975 conicto
1893 3136 1552 3136 conicto
960 3136 lineto
end_ol grestore 
gsave 20.917107 2.650000 translate 0.035278 -0.035278 scale
start_ol
2752 1480 moveto
2752 1280 lineto
704 1280 lineto
733 811 978 565 conicto
1223 320 1660 320 conicto
1914 320 2152 384 conicto
2390 448 2624 576 conicto
2624 192 lineto
2388 67 2140 1 conicto
1893 -64 1639 -64 conicto
1001 -64 628 309 conicto
256 683 256 1320 conicto
256 1979 613 2365 conicto
970 2752 1576 2752 conicto
2120 2752 2436 2410 conicto
2752 2068 2752 1480 conicto
2304 1600 moveto
2299 1950 2099 2159 conicto
1900 2368 1572 2368 conicto
1200 2368 976 2166 conicto
753 1964 719 1597 conicto
2304 1600 lineto
end_ol grestore 
gsave 21.311733 2.650000 translate 0.035278 -0.035278 scale
start_ol
2112 2560 moveto
2112 2176 lineto
1932 2272 1738 2320 conicto
1544 2368 1336 2368 conicto
1020 2368 862 2269 conicto
704 2170 704 1972 conicto
704 1821 814 1735 conicto
925 1649 1260 1571 conicto
1403 1538 lineto
1857 1438 2048 1255 conicto
2240 1072 2240 744 conicto
2240 371 1954 153 conicto
1668 -64 1167 -64 conicto
958 -64 732 -16 conicto
506 32 256 128 conicto
256 576 lineto
491 448 719 384 conicto
947 320 1170 320 conicto
1470 320 1631 425 conicto
1792 531 1792 722 conicto
1792 900 1678 994 conicto
1564 1089 1177 1177 conicto
1032 1212 lineto
621 1298 438 1476 conicto
256 1654 256 1964 conicto
256 2341 520 2546 conicto
784 2752 1269 2752 conicto
1509 2752 1721 2704 conicto
1933 2656 2112 2560 conicto
end_ol grestore 
gsave 21.643918 2.650000 translate 0.035278 -0.035278 scale
start_ol
1473 2368 moveto
1117 2368 910 2094 conicto
704 1820 704 1344 conicto
704 868 909 594 conicto
1115 320 1473 320 conicto
1827 320 2033 595 conicto
2240 870 2240 1344 conicto
2240 1816 2033 2092 conicto
1827 2368 1473 2368 conicto
1472 2752 moveto
2040 2752 2364 2378 conicto
2688 2005 2688 1344 conicto
2688 685 2364 310 conicto
2040 -64 1472 -64 conicto
902 -64 579 310 conicto
256 685 256 1344 conicto
256 2005 579 2378 conicto
902 2752 1472 2752 conicto
end_ol grestore 
gsave 22.036047 2.650000 translate 0.035278 -0.035278 scale
start_ol
448 1040 moveto
448 2688 lineto
896 2688 lineto
896 1057 lineto
896 689 1042 504 conicto
1188 320 1481 320 conicto
1832 320 2036 541 conicto
2240 763 2240 1145 conicto
2240 2688 lineto
2688 2688 lineto
2688 0 lineto
2240 0 lineto
2240 384 lineto
2081 157 1870 46 conicto
1660 -64 1382 -64 conicto
923 -64 685 217 conicto
448 499 448 1040 conicto
1554 2752 moveto
1554 2752 lineto
end_ol grestore 
gsave 22.440661 2.650000 translate 0.035278 -0.035278 scale
start_ol
1984 2304 moveto
1912 2337 1828 2352 conicto
1744 2368 1642 2368 conicto
1282 2368 1089 2127 conicto
896 1887 896 1437 conicto
896 0 lineto
448 0 lineto
448 2688 lineto
896 2688 lineto
896 2304 lineto
1030 2531 1245 2641 conicto
1460 2752 1767 2752 conicto
1811 2752 1864 2752 conicto
1917 2752 1982 2752 conicto
1984 2304 lineto
end_ol grestore 
gsave 22.687922 2.650000 translate 0.035278 -0.035278 scale
start_ol
2368 2560 moveto
2368 2176 lineto
2180 2272 1991 2320 conicto
1803 2368 1611 2368 conicto
1180 2368 942 2099 conicto
704 1830 704 1344 conicto
704 858 942 589 conicto
1180 320 1611 320 conicto
1803 320 1991 368 conicto
2180 416 2368 512 conicto
2368 128 lineto
2184 32 1987 -16 conicto
1791 -64 1569 -64 conicto
966 -64 611 316 conicto
256 697 256 1344 conicto
256 2000 615 2376 conicto
974 2752 1598 2752 conicto
1801 2752 1994 2704 conicto
2187 2656 2368 2560 conicto
end_ol grestore 
gsave 23.040091 2.650000 translate 0.035278 -0.035278 scale
start_ol
2752 1480 moveto
2752 1280 lineto
704 1280 lineto
733 811 978 565 conicto
1223 320 1660 320 conicto
1914 320 2152 384 conicto
2390 448 2624 576 conicto
2624 192 lineto
2388 67 2140 1 conicto
1893 -64 1639 -64 conicto
1001 -64 628 309 conicto
256 683 256 1320 conicto
256 1979 613 2365 conicto
970 2752 1576 2752 conicto
2120 2752 2436 2410 conicto
2752 2068 2752 1480 conicto
2304 1600 moveto
2299 1950 2099 2159 conicto
1900 2368 1572 2368 conicto
1200 2368 976 2166 conicto
753 1964 719 1597 conicto
2304 1600 lineto
end_ol grestore 
gsave 23.434717 2.650000 translate 0.035278 -0.035278 scale
start_ol
end_ol grestore 
gsave 23.637024 2.650000 translate 0.035278 -0.035278 scale
start_ol
1984 2304 moveto
1912 2337 1828 2352 conicto
1744 2368 1642 2368 conicto
1282 2368 1089 2127 conicto
896 1887 896 1437 conicto
896 0 lineto
448 0 lineto
448 2688 lineto
896 2688 lineto
896 2304 lineto
1030 2531 1245 2641 conicto
1460 2752 1767 2752 conicto
1811 2752 1864 2752 conicto
1917 2752 1982 2752 conicto
1984 2304 lineto
end_ol grestore 
gsave 28.100000 7.900000 translate 0.035278 -0.035278 scale
start_ol
448 3520 moveto
1131 3520 lineto
2624 575 lineto
2624 3520 lineto
3136 3520 lineto
3136 0 lineto
2453 0 lineto
960 2945 lineto
960 0 lineto
448 0 lineto
448 3520 lineto
end_ol grestore 
gsave 28.579549 7.900000 translate 0.035278 -0.035278 scale
start_ol
1473 2368 moveto
1117 2368 910 2094 conicto
704 1820 704 1344 conicto
704 868 909 594 conicto
1115 320 1473 320 conicto
1827 320 2033 595 conicto
2240 870 2240 1344 conicto
2240 1816 2033 2092 conicto
1827 2368 1473 2368 conicto
1472 2752 moveto
2040 2752 2364 2378 conicto
2688 2005 2688 1344 conicto
2688 685 2364 310 conicto
2040 -64 1472 -64 conicto
902 -64 579 310 conicto
256 685 256 1344 conicto
256 2005 579 2378 conicto
902 2752 1472 2752 conicto
end_ol grestore 
gsave 30.335700 8.350000 translate 0.035278 -0.035278 scale
start_ol
448 3520 moveto
2688 3520 lineto
2688 3136 lineto
960 3136 lineto
960 2112 lineto
2624 2112 lineto
2624 1728 lineto
960 1728 lineto
960 384 lineto
2752 384 lineto
2752 0 lineto
448 0 lineto
448 3520 lineto
end_ol grestore 
gsave 30.740314 8.350000 translate 0.035278 -0.035278 scale
start_ol
448 3520 moveto
1131 3520 lineto
2624 575 lineto
2624 3520 lineto
3136 3520 lineto
3136 0 lineto
2453 0 lineto
960 2945 lineto
960 0 lineto
448 0 lineto
448 3520 lineto
end_ol grestore 
gsave 31.219863 8.350000 translate 0.035278 -0.035278 scale
start_ol
960 3136 moveto
960 384 lineto
1536 384 lineto
2266 384 2605 716 conicto
2944 1048 2944 1764 conicto
2944 2475 2605 2805 conicto
2266 3136 1536 3136 conicto
960 3136 lineto
448 3520 moveto
1463 3520 lineto
2493 3520 2974 3094 conicto
3456 2669 3456 1764 conicto
3456 853 2972 426 conicto
2488 0 1463 0 conicto
448 0 lineto
448 3520 lineto
end_ol grestore 
gsave 18.325000 14.325000 translate 0.035278 -0.035278 scale
start_ol
2816 504 moveto
2816 1472 lineto
2048 1472 lineto
2048 1856 lineto
3328 1856 lineto
3328 325 lineto
3052 133 2720 34 conicto
2388 -64 2011 -64 conicto
1187 -64 721 417 conicto
256 899 256 1759 conicto
256 2621 725 3102 conicto
1195 3584 2028 3584 conicto
2375 3584 2687 3503 conicto
3000 3422 3264 3264 conicto
3264 2752 lineto
2998 2975 2699 3087 conicto
2400 3200 2071 3200 conicto
1420 3200 1094 2838 conicto
768 2476 768 1759 conicto
768 1044 1084 682 conicto
1400 320 2030 320 conicto
2276 320 2469 365 conicto
2662 410 2816 504 conicto
end_ol grestore 
gsave 18.819531 14.325000 translate 0.035278 -0.035278 scale
start_ol
2752 1480 moveto
2752 1280 lineto
704 1280 lineto
733 811 978 565 conicto
1223 320 1660 320 conicto
1914 320 2152 384 conicto
2390 448 2624 576 conicto
2624 192 lineto
2388 67 2140 1 conicto
1893 -64 1639 -64 conicto
1001 -64 628 309 conicto
256 683 256 1320 conicto
256 1979 613 2365 conicto
970 2752 1576 2752 conicto
2120 2752 2436 2410 conicto
2752 2068 2752 1480 conicto
2304 1600 moveto
2299 1950 2099 2159 conicto
1900 2368 1572 2368 conicto
1200 2368 976 2166 conicto
753 1964 719 1597 conicto
2304 1600 lineto
end_ol grestore 
gsave 19.214157 14.325000 translate 0.035278 -0.035278 scale
start_ol
2688 1646 moveto
2688 0 lineto
2240 0 lineto
2240 1632 lineto
2240 2001 2093 2184 conicto
1947 2368 1654 2368 conicto
1302 2368 1099 2146 conicto
896 1925 896 1542 conicto
896 0 lineto
448 0 lineto
448 2688 lineto
896 2688 lineto
896 2304 lineto
1053 2529 1266 2640 conicto
1479 2752 1757 2752 conicto
2217 2752 2452 2471 conicto
2688 2191 2688 1646 conicto
end_ol grestore 
gsave 19.618771 14.325000 translate 0.035278 -0.035278 scale
start_ol
2752 1480 moveto
2752 1280 lineto
704 1280 lineto
733 811 978 565 conicto
1223 320 1660 320 conicto
1914 320 2152 384 conicto
2390 448 2624 576 conicto
2624 192 lineto
2388 67 2140 1 conicto
1893 -64 1639 -64 conicto
1001 -64 628 309 conicto
256 683 256 1320 conicto
256 1979 613 2365 conicto
970 2752 1576 2752 conicto
2120 2752 2436 2410 conicto
2752 2068 2752 1480 conicto
2304 1600 moveto
2299 1950 2099 2159 conicto
1900 2368 1572 2368 conicto
1200 2368 976 2166 conicto
753 1964 719 1597 conicto
2304 1600 lineto
end_ol grestore 
gsave 20.013397 14.325000 translate 0.035278 -0.035278 scale
start_ol
1984 2304 moveto
1912 2337 1828 2352 conicto
1744 2368 1642 2368 conicto
1282 2368 1089 2127 conicto
896 1887 896 1437 conicto
896 0 lineto
448 0 lineto
448 2688 lineto
896 2688 lineto
896 2304 lineto
1030 2531 1245 2641 conicto
1460 2752 1767 2752 conicto
1811 2752 1864 2752 conicto
1917 2752 1982 2752 conicto
1984 2304 lineto
end_ol grestore 
gsave 20.275649 14.325000 translate 0.035278 -0.035278 scale
start_ol
1622 1344 moveto
1104 1344 904 1225 conicto
704 1106 704 818 conicto
704 589 854 454 conicto
1004 320 1262 320 conicto
1618 320 1833 572 conicto
2048 825 2048 1244 conicto
2048 1344 lineto
1622 1344 lineto
2496 1513 moveto
2496 0 lineto
2048 0 lineto
2048 384 lineto
1900 154 1679 45 conicto
1458 -64 1138 -64 conicto
733 -64 494 162 conicto
256 389 256 769 conicto
256 1213 555 1438 conicto
854 1664 1448 1664 conicto
2048 1664 lineto
2048 1712 lineto
2048 2025 1851 2196 conicto
1655 2368 1300 2368 conicto
1074 2368 860 2320 conicto
646 2272 448 2176 conicto
448 2560 lineto
687 2656 912 2704 conicto
1138 2752 1351 2752 conicto
1927 2752 2211 2444 conicto
2496 2137 2496 1513 conicto
end_ol grestore 
gsave 20.667778 14.325000 translate 0.035278 -0.035278 scale
start_ol
896 3456 moveto
896 2688 lineto
1792 2688 lineto
1792 2368 lineto
896 2368 lineto
896 902 lineto
896 572 984 478 conicto
1073 384 1345 384 conicto
1792 384 lineto
1792 0 lineto
1345 0 lineto
836 0 642 194 conicto
448 389 448 902 conicto
448 2368 lineto
128 2368 lineto
128 2688 lineto
448 2688 lineto
448 3456 lineto
896 3456 lineto
end_ol grestore 
gsave 20.917545 14.325000 translate 0.035278 -0.035278 scale
start_ol
2752 1480 moveto
2752 1280 lineto
704 1280 lineto
733 811 978 565 conicto
1223 320 1660 320 conicto
1914 320 2152 384 conicto
2390 448 2624 576 conicto
2624 192 lineto
2388 67 2140 1 conicto
1893 -64 1639 -64 conicto
1001 -64 628 309 conicto
256 683 256 1320 conicto
256 1979 613 2365 conicto
970 2752 1576 2752 conicto
2120 2752 2436 2410 conicto
2752 2068 2752 1480 conicto
2304 1600 moveto
2299 1950 2099 2159 conicto
1900 2368 1572 2368 conicto
1200 2368 976 2166 conicto
753 1964 719 1597 conicto
2304 1600 lineto
end_ol grestore 
gsave 21.312171 14.325000 translate 0.035278 -0.035278 scale
start_ol
end_ol grestore 
gsave 21.514478 14.325000 translate 0.035278 -0.035278 scale
start_ol
1622 1344 moveto
1104 1344 904 1225 conicto
704 1106 704 818 conicto
704 589 854 454 conicto
1004 320 1262 320 conicto
1618 320 1833 572 conicto
2048 825 2048 1244 conicto
2048 1344 lineto
1622 1344 lineto
2496 1513 moveto
2496 0 lineto
2048 0 lineto
2048 384 lineto
1900 154 1679 45 conicto
1458 -64 1138 -64 conicto
733 -64 494 162 conicto
256 389 256 769 conicto
256 1213 555 1438 conicto
854 1664 1448 1664 conicto
2048 1664 lineto
2048 1712 lineto
2048 2025 1851 2196 conicto
1655 2368 1300 2368 conicto
1074 2368 860 2320 conicto
646 2272 448 2176 conicto
448 2560 lineto
687 2656 912 2704 conicto
1138 2752 1351 2752 conicto
1927 2752 2211 2444 conicto
2496 2137 2496 1513 conicto
end_ol grestore 
gsave 21.906607 14.325000 translate 0.035278 -0.035278 scale
start_ol
2688 1646 moveto
2688 0 lineto
2240 0 lineto
2240 1632 lineto
2240 2001 2093 2184 conicto
1947 2368 1654 2368 conicto
1302 2368 1099 2146 conicto
896 1925 896 1542 conicto
896 0 lineto
448 0 lineto
448 2688 lineto
896 2688 lineto
896 2304 lineto
1053 2529 1266 2640 conicto
1479 2752 1757 2752 conicto
2217 2752 2452 2471 conicto
2688 2191 2688 1646 conicto
end_ol grestore 
gsave 22.311221 14.325000 translate 0.035278 -0.035278 scale
start_ol
2176 2304 moveto
2176 3712 lineto
2624 3712 lineto
2624 0 lineto
2176 0 lineto
2176 384 lineto
2040 157 1832 46 conicto
1624 -64 1332 -64 conicto
855 -64 555 324 conicto
256 712 256 1344 conicto
256 1976 555 2364 conicto
855 2752 1332 2752 conicto
1624 2752 1832 2641 conicto
2040 2531 2176 2304 conicto
704 1344 moveto
704 865 900 592 conicto
1096 320 1439 320 conicto
1782 320 1979 592 conicto
2176 865 2176 1344 conicto
2176 1823 1979 2095 conicto
1782 2368 1439 2368 conicto
1096 2368 900 2095 conicto
704 1823 704 1344 conicto
end_ol grestore 
gsave 22.718340 14.325000 translate 0.035278 -0.035278 scale
start_ol
end_ol grestore 
gsave 22.920647 14.325000 translate 0.035278 -0.035278 scale
start_ol
448 2688 moveto
896 2688 lineto
896 0 lineto
448 0 lineto
448 2688 lineto
448 3712 moveto
896 3712 lineto
896 3136 lineto
448 3136 lineto
448 3712 lineto
end_ol grestore 
gsave 23.097976 14.325000 translate 0.035278 -0.035278 scale
start_ol
2688 1646 moveto
2688 0 lineto
2240 0 lineto
2240 1632 lineto
2240 2001 2093 2184 conicto
1947 2368 1654 2368 conicto
1302 2368 1099 2146 conicto
896 1925 896 1542 conicto
896 0 lineto
448 0 lineto
448 2688 lineto
896 2688 lineto
896 2304 lineto
1053 2529 1266 2640 conicto
1479 2752 1757 2752 conicto
2217 2752 2452 2471 conicto
2688 2191 2688 1646 conicto
end_ol grestore 
gsave 23.502590 14.325000 translate 0.035278 -0.035278 scale
start_ol
2112 2560 moveto
2112 2176 lineto
1932 2272 1738 2320 conicto
1544 2368 1336 2368 conicto
1020 2368 862 2269 conicto
704 2170 704 1972 conicto
704 1821 814 1735 conicto
925 1649 1260 1571 conicto
1403 1538 lineto
1857 1438 2048 1255 conicto
2240 1072 2240 744 conicto
2240 371 1954 153 conicto
1668 -64 1167 -64 conicto
958 -64 732 -16 conicto
506 32 256 128 conicto
256 576 lineto
491 448 719 384 conicto
947 320 1170 320 conicto
1470 320 1631 425 conicto
1792 531 1792 722 conicto
1792 900 1678 994 conicto
1564 1089 1177 1177 conicto
1032 1212 lineto
621 1298 438 1476 conicto
256 1654 256 1964 conicto
256 2341 520 2546 conicto
784 2752 1269 2752 conicto
1509 2752 1721 2704 conicto
1933 2656 2112 2560 conicto
end_ol grestore 
gsave 23.834774 14.325000 translate 0.035278 -0.035278 scale
start_ol
2752 1480 moveto
2752 1280 lineto
704 1280 lineto
733 811 978 565 conicto
1223 320 1660 320 conicto
1914 320 2152 384 conicto
2390 448 2624 576 conicto
2624 192 lineto
2388 67 2140 1 conicto
1893 -64 1639 -64 conicto
1001 -64 628 309 conicto
256 683 256 1320 conicto
256 1979 613 2365 conicto
970 2752 1576 2752 conicto
2120 2752 2436 2410 conicto
2752 2068 2752 1480 conicto
2304 1600 moveto
2299 1950 2099 2159 conicto
1900 2368 1572 2368 conicto
1200 2368 976 2166 conicto
753 1964 719 1597 conicto
2304 1600 lineto
end_ol grestore 
gsave 24.229400 14.325000 translate 0.035278 -0.035278 scale
start_ol
1984 2304 moveto
1912 2337 1828 2352 conicto
1744 2368 1642 2368 conicto
1282 2368 1089 2127 conicto
896 1887 896 1437 conicto
896 0 lineto
448 0 lineto
448 2688 lineto
896 2688 lineto
896 2304 lineto
1030 2531 1245 2641 conicto
1460 2752 1767 2752 conicto
1811 2752 1864 2752 conicto
1917 2752 1982 2752 conicto
1984 2304 lineto
end_ol grestore 
gsave 24.491652 14.325000 translate 0.035278 -0.035278 scale
start_ol
896 3456 moveto
896 2688 lineto
1792 2688 lineto
1792 2368 lineto
896 2368 lineto
896 902 lineto
896 572 984 478 conicto
1073 384 1345 384 conicto
1792 384 lineto
1792 0 lineto
1345 0 lineto
836 0 642 194 conicto
448 389 448 902 conicto
448 2368 lineto
128 2368 lineto
128 2688 lineto
448 2688 lineto
448 3456 lineto
896 3456 lineto
end_ol grestore 
gsave 24.741419 14.325000 translate 0.035278 -0.035278 scale
start_ol
end_ol grestore 
gsave 24.943726 14.325000 translate 0.035278 -0.035278 scale
start_ol
2140 1632 moveto
2295 1581 2442 1413 conicto
2590 1245 2738 952 conicto
3200 0 lineto
2709 0 lineto
2250 893 lineto
2077 1243 1915 1357 conicto
1753 1472 1473 1472 conicto
960 1472 lineto
960 0 lineto
448 0 lineto
448 3520 lineto
1552 3520 lineto
2157 3520 2454 3265 conicto
2752 3010 2752 2496 conicto
2752 2161 2595 1939 conicto
2439 1718 2140 1632 conicto
960 3136 moveto
960 1856 lineto
1552 1856 lineto
1893 1856 2066 2019 conicto
2240 2182 2240 2498 conicto
2240 2815 2066 2975 conicto
1893 3136 1552 3136 conicto
960 3136 lineto
end_ol grestore 
gsave 25.388308 14.325000 translate 0.035278 -0.035278 scale
start_ol
960 3136 moveto
960 1792 lineto
1552 1792 lineto
1881 1792 2060 1967 conicto
2240 2142 2240 2465 conicto
2240 2786 2060 2961 conicto
1881 3136 1552 3136 conicto
960 3136 lineto
448 3520 moveto
1552 3520 lineto
2145 3520 2448 3251 conicto
2752 2983 2752 2465 conicto
2752 1943 2448 1675 conicto
2145 1408 1552 1408 conicto
960 1408 lineto
960 0 lineto
448 0 lineto
448 3520 lineto
end_ol grestore 
gsave 25.772946 14.325000 translate 0.035278 -0.035278 scale
start_ol
960 3136 moveto
960 1792 lineto
1552 1792 lineto
1881 1792 2060 1967 conicto
2240 2142 2240 2465 conicto
2240 2786 2060 2961 conicto
1881 3136 1552 3136 conicto
960 3136 lineto
448 3520 moveto
1552 3520 lineto
2145 3520 2448 3251 conicto
2752 2983 2752 2465 conicto
2752 1943 2448 1675 conicto
2145 1408 1552 1408 conicto
960 1408 lineto
960 0 lineto
448 0 lineto
448 3520 lineto
end_ol grestore 
gsave 18.325000 15.125000 translate 0.035278 -0.035278 scale
start_ol
end_ol grestore 
gsave 18.527307 15.125000 translate 0.035278 -0.035278 scale
start_ol
448 2688 moveto
896 2688 lineto
896 0 lineto
448 0 lineto
448 2688 lineto
448 3712 moveto
896 3712 lineto
896 3136 lineto
448 3136 lineto
448 3712 lineto
end_ol grestore 
gsave 18.704636 15.125000 translate 0.035278 -0.035278 scale
start_ol
2688 1646 moveto
2688 0 lineto
2240 0 lineto
2240 1632 lineto
2240 2001 2093 2184 conicto
1947 2368 1654 2368 conicto
1302 2368 1099 2146 conicto
896 1925 896 1542 conicto
896 0 lineto
448 0 lineto
448 2688 lineto
896 2688 lineto
896 2304 lineto
1053 2529 1266 2640 conicto
1479 2752 1757 2752 conicto
2217 2752 2452 2471 conicto
2688 2191 2688 1646 conicto
end_ol grestore 
gsave 19.109250 15.125000 translate 0.035278 -0.035278 scale
start_ol
2176 2304 moveto
2176 3712 lineto
2624 3712 lineto
2624 0 lineto
2176 0 lineto
2176 384 lineto
2040 157 1832 46 conicto
1624 -64 1332 -64 conicto
855 -64 555 324 conicto
256 712 256 1344 conicto
256 1976 555 2364 conicto
855 2752 1332 2752 conicto
1624 2752 1832 2641 conicto
2040 2531 2176 2304 conicto
704 1344 moveto
704 865 900 592 conicto
1096 320 1439 320 conicto
1782 320 1979 592 conicto
2176 865 2176 1344 conicto
2176 1823 1979 2095 conicto
1782 2368 1439 2368 conicto
1096 2368 900 2095 conicto
704 1823 704 1344 conicto
end_ol grestore 
gsave 19.516369 15.125000 translate 0.035278 -0.035278 scale
start_ol
2752 1480 moveto
2752 1280 lineto
704 1280 lineto
733 811 978 565 conicto
1223 320 1660 320 conicto
1914 320 2152 384 conicto
2390 448 2624 576 conicto
2624 192 lineto
2388 67 2140 1 conicto
1893 -64 1639 -64 conicto
1001 -64 628 309 conicto
256 683 256 1320 conicto
256 1979 613 2365 conicto
970 2752 1576 2752 conicto
2120 2752 2436 2410 conicto
2752 2068 2752 1480 conicto
2304 1600 moveto
2299 1950 2099 2159 conicto
1900 2368 1572 2368 conicto
1200 2368 976 2166 conicto
753 1964 719 1597 conicto
2304 1600 lineto
end_ol grestore 
gsave 19.901007 15.125000 translate 0.035278 -0.035278 scale
start_ol
2624 2688 moveto
1666 1380 lineto
2688 0 lineto
2169 0 lineto
1389 1056 lineto
632 0 lineto
128 0 lineto
1134 1406 lineto
192 2688 lineto
705 2688 lineto
1408 1730 lineto
2111 2688 lineto
2624 2688 lineto
end_ol grestore 
gsave 20.280651 15.125000 translate 0.035278 -0.035278 scale
start_ol
end_ol grestore 
gsave 20.482958 15.125000 translate 0.035278 -0.035278 scale
start_ol
2752 1480 moveto
2752 1280 lineto
704 1280 lineto
733 811 978 565 conicto
1223 320 1660 320 conicto
1914 320 2152 384 conicto
2390 448 2624 576 conicto
2624 192 lineto
2388 67 2140 1 conicto
1893 -64 1639 -64 conicto
1001 -64 628 309 conicto
256 683 256 1320 conicto
256 1979 613 2365 conicto
970 2752 1576 2752 conicto
2120 2752 2436 2410 conicto
2752 2068 2752 1480 conicto
2304 1600 moveto
2299 1950 2099 2159 conicto
1900 2368 1572 2368 conicto
1200 2368 976 2166 conicto
753 1964 719 1597 conicto
2304 1600 lineto
end_ol grestore 
gsave 20.877584 15.125000 translate 0.035278 -0.035278 scale
start_ol
2688 1646 moveto
2688 0 lineto
2240 0 lineto
2240 1632 lineto
2240 2001 2093 2184 conicto
1947 2368 1654 2368 conicto
1302 2368 1099 2146 conicto
896 1925 896 1542 conicto
896 0 lineto
448 0 lineto
448 2688 lineto
896 2688 lineto
896 2304 lineto
1053 2529 1266 2640 conicto
1479 2752 1757 2752 conicto
2217 2752 2452 2471 conicto
2688 2191 2688 1646 conicto
end_ol grestore 
gsave 21.282198 15.125000 translate 0.035278 -0.035278 scale
start_ol
896 3456 moveto
896 2688 lineto
1792 2688 lineto
1792 2368 lineto
896 2368 lineto
896 902 lineto
896 572 984 478 conicto
1073 384 1345 384 conicto
1792 384 lineto
1792 0 lineto
1345 0 lineto
836 0 642 194 conicto
448 389 448 902 conicto
448 2368 lineto
128 2368 lineto
128 2688 lineto
448 2688 lineto
448 3456 lineto
896 3456 lineto
end_ol grestore 
gsave 21.531965 15.125000 translate 0.035278 -0.035278 scale
start_ol
1984 2304 moveto
1912 2337 1828 2352 conicto
1744 2368 1642 2368 conicto
1282 2368 1089 2127 conicto
896 1887 896 1437 conicto
896 0 lineto
448 0 lineto
448 2688 lineto
896 2688 lineto
896 2304 lineto
1030 2531 1245 2641 conicto
1460 2752 1767 2752 conicto
1811 2752 1864 2752 conicto
1917 2752 1982 2752 conicto
1984 2304 lineto
end_ol grestore 
gsave 21.794217 15.125000 translate 0.035278 -0.035278 scale
start_ol
1542 -238 moveto
1360 -726 1187 -875 conicto
1015 -1024 726 -1024 conicto
384 -1024 lineto
384 -640 lineto
636 -640 lineto
813 -640 910 -555 conicto
1008 -470 1127 -155 conicto
1204 46 lineto
128 2688 lineto
603 2688 lineto
1418 586 lineto
2234 2688 lineto
2688 2688 lineto
1542 -238 lineto
end_ol grestore 
gsave 22.173861 15.125000 translate 0.035278 -0.035278 scale
start_ol
end_ol grestore 
gsave 22.376168 15.125000 translate 0.035278 -0.035278 scale
start_ol
1792 3712 moveto
1792 3328 lineto
1369 3328 lineto
1139 3328 1049 3237 conicto
960 3147 960 2912 conicto
960 2688 lineto
1664 2688 lineto
1664 2368 lineto
960 2368 lineto
960 0 lineto
512 0 lineto
512 2368 lineto
64 2368 lineto
64 2688 lineto
512 2688 lineto
512 2864 lineto
512 3307 718 3509 conicto
925 3712 1374 3712 conicto
1792 3712 lineto
end_ol grestore 
gsave 22.600956 15.125000 translate 0.035278 -0.035278 scale
start_ol
1473 2368 moveto
1117 2368 910 2094 conicto
704 1820 704 1344 conicto
704 868 909 594 conicto
1115 320 1473 320 conicto
1827 320 2033 595 conicto
2240 870 2240 1344 conicto
2240 1816 2033 2092 conicto
1827 2368 1473 2368 conicto
1472 2752 moveto
2040 2752 2364 2378 conicto
2688 2005 2688 1344 conicto
2688 685 2364 310 conicto
2040 -64 1472 -64 conicto
902 -64 579 310 conicto
256 685 256 1344 conicto
256 2005 579 2378 conicto
902 2752 1472 2752 conicto
end_ol grestore 
gsave 22.993085 15.125000 translate 0.035278 -0.035278 scale
start_ol
1984 2304 moveto
1912 2337 1828 2352 conicto
1744 2368 1642 2368 conicto
1282 2368 1089 2127 conicto
896 1887 896 1437 conicto
896 0 lineto
448 0 lineto
448 2688 lineto
896 2688 lineto
896 2304 lineto
1030 2531 1245 2641 conicto
1460 2752 1767 2752 conicto
1811 2752 1864 2752 conicto
1917 2752 1982 2752 conicto
1984 2304 lineto
end_ol grestore 
gsave 23.255337 15.125000 translate 0.035278 -0.035278 scale
start_ol
end_ol grestore 
gsave 23.457644 15.125000 translate 0.035278 -0.035278 scale
start_ol
1984 2304 moveto
1912 2337 1828 2352 conicto
1744 2368 1642 2368 conicto
1282 2368 1089 2127 conicto
896 1887 896 1437 conicto
896 0 lineto
448 0 lineto
448 2688 lineto
896 2688 lineto
896 2304 lineto
1030 2531 1245 2641 conicto
1460 2752 1767 2752 conicto
1811 2752 1864 2752 conicto
1917 2752 1982 2752 conicto
1984 2304 lineto
end_ol grestore 
gsave 23.719896 15.125000 translate 0.035278 -0.035278 scale
start_ol
end_ol grestore 
gsave 21.692700 19.660000 translate 0.035278 -0.035278 scale
start_ol
448 3520 moveto
2688 3520 lineto
2688 3136 lineto
960 3136 lineto
960 2112 lineto
2624 2112 lineto
2624 1728 lineto
960 1728 lineto
960 384 lineto
2752 384 lineto
2752 0 lineto
448 0 lineto
448 3520 lineto
end_ol grestore 
gsave 22.097314 19.660000 translate 0.035278 -0.035278 scale
start_ol
448 3520 moveto
1131 3520 lineto
2624 575 lineto
2624 3520 lineto
3136 3520 lineto
3136 0 lineto
2453 0 lineto
960 2945 lineto
960 0 lineto
448 0 lineto
448 3520 lineto
end_ol grestore 
gsave 22.576863 19.660000 translate 0.035278 -0.035278 scale
start_ol
960 3136 moveto
960 384 lineto
1536 384 lineto
2266 384 2605 716 conicto
2944 1048 2944 1764 conicto
2944 2475 2605 2805 conicto
2266 3136 1536 3136 conicto
960 3136 lineto
448 3520 moveto
1463 3520 lineto
2493 3520 2974 3094 conicto
3456 2669 3456 1764 conicto
3456 853 2972 426 conicto
2488 0 1463 0 conicto
448 0 lineto
448 3520 lineto
end_ol grestore 
gsave 22.800000 12.637500 translate 0.035278 -0.035278 scale
start_ol
-64 3520 moveto
466 3520 lineto
1476 2072 lineto
2479 3520 lineto
3008 3520 lineto
1728 1676 lineto
1728 0 lineto
1216 0 lineto
1216 1676 lineto
-64 3520 lineto
end_ol grestore 
gsave 23.104709 12.637500 translate 0.035278 -0.035278 scale
start_ol
2752 1480 moveto
2752 1280 lineto
704 1280 lineto
733 811 978 565 conicto
1223 320 1660 320 conicto
1914 320 2152 384 conicto
2390 448 2624 576 conicto
2624 192 lineto
2388 67 2140 1 conicto
1893 -64 1639 -64 conicto
1001 -64 628 309 conicto
256 683 256 1320 conicto
256 1979 613 2365 conicto
970 2752 1576 2752 conicto
2120 2752 2436 2410 conicto
2752 2068 2752 1480 conicto
2304 1600 moveto
2299 1950 2099 2159 conicto
1900 2368 1572 2368 conicto
1200 2368 976 2166 conicto
753 1964 719 1597 conicto
2304 1600 lineto
end_ol grestore 
gsave 23.499335 12.637500 translate 0.035278 -0.035278 scale
start_ol
2112 2560 moveto
2112 2176 lineto
1932 2272 1738 2320 conicto
1544 2368 1336 2368 conicto
1020 2368 862 2269 conicto
704 2170 704 1972 conicto
704 1821 814 1735 conicto
925 1649 1260 1571 conicto
1403 1538 lineto
1857 1438 2048 1255 conicto
2240 1072 2240 744 conicto
2240 371 1954 153 conicto
1668 -64 1167 -64 conicto
958 -64 732 -16 conicto
506 32 256 128 conicto
256 576 lineto
491 448 719 384 conicto
947 320 1170 320 conicto
1470 320 1631 425 conicto
1792 531 1792 722 conicto
1792 900 1678 994 conicto
1564 1089 1177 1177 conicto
1032 1212 lineto
621 1298 438 1476 conicto
256 1654 256 1964 conicto
256 2341 520 2546 conicto
784 2752 1269 2752 conicto
1509 2752 1721 2704 conicto
1933 2656 2112 2560 conicto
end_ol grestore 
showpage
