#FIG 3.2  Produced by xfig version 3.2.5a
Landscape
Center
Metric
A4      
100.00
Single
-2
1200 2
6 8910 5265 9540 5625
4 0 0 50 -1 0 10 0.0000 4 150 615 8910 5400 Complete\001
4 0 0 50 -1 0 10 0.0000 4 150 450 9045 5580 privacy\001
-6
6 4005 1530 4635 1890
4 0 0 50 -1 0 10 0.0000 4 150 615 4005 1665 Complete\001
4 0 0 50 -1 0 10 0.0000 4 150 450 4140 1845 privacy\001
-6
1 3 0 1 0 0 50 -1 20 0.000 1 0.0000 9405 1601 64 64 9405 1601 9469 1601
1 3 0 1 0 0 50 -1 20 0.000 1 0.0000 4725 5220 64 64 4725 5220 4789 5220
1 3 0 1 0 0 50 -1 20 0.000 1 0.0000 4706 1575 64 64 4706 1575 4770 1575
1 3 0 1 0 0 50 -1 20 0.000 1 0.0000 8813 1943 64 64 8813 1943 8877 1943
2 1 0 1 0 7 50 -1 -1 0.000 0 0 -1 0 1 2
	2 1 1.00 60.00 120.00
	 4725 1260 4725 5535
2 1 0 1 0 7 50 -1 -1 0.000 0 0 -1 1 0 2
	2 1 1.00 60.00 120.00
	 4500 5220 9630 5220
2 1 2 1 0 7 50 -1 -1 3.000 0 0 -1 0 0 2
	 9405 5220 9405 1575
2 1 2 1 0 7 50 -1 -1 3.000 0 0 -1 0 0 2
	 4725 1575 9450 1575
4 0 0 50 -1 0 10 0.0000 4 105 285 4365 5445 Zero\001
4 0 0 50 -1 0 10 0.0000 4 150 450 4185 5625 privacy\001
4 0 0 50 -1 0 10 0.0000 4 105 840 9225 1485 Unstructured\001
4 0 0 50 -1 0 10 0.0000 4 105 660 4815 5085 Structured\001
4 0 0 50 -1 0 12 1.5708 4 180 1350 4545 4050 Provider privacy\001
4 0 0 50 -1 0 12 0.0000 4 180 1410 6210 5490 Resource privacy\001
4 0 0 50 -1 0 10 0.0000 4 105 765 8415 2160 PANACEA\001
