%!PS-Adobe-2.0 EPSF-2.0
%%Title: privacy-graph.fig
%%Creator: fig2dev Version 3.2 Patchlevel 5a
%%CreationDate: Thu Nov 19 17:30:02 2009
%%BoundingBox: 0 0 385 280
%Magnification: 1.0000
%%EndComments
%%BeginProlog
/$F2psDict 200 dict def
$F2psDict begin
$F2psDict /mtrx matrix put
/col-1 {0 setgray} bind def
/col0 {0.000 0.000 0.000 srgb} bind def
/col1 {0.000 0.000 1.000 srgb} bind def
/col2 {0.000 1.000 0.000 srgb} bind def
/col3 {0.000 1.000 1.000 srgb} bind def
/col4 {1.000 0.000 0.000 srgb} bind def
/col5 {1.000 0.000 1.000 srgb} bind def
/col6 {1.000 1.000 0.000 srgb} bind def
/col7 {1.000 1.000 1.000 srgb} bind def
/col8 {0.000 0.000 0.560 srgb} bind def
/col9 {0.000 0.000 0.690 srgb} bind def
/col10 {0.000 0.000 0.820 srgb} bind def
/col11 {0.530 0.810 1.000 srgb} bind def
/col12 {0.000 0.560 0.000 srgb} bind def
/col13 {0.000 0.690 0.000 srgb} bind def
/col14 {0.000 0.820 0.000 srgb} bind def
/col15 {0.000 0.560 0.560 srgb} bind def
/col16 {0.000 0.690 0.690 srgb} bind def
/col17 {0.000 0.820 0.820 srgb} bind def
/col18 {0.560 0.000 0.000 srgb} bind def
/col19 {0.690 0.000 0.000 srgb} bind def
/col20 {0.820 0.000 0.000 srgb} bind def
/col21 {0.560 0.000 0.560 srgb} bind def
/col22 {0.690 0.000 0.690 srgb} bind def
/col23 {0.820 0.000 0.820 srgb} bind def
/col24 {0.500 0.190 0.000 srgb} bind def
/col25 {0.630 0.250 0.000 srgb} bind def
/col26 {0.750 0.380 0.000 srgb} bind def
/col27 {1.000 0.500 0.500 srgb} bind def
/col28 {1.000 0.630 0.630 srgb} bind def
/col29 {1.000 0.750 0.750 srgb} bind def
/col30 {1.000 0.880 0.880 srgb} bind def
/col31 {1.000 0.840 0.000 srgb} bind def

end

/cp {closepath} bind def
/ef {eofill} bind def
/gr {grestore} bind def
/gs {gsave} bind def
/sa {save} bind def
/rs {restore} bind def
/l {lineto} bind def
/m {moveto} bind def
/rm {rmoveto} bind def
/n {newpath} bind def
/s {stroke} bind def
/sh {show} bind def
/slc {setlinecap} bind def
/slj {setlinejoin} bind def
/slw {setlinewidth} bind def
/srgb {setrgbcolor} bind def
/rot {rotate} bind def
/sc {scale} bind def
/sd {setdash} bind def
/ff {findfont} bind def
/sf {setfont} bind def
/scf {scalefont} bind def
/sw {stringwidth} bind def
/tr {translate} bind def
/tnt {dup dup currentrgbcolor
  4 -2 roll dup 1 exch sub 3 -1 roll mul add
  4 -2 roll dup 1 exch sub 3 -1 roll mul add
  4 -2 roll dup 1 exch sub 3 -1 roll mul add srgb}
  bind def
/shd {dup dup currentrgbcolor 4 -2 roll mul 4 -2 roll mul
  4 -2 roll mul srgb} bind def
 /DrawEllipse {
	/endangle exch def
	/startangle exch def
	/yrad exch def
	/xrad exch def
	/y exch def
	/x exch def
	/savematrix mtrx currentmatrix def
	x y tr xrad yrad sc 0 0 1 startangle endangle arc
	closepath
	savematrix setmatrix
	} def

/$F2psBegin {$F2psDict begin /$F2psEnteredState save def} def
/$F2psEnd {$F2psEnteredState restore end} def

/pageheader {
save
newpath 0 280 moveto 0 0 lineto 385 0 lineto 385 280 lineto closepath clip newpath
-251.3 358.1 translate
1 -1 scale
$F2psBegin
10 setmiterlimit
0 slj 0 slc
 0.06299 0.06299 sc
} bind def
/pagefooter {
$F2psEnd
restore
} bind def
%%EndProlog
pageheader
%
% Fig objects follow
%
% 
% here starts figure with depth 50
% Ellipse
7.500 slw
n 9405 1601 64 64 0 360 DrawEllipse gs 0.00 setgray ef gr gs col0 s gr

% Ellipse
n 4725 5220 64 64 0 360 DrawEllipse gs 0.00 setgray ef gr gs col0 s gr

% Ellipse
n 4706 1575 64 64 0 360 DrawEllipse gs 0.00 setgray ef gr gs col0 s gr

% Ellipse
n 8813 1943 64 64 0 360 DrawEllipse gs 0.00 setgray ef gr gs col0 s gr

% Polyline
0 slj
0 slc
gs  clippath
4755 1430 m 4755 1245 l 4695 1245 l 4695 1430 l 4695 1430 l 4725 1280 l 4755 1430 l cp
eoclip
n 4725 1260 m
 4725 5535 l gs col0 s gr gr

% arrowhead
n 4755 1430 m 4725 1280 l 4695 1430 l 4725 1400 l 4755 1430 l 
 cp gs 0.00 setgray ef gr  col0 s
% Polyline
gs  clippath
9460 5250 m 9645 5250 l 9645 5190 l 9460 5190 l 9460 5190 l 9610 5220 l 9460 5250 l cp
eoclip
n 4500 5220 m
 9630 5220 l gs col0 s gr gr

% arrowhead
n 9460 5250 m 9610 5220 l 9460 5190 l 9490 5220 l 9460 5250 l 
 cp gs 0.00 setgray ef gr  col0 s
% Polyline
 [15 45] 45 sd
n 9405 5220 m
 9405 1575 l gs col0 s gr  [] 0 sd
% Polyline
 [15 45] 45 sd
n 4725 1575 m
 9450 1575 l gs col0 s gr  [] 0 sd
/Times-Roman ff 158.75 scf sf
8910 5400 m
gs 1 -1 sc (Complete) col0 sh gr
/Times-Roman ff 158.75 scf sf
9045 5580 m
gs 1 -1 sc (privacy) col0 sh gr
/Times-Roman ff 158.75 scf sf
4005 1665 m
gs 1 -1 sc (Complete) col0 sh gr
/Times-Roman ff 158.75 scf sf
4140 1845 m
gs 1 -1 sc (privacy) col0 sh gr
/Times-Roman ff 158.75 scf sf
4365 5445 m
gs 1 -1 sc (Zero) col0 sh gr
/Times-Roman ff 158.75 scf sf
4185 5625 m
gs 1 -1 sc (privacy) col0 sh gr
/Times-Roman ff 158.75 scf sf
9225 1485 m
gs 1 -1 sc (Unstructured) col0 sh gr
/Times-Roman ff 158.75 scf sf
4815 5085 m
gs 1 -1 sc (Structured) col0 sh gr
/Times-Roman ff 190.50 scf sf
4545 4050 m
gs 1 -1 sc  90.0 rot (Provider privacy) col0 sh gr
/Times-Roman ff 190.50 scf sf
6210 5490 m
gs 1 -1 sc (Resource privacy) col0 sh gr
/Times-Roman ff 158.75 scf sf
8415 2160 m
gs 1 -1 sc (PANACEA) col0 sh gr
% here ends figure;
pagefooter
showpage
%%Trailer
%EOF
