\relax 
\citation{freenet}
\citation{damap}
\citation{kademlia}
\citation{kademlia}
\citation{crowds}
\@writefile{toc}{\contentsline {section}{\numberline {I}Introduction}{1}}
\newlabel{sec:intro}{{I}{1}}
\citation{kanonymity}
\@writefile{lof}{\contentsline {figure}{\numberline {1}{\ignorespaces Position of various systems on privacy and search efficiency axes.}}{2}}
\newlabel{fig:pg}{{1}{2}}
\@writefile{toc}{\contentsline {section}{\numberline {II}The PANACEA System}{2}}
\newlabel{sec:panacea-system}{{II}{2}}
\@writefile{lof}{\contentsline {figure}{\numberline {2}{\ignorespaces Privacy preserving publishing in PANACEA}}{2}}
\newlabel{fig:approach}{{2}{2}}
\@writefile{toc}{\contentsline {subsection}{\numberline {\unhbox \voidb@x \hbox {II-A}}Privacy Preserving Publishing}{2}}
\newlabel{sec:approach}{{\unhbox \voidb@x \hbox {II-A}}{2}}
\@writefile{toc}{\contentsline {subsubsection}{\numberline {\unhbox \voidb@x \hbox {II-A}1}Probabilistic publishing}{2}}
\@writefile{toc}{\contentsline {subsubsection}{\numberline {\unhbox \voidb@x \hbox {II-A}2}RPP index generation}{2}}
\citation{crowds}
\citation{crowds}
\citation{privacyPreservingJournal}
\@writefile{toc}{\contentsline {subsubsection}{\numberline {\unhbox \voidb@x \hbox {II-A}3}Randomized forwarding}{3}}
\@writefile{toc}{\contentsline {subsubsection}{\numberline {\unhbox \voidb@x \hbox {II-A}4}Insertion into the DHT}{3}}
\@writefile{toc}{\contentsline {subsection}{\numberline {\unhbox \voidb@x \hbox {II-B}}Searching}{3}}
\newlabel{sec:search}{{\unhbox \voidb@x \hbox {II-B}}{3}}
\@writefile{toc}{\contentsline {section}{\numberline {III}Analysis}{4}}
\newlabel{sec:analysis}{{III}{4}}
\@writefile{toc}{\contentsline {subsection}{\numberline {\unhbox \voidb@x \hbox {III-A}}Probabilistic approach}{4}}
\newlabel{def}{{1}{4}}
\newlabel{pva_panacea}{{1}{4}}
\newlabel{pka_panacea}{{2}{4}}
\citation{serjantov02towards}
\citation{Diaz02towardsmeasuring}
\citation{serjantov02towards}
\citation{Diaz02towardsmeasuring}
\newlabel{csa_panacea}{{3}{5}}
\newlabel{pminus_panacea}{{4}{5}}
\newlabel{csminus_panacea}{{5}{5}}
\@writefile{toc}{\contentsline {subsection}{\numberline {\unhbox \voidb@x \hbox {III-B}}Information-theoretic approach}{5}}
\newlabel{r_entropy}{{8}{5}}
\newlabel{p_entropy}{{9}{6}}
\@writefile{toc}{\contentsline {section}{\numberline {IV}Evaluation}{6}}
\newlabel{sec:evaluation}{{IV}{6}}
\@writefile{lof}{\contentsline {figure}{\numberline {3}{\ignorespaces $P_{V,a}$ \textrm  {vs} $\mu $}}{6}}
\newlabel{fig:pav_nanc}{{3}{6}}
\@writefile{lof}{\contentsline {figure}{\numberline {4}{\ignorespaces $P_{V,u}$ vs $\mu $}}{6}}
\newlabel{fig:puv_nanc}{{4}{6}}
\@writefile{toc}{\contentsline {subsection}{\numberline {\unhbox \voidb@x \hbox {IV-A}}Provider privacy and search cost}{6}}
\newlabel{prov_priv}{{\unhbox \voidb@x \hbox {IV-A}}{6}}
\citation{phera}
\citation{privacyPreservingJournal}
\@writefile{lof}{\contentsline {figure}{\numberline {5}{\ignorespaces $C_{s,a}$ \textrm  {vs} $\mu $}}{7}}
\newlabel{fig:csa_nanc}{{5}{7}}
\@writefile{lof}{\contentsline {figure}{\numberline {6}{\ignorespaces $C_{s,u}$ vs $\mu $}}{7}}
\newlabel{fig:csu_nanc}{{6}{7}}
\@writefile{lof}{\contentsline {figure}{\numberline {7}{\ignorespaces $P_{V,a}$ \textrm  {vs} $\mu $}}{7}}
\newlabel{fig:pva_gen}{{7}{7}}
\@writefile{lof}{\contentsline {figure}{\numberline {8}{\ignorespaces $P_{V,u}$ vs $\mu $}}{7}}
\newlabel{fig:pvu_gen}{{8}{7}}
\@writefile{lof}{\contentsline {figure}{\numberline {9}{\ignorespaces $C_{s,a}$ \textrm  {vs} $\mu $}}{7}}
\newlabel{fig:csa_gen}{{9}{7}}
\@writefile{lof}{\contentsline {figure}{\numberline {10}{\ignorespaces $C_{s,u}$ vs $\mu $}}{7}}
\newlabel{fig:csu_gen}{{10}{7}}
\@writefile{lof}{\contentsline {figure}{\numberline {11}{\ignorespaces $H_{K}$ \textrm  {vs} $c$}}{7}}
\newlabel{fig:r_entropy}{{11}{7}}
\@writefile{lof}{\contentsline {figure}{\numberline {12}{\ignorespaces $H_{V}$ vs $c$}}{7}}
\newlabel{fig:p_entropy}{{12}{7}}
\@writefile{toc}{\contentsline {subsection}{\numberline {\unhbox \voidb@x \hbox {IV-B}}Resource privacy}{7}}
\newlabel{res_priv}{{\unhbox \voidb@x \hbox {IV-B}}{7}}
\@writefile{toc}{\contentsline {subsection}{\numberline {\unhbox \voidb@x \hbox {IV-C}}System entropy}{7}}
\@writefile{toc}{\contentsline {section}{\numberline {V}Related Work}{7}}
\newlabel{sec:relatedwork}{{V}{7}}
\citation{privacyPreservingJournal}
\citation{privacyPreservingJournal}
\citation{privacyPreservingJournal}
\citation{oneswarm}
\citation{freenet}
\citation{crowds}
\citation{agyaat}
\citation{freehaven}
\citation{freenet}
\citation{damap}
\citation{agyaat}
\citation{privacyPreservingJournal}
\bibstyle{IEEEtran}
\bibdata{main}
\bibcite{freenet}{1}
\bibcite{damap}{2}
\bibcite{kademlia}{3}
\bibcite{crowds}{4}
\bibcite{kanonymity}{5}
\bibcite{privacyPreservingJournal}{6}
\bibcite{serjantov02towards}{7}
\bibcite{Diaz02towardsmeasuring}{8}
\bibcite{phera}{9}
\bibcite{oneswarm}{10}
\bibcite{agyaat}{11}
\bibcite{freehaven}{12}
\@writefile{toc}{\contentsline {section}{\numberline {VI}Conclusion}{8}}
\newlabel{sec:conclusion}{{VI}{8}}
\@writefile{toc}{\contentsline {section}{References}{8}}
